%YAML 1.1
%TAG !u! tag:unity3d.com,2011:
--- !u!74 &7400000
AnimationClip:
  m_ObjectHideFlags: 0
  m_CorrespondingSourceObject: {fileID: 0}
  m_PrefabInstance: {fileID: 0}
  m_PrefabAsset: {fileID: 0}
  m_Name: Mushromm_AttackA
  serializedVersion: 6
  m_Legacy: 0
  m_Compressed: 0
  m_UseHighQualityCurve: 1
  m_RotationCurves: []
  m_CompressedRotationCurves: []
  m_EulerCurves: []
  m_PositionCurves: []
  m_ScaleCurves: []
  m_FloatCurves: []
  m_PPtrCurves:
  - curve:
    - time: 0
      value: {fileID: -7008412969330441016, guid: 5cdfcef2d5ef97347a8d7935407f81ab, type: 3}
    - time: 0.1
      value: {fileID: -7763475090823894447, guid: 5cdfcef2d5ef97347a8d7935407f81ab, type: 3}
    - time: 0.2
      value: {fileID: 302641331129538988, guid: 5cdfcef2d5ef97347a8d7935407f81ab, type: 3}
    - time: 0.3
      value: {fileID: -6329420634031446844, guid: 5cdfcef2d5ef97347a8d7935407f81ab, type: 3}
    - time: 0.4
      value: {fileID: -910092549403018386, guid: 5cdfcef2d5ef97347a8d7935407f81ab, type: 3}
    - time: 0.5
      value: {fileID: 221524225039350300, guid: 5cdfcef2d5ef97347a8d7935407f81ab, type: 3}
    - time: 0.6
      value: {fileID: 1290532464073988732, guid: 5cdfcef2d5ef97347a8d7935407f81ab, type: 3}
    - time: 0.7
      value: {fileID: 4780903288873104255, guid: 5cdfcef2d5ef97347a8d7935407f81ab, type: 3}
    - time: 0.8
      value: {fileID: 4780903288873104255, guid: 5cdfcef2d5ef97347a8d7935407f81ab, type: 3}
    attribute: m_Sprite
    path: 
    classID: 212
    script: {fileID: 0}
  m_SampleRate: 10
  m_WrapMode: 0
  m_Bounds:
    m_Center: {x: 0, y: 0, z: 0}
    m_Extent: {x: 0, y: 0, z: 0}
  m_ClipBindingConstant:
    genericBindings:
    - serializedVersion: 2
      path: 0
      attribute: 0
      script: {fileID: 0}
      typeID: 212
      customType: 23
      isPPtrCurve: 1
    pptrCurveMapping:
    - {fileID: -7008412969330441016, guid: 5cdfcef2d5ef97347a8d7935407f81ab, type: 3}
    - {fileID: -7763475090823894447, guid: 5cdfcef2d5ef97347a8d7935407f81ab, type: 3}
    - {fileID: 302641331129538988, guid: 5cdfcef2d5ef97347a8d7935407f81ab, type: 3}
    - {fileID: -6329420634031446844, guid: 5cdfcef2d5ef97347a8d7935407f81ab, type: 3}
    - {fileID: -910092549403018386, guid: 5cdfcef2d5ef97347a8d7935407f81ab, type: 3}
    - {fileID: 221524225039350300, guid: 5cdfcef2d5ef97347a8d7935407f81ab, type: 3}
    - {fileID: 1290532464073988732, guid: 5cdfcef2d5ef97347a8d7935407f81ab, type: 3}
    - {fileID: 4780903288873104255, guid: 5cdfcef2d5ef97347a8d7935407f81ab, type: 3}
    - {fileID: 4780903288873104255, guid: 5cdfcef2d5ef97347a8d7935407f81ab, type: 3}
  m_AnimationClipSettings:
    serializedVersion: 2
    m_AdditiveReferencePoseClip: {fileID: 0}
    m_AdditiveReferencePoseTime: 0
    m_StartTime: 0
    m_StopTime: 0.90000004
    m_OrientationOffsetY: 0
    m_Level: 0
    m_CycleOffset: 0
    m_HasAdditiveReferencePose: 0
    m_LoopTime: 0
    m_LoopBlend: 0
    m_LoopBlendOrientation: 0
    m_LoopBlendPositionY: 0
    m_LoopBlendPositionXZ: 0
    m_KeepOriginalOrientation: 0
    m_KeepOriginalPositionY: 1
    m_KeepOriginalPositionXZ: 0
    m_HeightFromFeet: 0
    m_Mirror: 0
  m_EditorCurves: []
  m_EulerEditorCurves: []
  m_HasGenericRootTransform: 0
  m_HasMotionFloatCurves: 0
  m_Events:
  - time: 0.3
    functionName: ComboPossible_
    data: 
    objectReferenceParameter: {fileID: 0}
    floatParameter: 0
    intParameter: 0
    messageOptions: 0
  - time: 0.4
    functionName: WeaponColVisible
    data: 
    objectReferenceParameter: {fileID: 0}
    floatParameter: 0
    intParameter: 0
    messageOptions: 0
  - time: 0.5
    functionName: PlayAttackSound
    data: 
    objectReferenceParameter: {fileID: 8300000, guid: 21a3587d71d0d0c4ba6b8bec6fec925d, type: 3}
    floatParameter: 0
    intParameter: 0
    messageOptions: 0
  - time: 0.7
    functionName: Combo
    data: 
    objectReferenceParameter: {fileID: 0}
    floatParameter: 0
    intParameter: 0
    messageOptions: 0
  - time: 0.8
    functionName: ComboReset
    data: 
    objectReferenceParameter: {fileID: 0}
    floatParameter: 0
    intParameter: 0
    messageOptions: 0
  - time: 0.8
    functionName: WeaponColHide
    data: 
    objectReferenceParameter: {fileID: 0}
    floatParameter: 0
    intParameter: 0
    messageOptions: 0
