%YAML 1.1
%TAG !u! tag:unity3d.com,2011:
--- !u!74 &7400000
AnimationClip:
  m_ObjectHideFlags: 0
  m_CorrespondingSourceObject: {fileID: 0}
  m_PrefabInstance: {fileID: 0}
  m_PrefabAsset: {fileID: 0}
  m_Name: AttackA
  serializedVersion: 6
  m_Legacy: 0
  m_Compressed: 0
  m_UseHighQualityCurve: 1
  m_RotationCurves: []
  m_CompressedRotationCurves: []
  m_EulerCurves: []
  m_PositionCurves: []
  m_ScaleCurves: []
  m_FloatCurves: []
  m_PPtrCurves:
  - curve:
    - time: 0
      value: {fileID: 21300000, guid: 47097c79cd3193e4693c94442b398996, type: 3}
    - time: 0.14285715
      value: {fileID: 21300000, guid: 0b0278f16a32da445a7bc57169e4e74f, type: 3}
    - time: 0.2857143
      value: {fileID: 21300000, guid: 73d6435dba9a6f0438545b382834d801, type: 3}
    - time: 0.42857143
      value: {fileID: 21300000, guid: fc6a6c71e24e89b478994b45c304a252, type: 3}
    - time: 0.5714286
      value: {fileID: 21300000, guid: 3f8534465dbe239469be96c8bdc12784, type: 3}
    - time: 0.71428573
      value: {fileID: 21300000, guid: 92d6390e0f19fc24bbbb174370596086, type: 3}
    - time: 0.85714287
      value: {fileID: 21300000, guid: 29fb5f76031cb824aa318e677b043bb2, type: 3}
    - time: 1
      value: {fileID: 21300000, guid: 95443ebfd4cdfdc41b2c49250b2ef4be, type: 3}
    - time: 1.1428572
      value: {fileID: 21300000, guid: 1fe7237d9c5de7d4788f1d2cf0a4eecf, type: 3}
    - time: 1.2857143
      value: {fileID: 21300000, guid: ef4988fd228e9134984d8e78e121d716, type: 3}
    - time: 1.4285715
      value: {fileID: 21300000, guid: ec569d5fd41b48744b2b6a5f4dbb1a8d, type: 3}
    - time: 1.5714285
      value: {fileID: 21300000, guid: c95511bf1abc3ec4fbbb353412af7a50, type: 3}
    - time: 1.7142857
      value: {fileID: 21300000, guid: f3d881698fe5bde49a25e41beb8318d4, type: 3}
    - time: 1.8571428
      value: {fileID: 21300000, guid: 9b3d4d0d93437b843b6e5fe550fe8b94, type: 3}
    - time: 2
      value: {fileID: 21300000, guid: 22c2d9dc558bf2f4ebf870b1b5fe3530, type: 3}
    attribute: m_Sprite
    path: 
    classID: 212
    script: {fileID: 0}
  m_SampleRate: 7
  m_WrapMode: 0
  m_Bounds:
    m_Center: {x: 0, y: 0, z: 0}
    m_Extent: {x: 0, y: 0, z: 0}
  m_ClipBindingConstant:
    genericBindings:
    - serializedVersion: 2
      path: 0
      attribute: 0
      script: {fileID: 0}
      typeID: 212
      customType: 23
      isPPtrCurve: 1
    pptrCurveMapping:
    - {fileID: 21300000, guid: 47097c79cd3193e4693c94442b398996, type: 3}
    - {fileID: 21300000, guid: 0b0278f16a32da445a7bc57169e4e74f, type: 3}
    - {fileID: 21300000, guid: 73d6435dba9a6f0438545b382834d801, type: 3}
    - {fileID: 21300000, guid: fc6a6c71e24e89b478994b45c304a252, type: 3}
    - {fileID: 21300000, guid: 3f8534465dbe239469be96c8bdc12784, type: 3}
    - {fileID: 21300000, guid: 92d6390e0f19fc24bbbb174370596086, type: 3}
    - {fileID: 21300000, guid: 29fb5f76031cb824aa318e677b043bb2, type: 3}
    - {fileID: 21300000, guid: 95443ebfd4cdfdc41b2c49250b2ef4be, type: 3}
    - {fileID: 21300000, guid: 1fe7237d9c5de7d4788f1d2cf0a4eecf, type: 3}
    - {fileID: 21300000, guid: ef4988fd228e9134984d8e78e121d716, type: 3}
    - {fileID: 21300000, guid: ec569d5fd41b48744b2b6a5f4dbb1a8d, type: 3}
    - {fileID: 21300000, guid: c95511bf1abc3ec4fbbb353412af7a50, type: 3}
    - {fileID: 21300000, guid: f3d881698fe5bde49a25e41beb8318d4, type: 3}
    - {fileID: 21300000, guid: 9b3d4d0d93437b843b6e5fe550fe8b94, type: 3}
    - {fileID: 21300000, guid: 22c2d9dc558bf2f4ebf870b1b5fe3530, type: 3}
  m_AnimationClipSettings:
    serializedVersion: 2
    m_AdditiveReferencePoseClip: {fileID: 0}
    m_AdditiveReferencePoseTime: 0
    m_StartTime: 0
    m_StopTime: 2.142857
    m_OrientationOffsetY: 0
    m_Level: 0
    m_CycleOffset: 0
    m_HasAdditiveReferencePose: 0
    m_LoopTime: 0
    m_LoopBlend: 0
    m_LoopBlendOrientation: 0
    m_LoopBlendPositionY: 0
    m_LoopBlendPositionXZ: 0
    m_KeepOriginalOrientation: 0
    m_KeepOriginalPositionY: 1
    m_KeepOriginalPositionXZ: 0
    m_HeightFromFeet: 0
    m_Mirror: 0
  m_EditorCurves: []
  m_EulerEditorCurves: []
  m_HasGenericRootTransform: 0
  m_HasMotionFloatCurves: 0
  m_Events:
  - time: 1.1428572
    functionName: PlayAttackSound
    data: 
    objectReferenceParameter: {fileID: 0}
    floatParameter: 0
    intParameter: 0
    messageOptions: 0
  - time: 1.2857143
    functionName: WeaponColVisible
    data: 
    objectReferenceParameter: {fileID: 0}
    floatParameter: 0
    intParameter: 0
    messageOptions: 0
  - time: 1.7142857
    functionName: WeaponColHide
    data: 
    objectReferenceParameter: {fileID: 0}
    floatParameter: 0
    intParameter: 0
    messageOptions: 0
  - time: 2
    functionName: ComboReset
    data: 
    objectReferenceParameter: {fileID: 0}
    floatParameter: 0
    intParameter: 0
    messageOptions: 0
