%YAML 1.1
%TAG !u! tag:unity3d.com,2011:
--- !u!1 &724164531830669292
GameObject:
  m_ObjectHideFlags: 0
  m_CorrespondingSourceObject: {fileID: 0}
  m_PrefabInstance: {fileID: 0}
  m_PrefabAsset: {fileID: 0}
  serializedVersion: 6
  m_Component:
  - component: {fileID: 299008622165011597}
  - component: {fileID: 1977519015451789516}
  - component: {fileID: 1332099933}
  m_Layer: 10
  m_Name: PF Village Props Stall Table
  m_TagString: Untagged
  m_Icon: {fileID: 0}
  m_NavMeshLayer: 0
  m_StaticEditorFlags: 0
  m_IsActive: 1
--- !u!4 &299008622165011597
Transform:
  m_ObjectHideFlags: 0
  m_CorrespondingSourceObject: {fileID: 0}
  m_PrefabInstance: {fileID: 0}
  m_PrefabAsset: {fileID: 0}
  m_GameObject: {fileID: 724164531830669292}
  m_LocalRotation: {x: -0, y: -0, z: -0, w: 1}
  m_LocalPosition: {x: 0, y: 0, z: 0}
  m_LocalScale: {x: 1, y: 1, z: 1}
  m_ConstrainProportionsScale: 0
  m_Children: []
  m_Father: {fileID: 8880890979157700243}
  m_RootOrder: 7
  m_LocalEulerAnglesHint: {x: 0, y: 0, z: 0}
--- !u!212 &1977519015451789516
SpriteRenderer:
  m_ObjectHideFlags: 0
  m_CorrespondingSourceObject: {fileID: 0}
  m_PrefabInstance: {fileID: 0}
  m_PrefabAsset: {fileID: 0}
  m_GameObject: {fileID: 724164531830669292}
  m_Enabled: 1
  m_CastShadows: 0
  m_ReceiveShadows: 0
  m_DynamicOccludee: 1
  m_StaticShadowCaster: 0
  m_MotionVectors: 1
  m_LightProbeUsage: 1
  m_ReflectionProbeUsage: 1
  m_RayTracingMode: 0
  m_RayTraceProcedural: 0
  m_RenderingLayerMask: 1
  m_RendererPriority: 0
  m_Materials:
  - {fileID: 2100000, guid: 014095a0ff976c9478d39b72d0bbe6db, type: 2}
  m_StaticBatchInfo:
    firstSubMesh: 0
    subMeshCount: 0
  m_StaticBatchRoot: {fileID: 0}
  m_ProbeAnchor: {fileID: 0}
  m_LightProbeVolumeOverride: {fileID: 0}
  m_ScaleInLightmap: 1
  m_ReceiveGI: 1
  m_PreserveUVs: 0
  m_IgnoreNormalsForChartDetection: 0
  m_ImportantGI: 0
  m_StitchLightmapSeams: 0
  m_SelectedEditorRenderState: 0
  m_MinimumChartSize: 4
  m_AutoUVMaxDistance: 0.5
  m_AutoUVMaxAngle: 89
  m_LightmapParameters: {fileID: 0}
  m_SortingLayerID: 1478759805
  m_SortingLayer: 7
  m_SortingOrder: 0
  m_Sprite: {fileID: 21300194, guid: 7810966f0f690954c87305933cabf2b0, type: 3}
  m_Color: {r: 1, g: 1, b: 1, a: 1}
  m_FlipX: 0
  m_FlipY: 0
  m_DrawMode: 0
  m_Size: {x: 2.65625, y: 1.03125}
  m_AdaptiveModeThreshold: 0.5
  m_SpriteTileMode: 0
  m_WasSpriteAssigned: 1
  m_MaskInteraction: 0
  m_SpriteSortPoint: 0
--- !u!61 &1332099933
BoxCollider2D:
  m_ObjectHideFlags: 0
  m_CorrespondingSourceObject: {fileID: 0}
  m_PrefabInstance: {fileID: 0}
  m_PrefabAsset: {fileID: 0}
  m_GameObject: {fileID: 724164531830669292}
  m_Enabled: 1
  m_Density: 1
  m_Material: {fileID: 0}
  m_IsTrigger: 0
  m_UsedByEffector: 0
  m_UsedByComposite: 0
  m_Offset: {x: 0, y: 0.515625}
  m_SpriteTilingProperty:
    border: {x: 0, y: 0, z: 0, w: 0}
    pivot: {x: 0.5, y: 0}
    oldSize: {x: 2.65625, y: 1.03125}
    newSize: {x: 2.65625, y: 1.03125}
    adaptiveTilingThreshold: 0.5
    drawMode: 0
    adaptiveTiling: 0
  m_AutoTiling: 0
  serializedVersion: 2
  m_Size: {x: 2.65625, y: 1.03125}
  m_EdgeRadius: 0
--- !u!1 &8051331140613826801
GameObject:
  m_ObjectHideFlags: 0
  m_CorrespondingSourceObject: {fileID: 0}
  m_PrefabInstance: {fileID: 0}
  m_PrefabAsset: {fileID: 0}
  serializedVersion: 6
  m_Component:
  - component: {fileID: 3078579911246584663}
  - component: {fileID: 5308262434981331243}
  - component: {fileID: 932208449}
  m_Layer: 10
  m_Name: TX Village Props Stall Tent Pillar (2)
  m_TagString: Untagged
  m_Icon: {fileID: 0}
  m_NavMeshLayer: 0
  m_StaticEditorFlags: 0
  m_IsActive: 1
--- !u!4 &3078579911246584663
Transform:
  m_ObjectHideFlags: 0
  m_CorrespondingSourceObject: {fileID: 0}
  m_PrefabInstance: {fileID: 0}
  m_PrefabAsset: {fileID: 0}
  m_GameObject: {fileID: 8051331140613826801}
  m_LocalRotation: {x: -0, y: -0, z: -0, w: 1}
  m_LocalPosition: {x: 1.692, y: 1.3579998, z: 0}
  m_LocalScale: {x: -1, y: 1, z: 1}
  m_ConstrainProportionsScale: 0
  m_Children: []
  m_Father: {fileID: 8880890979157700243}
  m_RootOrder: 16
  m_LocalEulerAnglesHint: {x: 0, y: 0, z: 0}
--- !u!212 &5308262434981331243
SpriteRenderer:
  m_ObjectHideFlags: 0
  m_CorrespondingSourceObject: {fileID: 0}
  m_PrefabInstance: {fileID: 0}
  m_PrefabAsset: {fileID: 0}
  m_GameObject: {fileID: 8051331140613826801}
  m_Enabled: 1
  m_CastShadows: 0
  m_ReceiveShadows: 0
  m_DynamicOccludee: 1
  m_StaticShadowCaster: 0
  m_MotionVectors: 1
  m_LightProbeUsage: 1
  m_ReflectionProbeUsage: 1
  m_RayTracingMode: 0
  m_RayTraceProcedural: 0
  m_RenderingLayerMask: 1
  m_RendererPriority: 0
  m_Materials:
  - {fileID: 2100000, guid: 014095a0ff976c9478d39b72d0bbe6db, type: 2}
  m_StaticBatchInfo:
    firstSubMesh: 0
    subMeshCount: 0
  m_StaticBatchRoot: {fileID: 0}
  m_ProbeAnchor: {fileID: 0}
  m_LightProbeVolumeOverride: {fileID: 0}
  m_ScaleInLightmap: 1
  m_ReceiveGI: 1
  m_PreserveUVs: 0
  m_IgnoreNormalsForChartDetection: 0
  m_ImportantGI: 0
  m_StitchLightmapSeams: 0
  m_SelectedEditorRenderState: 0
  m_MinimumChartSize: 4
  m_AutoUVMaxDistance: 0.5
  m_AutoUVMaxAngle: 89
  m_LightmapParameters: {fileID: 0}
  m_SortingLayerID: -730795765
  m_SortingLayer: 3
  m_SortingOrder: 0
  m_Sprite: {fileID: 21300190, guid: 7810966f0f690954c87305933cabf2b0, type: 3}
  m_Color: {r: 1, g: 1, b: 1, a: 1}
  m_FlipX: 0
  m_FlipY: 0
  m_DrawMode: 0
  m_Size: {x: 0.625, y: 2.71875}
  m_AdaptiveModeThreshold: 0.5
  m_SpriteTileMode: 0
  m_WasSpriteAssigned: 1
  m_MaskInteraction: 0
  m_SpriteSortPoint: 0
--- !u!61 &932208449
BoxCollider2D:
  m_ObjectHideFlags: 0
  m_CorrespondingSourceObject: {fileID: 0}
  m_PrefabInstance: {fileID: 0}
  m_PrefabAsset: {fileID: 0}
  m_GameObject: {fileID: 8051331140613826801}
  m_Enabled: 1
  m_Density: 1
  m_Material: {fileID: 0}
  m_IsTrigger: 0
  m_UsedByEffector: 0
  m_UsedByComposite: 0
  m_Offset: {x: 0, y: 0}
  m_SpriteTilingProperty:
    border: {x: 0, y: 0, z: 0, w: 0}
    pivot: {x: 0.5, y: 0.5}
    oldSize: {x: 0.625, y: 2.71875}
    newSize: {x: 0.625, y: 2.71875}
    adaptiveTilingThreshold: 0.5
    drawMode: 0
    adaptiveTiling: 0
  m_AutoTiling: 0
  serializedVersion: 2
  m_Size: {x: 0.625, y: 2.71875}
  m_EdgeRadius: 0
--- !u!1 &8880890977736793459
GameObject:
  m_ObjectHideFlags: 0
  m_CorrespondingSourceObject: {fileID: 0}
  m_PrefabInstance: {fileID: 0}
  m_PrefabAsset: {fileID: 0}
  serializedVersion: 6
  m_Component:
  - component: {fileID: 8880890977736793461}
  - component: {fileID: 8880890977736793460}
  - component: {fileID: 1977275686}
  m_Layer: 10
  m_Name: TX Village Props Hanging Bag
  m_TagString: Untagged
  m_Icon: {fileID: 0}
  m_NavMeshLayer: 0
  m_StaticEditorFlags: 0
  m_IsActive: 1
--- !u!4 &8880890977736793461
Transform:
  m_ObjectHideFlags: 0
  m_CorrespondingSourceObject: {fileID: 0}
  m_PrefabInstance: {fileID: 0}
  m_PrefabAsset: {fileID: 0}
  m_GameObject: {fileID: 8880890977736793459}
  m_LocalRotation: {x: -0, y: -0, z: -0, w: 1}
  m_LocalPosition: {x: -1.7249985, y: 1.1559999, z: -0.076}
  m_LocalScale: {x: 1, y: 1, z: 1}
  m_ConstrainProportionsScale: 0
  m_Children: []
  m_Father: {fileID: 8880890979157700243}
  m_RootOrder: 6
  m_LocalEulerAnglesHint: {x: 0, y: 0, z: 0}
--- !u!212 &8880890977736793460
SpriteRenderer:
  m_ObjectHideFlags: 0
  m_CorrespondingSourceObject: {fileID: 0}
  m_PrefabInstance: {fileID: 0}
  m_PrefabAsset: {fileID: 0}
  m_GameObject: {fileID: 8880890977736793459}
  m_Enabled: 1
  m_CastShadows: 0
  m_ReceiveShadows: 0
  m_DynamicOccludee: 1
  m_StaticShadowCaster: 0
  m_MotionVectors: 1
  m_LightProbeUsage: 1
  m_ReflectionProbeUsage: 1
  m_RayTracingMode: 0
  m_RayTraceProcedural: 0
  m_RenderingLayerMask: 1
  m_RendererPriority: 0
  m_Materials:
  - {fileID: 2100000, guid: 014095a0ff976c9478d39b72d0bbe6db, type: 2}
  m_StaticBatchInfo:
    firstSubMesh: 0
    subMeshCount: 0
  m_StaticBatchRoot: {fileID: 0}
  m_ProbeAnchor: {fileID: 0}
  m_LightProbeVolumeOverride: {fileID: 0}
  m_ScaleInLightmap: 1
  m_ReceiveGI: 1
  m_PreserveUVs: 0
  m_IgnoreNormalsForChartDetection: 0
  m_ImportantGI: 0
  m_StitchLightmapSeams: 0
  m_SelectedEditorRenderState: 0
  m_MinimumChartSize: 4
  m_AutoUVMaxDistance: 0.5
  m_AutoUVMaxAngle: 89
  m_LightmapParameters: {fileID: 0}
  m_SortingLayerID: -730795765
  m_SortingLayer: 3
  m_SortingOrder: 0
  m_Sprite: {fileID: 21300192, guid: 7810966f0f690954c87305933cabf2b0, type: 3}
  m_Color: {r: 1, g: 1, b: 1, a: 1}
  m_FlipX: 0
  m_FlipY: 0
  m_DrawMode: 0
  m_Size: {x: 0.3125, y: 1.25}
  m_AdaptiveModeThreshold: 0.5
  m_SpriteTileMode: 0
  m_WasSpriteAssigned: 1
  m_MaskInteraction: 0
  m_SpriteSortPoint: 0
--- !u!61 &1977275686
BoxCollider2D:
  m_ObjectHideFlags: 0
  m_CorrespondingSourceObject: {fileID: 0}
  m_PrefabInstance: {fileID: 0}
  m_PrefabAsset: {fileID: 0}
  m_GameObject: {fileID: 8880890977736793459}
  m_Enabled: 1
  m_Density: 1
  m_Material: {fileID: 0}
  m_IsTrigger: 0
  m_UsedByEffector: 0
  m_UsedByComposite: 0
  m_Offset: {x: 0, y: 0}
  m_SpriteTilingProperty:
    border: {x: 0, y: 0, z: 0, w: 0}
    pivot: {x: 0.5, y: 0.5}
    oldSize: {x: 0.3125, y: 1.21875}
    newSize: {x: 0.3125, y: 1.25}
    adaptiveTilingThreshold: 0.5
    drawMode: 0
    adaptiveTiling: 0
  m_AutoTiling: 0
  serializedVersion: 2
  m_Size: {x: 0.3125, y: 1.21875}
  m_EdgeRadius: 0
--- !u!1 &8880890978217765432
GameObject:
  m_ObjectHideFlags: 0
  m_CorrespondingSourceObject: {fileID: 0}
  m_PrefabInstance: {fileID: 0}
  m_PrefabAsset: {fileID: 0}
  serializedVersion: 6
  m_Component:
  - component: {fileID: 8880890978217765434}
  - component: {fileID: 8880890978217765433}
  - component: {fileID: 259831205}
  m_Layer: 10
  m_Name: TX Village Props Stall Fruit C
  m_TagString: Untagged
  m_Icon: {fileID: 0}
  m_NavMeshLayer: 0
  m_StaticEditorFlags: 0
  m_IsActive: 1
--- !u!4 &8880890978217765434
Transform:
  m_ObjectHideFlags: 0
  m_CorrespondingSourceObject: {fileID: 0}
  m_PrefabInstance: {fileID: 0}
  m_PrefabAsset: {fileID: 0}
  m_GameObject: {fileID: 8880890978217765432}
  m_LocalRotation: {x: -0, y: -0, z: -0, w: 1}
  m_LocalPosition: {x: -0.15550232, y: 0.7654, z: -0.078}
  m_LocalScale: {x: 1, y: 1, z: 1}
  m_ConstrainProportionsScale: 0
  m_Children: []
  m_Father: {fileID: 8880890979157700243}
  m_RootOrder: 4
  m_LocalEulerAnglesHint: {x: 0, y: 0, z: 0}
--- !u!212 &8880890978217765433
SpriteRenderer:
  m_ObjectHideFlags: 0
  m_CorrespondingSourceObject: {fileID: 0}
  m_PrefabInstance: {fileID: 0}
  m_PrefabAsset: {fileID: 0}
  m_GameObject: {fileID: 8880890978217765432}
  m_Enabled: 1
  m_CastShadows: 0
  m_ReceiveShadows: 0
  m_DynamicOccludee: 1
  m_StaticShadowCaster: 0
  m_MotionVectors: 1
  m_LightProbeUsage: 1
  m_ReflectionProbeUsage: 1
  m_RayTracingMode: 0
  m_RayTraceProcedural: 0
  m_RenderingLayerMask: 1
  m_RendererPriority: 0
  m_Materials:
  - {fileID: 2100000, guid: 014095a0ff976c9478d39b72d0bbe6db, type: 2}
  m_StaticBatchInfo:
    firstSubMesh: 0
    subMeshCount: 0
  m_StaticBatchRoot: {fileID: 0}
  m_ProbeAnchor: {fileID: 0}
  m_LightProbeVolumeOverride: {fileID: 0}
  m_ScaleInLightmap: 1
  m_ReceiveGI: 1
  m_PreserveUVs: 0
  m_IgnoreNormalsForChartDetection: 0
  m_ImportantGI: 0
  m_StitchLightmapSeams: 0
  m_SelectedEditorRenderState: 0
  m_MinimumChartSize: 4
  m_AutoUVMaxDistance: 0.5
  m_AutoUVMaxAngle: 89
  m_LightmapParameters: {fileID: 0}
  m_SortingLayerID: 1478759805
  m_SortingLayer: 7
  m_SortingOrder: 1
  m_Sprite: {fileID: 21300210, guid: 7810966f0f690954c87305933cabf2b0, type: 3}
  m_Color: {r: 1, g: 1, b: 1, a: 1}
  m_FlipX: 0
  m_FlipY: 0
  m_DrawMode: 0
  m_Size: {x: 0.28125, y: 0.40625}
  m_AdaptiveModeThreshold: 0.5
  m_SpriteTileMode: 0
  m_WasSpriteAssigned: 1
  m_MaskInteraction: 0
  m_SpriteSortPoint: 0
--- !u!61 &259831205
BoxCollider2D:
  m_ObjectHideFlags: 0
  m_CorrespondingSourceObject: {fileID: 0}
  m_PrefabInstance: {fileID: 0}
  m_PrefabAsset: {fileID: 0}
  m_GameObject: {fileID: 8880890978217765432}
  m_Enabled: 1
  m_Density: 1
  m_Material: {fileID: 0}
  m_IsTrigger: 0
  m_UsedByEffector: 0
  m_UsedByComposite: 0
  m_Offset: {x: 0, y: 0}
  m_SpriteTilingProperty:
    border: {x: 0, y: 0, z: 0, w: 0}
    pivot: {x: 0.5, y: 0.5}
    oldSize: {x: 0.28125, y: 0.40625}
    newSize: {x: 0.28125, y: 0.40625}
    adaptiveTilingThreshold: 0.5
    drawMode: 0
    adaptiveTiling: 0
  m_AutoTiling: 0
  serializedVersion: 2
  m_Size: {x: 0.28125, y: 0.40625}
  m_EdgeRadius: 0
--- !u!1 &8880890978261839355
GameObject:
  m_ObjectHideFlags: 0
  m_CorrespondingSourceObject: {fileID: 0}
  m_PrefabInstance: {fileID: 0}
  m_PrefabAsset: {fileID: 0}
  serializedVersion: 6
  m_Component:
  - component: {fileID: 8880890978261839357}
  - component: {fileID: 8880890978261839356}
  - component: {fileID: 1064204855957832875}
  - component: {fileID: 259831208}
  m_Layer: 10
  m_Name: TX Village Props Stall Tent Pillar
  m_TagString: Untagged
  m_Icon: {fileID: 0}
  m_NavMeshLayer: 0
  m_StaticEditorFlags: 0
  m_IsActive: 1
--- !u!4 &8880890978261839357
Transform:
  m_ObjectHideFlags: 0
  m_CorrespondingSourceObject: {fileID: 0}
  m_PrefabInstance: {fileID: 0}
  m_PrefabAsset: {fileID: 0}
  m_GameObject: {fileID: 8880890978261839355}
  m_LocalRotation: {x: -0, y: -0, z: -0, w: 1}
  m_LocalPosition: {x: -1.6930008, y: 1.3579998, z: 0}
  m_LocalScale: {x: 1, y: 1, z: 1}
  m_ConstrainProportionsScale: 0
  m_Children: []
  m_Father: {fileID: 8880890979157700243}
  m_RootOrder: 1
  m_LocalEulerAnglesHint: {x: 0, y: 0, z: 0}
--- !u!212 &8880890978261839356
SpriteRenderer:
  m_ObjectHideFlags: 0
  m_CorrespondingSourceObject: {fileID: 0}
  m_PrefabInstance: {fileID: 0}
  m_PrefabAsset: {fileID: 0}
  m_GameObject: {fileID: 8880890978261839355}
  m_Enabled: 1
  m_CastShadows: 0
  m_ReceiveShadows: 0
  m_DynamicOccludee: 1
  m_StaticShadowCaster: 0
  m_MotionVectors: 1
  m_LightProbeUsage: 1
  m_ReflectionProbeUsage: 1
  m_RayTracingMode: 0
  m_RayTraceProcedural: 0
  m_RenderingLayerMask: 1
  m_RendererPriority: 0
  m_Materials:
  - {fileID: 2100000, guid: 014095a0ff976c9478d39b72d0bbe6db, type: 2}
  m_StaticBatchInfo:
    firstSubMesh: 0
    subMeshCount: 0
  m_StaticBatchRoot: {fileID: 0}
  m_ProbeAnchor: {fileID: 0}
  m_LightProbeVolumeOverride: {fileID: 0}
  m_ScaleInLightmap: 1
  m_ReceiveGI: 1
  m_PreserveUVs: 0
  m_IgnoreNormalsForChartDetection: 0
  m_ImportantGI: 0
  m_StitchLightmapSeams: 0
  m_SelectedEditorRenderState: 0
  m_MinimumChartSize: 4
  m_AutoUVMaxDistance: 0.5
  m_AutoUVMaxAngle: 89
  m_LightmapParameters: {fileID: 0}
  m_SortingLayerID: -730795765
  m_SortingLayer: 3
  m_SortingOrder: 0
  m_Sprite: {fileID: 21300190, guid: 7810966f0f690954c87305933cabf2b0, type: 3}
  m_Color: {r: 1, g: 1, b: 1, a: 1}
  m_FlipX: 0
  m_FlipY: 0
  m_DrawMode: 0
  m_Size: {x: 0.625, y: 2.71875}
  m_AdaptiveModeThreshold: 0.5
  m_SpriteTileMode: 0
  m_WasSpriteAssigned: 1
  m_MaskInteraction: 0
  m_SpriteSortPoint: 0
--- !u!114 &1064204855957832875
MonoBehaviour:
  m_ObjectHideFlags: 0
  m_CorrespondingSourceObject: {fileID: 0}
  m_PrefabInstance: {fileID: 0}
  m_PrefabAsset: {fileID: 0}
  m_GameObject: {fileID: 8880890978261839355}
  m_Enabled: 1
  m_EditorHideFlags: 0
  m_Script: {fileID: 11500000, guid: 7db70e0ea77f5ac47a8f4565a9406397, type: 3}
  m_Name: 
  m_EditorClassIdentifier: 
  m_ShadowGroup: 0
  m_ComponentVersion: 1
  m_HasRenderer: 1
  m_UseRendererSilhouette: 1
  m_CastsShadows: 1
  m_SelfShadows: 0
  m_ApplyToSortingLayers: 000000002169316e9df3ca6f0bf170d4835bbe9f1bf64bf3694ccebc7d152458bd7f93bc9dad369fe72bb207
  m_ShapePath:
  - {x: 0.10166693, y: -0.78375256, z: 0}
  - {x: -0.123506546, y: -0.7895269, z: 0}
  - {x: -0.17264509, y: -0.5859531, z: 0}
  - {x: -0.03926897, y: -0.12966716, z: 0}
  - {x: -0.03224945, y: 0.2353617, z: 0}
  - {x: -0.13754606, y: 0.27748036, z: 0}
  - {x: -0.13052607, y: 0.45297503, z: 0}
  - {x: 0.15026522, y: 0.44595528, z: 0}
  - {x: 0.17132473, y: 0.7899246, z: 0}
  - {x: -0.30602074, y: 0.7969446, z: 0}
  - {x: -0.2779417, y: 0.9654193, z: 0}
  - {x: 0.15728474, y: 0.9513798, z: 0}
  - {x: 0.14378595, y: 1.359375, z: 0}
  - {x: 0.3125, y: 1.359375, z: 0}
  - {x: 0.3125, y: -1.3383155, z: 0}
  - {x: 0.22046328, y: -1.3581295, z: 0}
  - {x: 0.16430473, y: 0.29152, z: 0}
  - {x: 0.05900812, y: 0.2564211, z: 0}
  - {x: 0.051988125, y: -0.10158801, z: 0}
  - {x: 0.122186184, y: -0.19986498, z: 0}
  - {x: 0.080067635, y: -0.27708256, z: 0}
  m_ShapePathHash: 1009729019
  m_Mesh: {fileID: 0}
  m_InstanceId: -27502
--- !u!61 &259831208
BoxCollider2D:
  m_ObjectHideFlags: 0
  m_CorrespondingSourceObject: {fileID: 0}
  m_PrefabInstance: {fileID: 0}
  m_PrefabAsset: {fileID: 0}
  m_GameObject: {fileID: 8880890978261839355}
  m_Enabled: 1
  m_Density: 1
  m_Material: {fileID: 0}
  m_IsTrigger: 0
  m_UsedByEffector: 0
  m_UsedByComposite: 0
  m_Offset: {x: 0, y: 0}
  m_SpriteTilingProperty:
    border: {x: 0, y: 0, z: 0, w: 0}
    pivot: {x: 0.5, y: 0.5}
    oldSize: {x: 0.625, y: 2.71875}
    newSize: {x: 0.625, y: 2.71875}
    adaptiveTilingThreshold: 0.5
    drawMode: 0
    adaptiveTiling: 0
  m_AutoTiling: 0
  serializedVersion: 2
  m_Size: {x: 0.625, y: 2.71875}
  m_EdgeRadius: 0
--- !u!1 &8880890978844414795
GameObject:
  m_ObjectHideFlags: 0
  m_CorrespondingSourceObject: {fileID: 0}
  m_PrefabInstance: {fileID: 0}
  m_PrefabAsset: {fileID: 0}
  serializedVersion: 6
  m_Component:
  - component: {fileID: 8880890978844414797}
  - component: {fileID: 8880890978844414796}
  - component: {fileID: 400611249}
  m_Layer: 10
  m_Name: TX Village Props Stall Fruit D
  m_TagString: Untagged
  m_Icon: {fileID: 0}
  m_NavMeshLayer: 0
  m_StaticEditorFlags: 0
  m_IsActive: 1
--- !u!4 &8880890978844414797
Transform:
  m_ObjectHideFlags: 0
  m_CorrespondingSourceObject: {fileID: 0}
  m_PrefabInstance: {fileID: 0}
  m_PrefabAsset: {fileID: 0}
  m_GameObject: {fileID: 8880890978844414795}
  m_LocalRotation: {x: -0, y: -0, z: -0, w: 1}
  m_LocalPosition: {x: 0.28160095, y: 0.76509994, z: -0.078}
  m_LocalScale: {x: 1, y: 1, z: 1}
  m_ConstrainProportionsScale: 0
  m_Children: []
  m_Father: {fileID: 8880890979157700243}
  m_RootOrder: 5
  m_LocalEulerAnglesHint: {x: 0, y: 0, z: 0}
--- !u!212 &8880890978844414796
SpriteRenderer:
  m_ObjectHideFlags: 0
  m_CorrespondingSourceObject: {fileID: 0}
  m_PrefabInstance: {fileID: 0}
  m_PrefabAsset: {fileID: 0}
  m_GameObject: {fileID: 8880890978844414795}
  m_Enabled: 1
  m_CastShadows: 0
  m_ReceiveShadows: 0
  m_DynamicOccludee: 1
  m_StaticShadowCaster: 0
  m_MotionVectors: 1
  m_LightProbeUsage: 1
  m_ReflectionProbeUsage: 1
  m_RayTracingMode: 0
  m_RayTraceProcedural: 0
  m_RenderingLayerMask: 1
  m_RendererPriority: 0
  m_Materials:
  - {fileID: 2100000, guid: 014095a0ff976c9478d39b72d0bbe6db, type: 2}
  m_StaticBatchInfo:
    firstSubMesh: 0
    subMeshCount: 0
  m_StaticBatchRoot: {fileID: 0}
  m_ProbeAnchor: {fileID: 0}
  m_LightProbeVolumeOverride: {fileID: 0}
  m_ScaleInLightmap: 1
  m_ReceiveGI: 1
  m_PreserveUVs: 0
  m_IgnoreNormalsForChartDetection: 0
  m_ImportantGI: 0
  m_StitchLightmapSeams: 0
  m_SelectedEditorRenderState: 0
  m_MinimumChartSize: 4
  m_AutoUVMaxDistance: 0.5
  m_AutoUVMaxAngle: 89
  m_LightmapParameters: {fileID: 0}
  m_SortingLayerID: 1478759805
  m_SortingLayer: 7
  m_SortingOrder: 1
  m_Sprite: {fileID: 21300212, guid: 7810966f0f690954c87305933cabf2b0, type: 3}
  m_Color: {r: 1, g: 1, b: 1, a: 1}
  m_FlipX: 0
  m_FlipY: 0
  m_DrawMode: 0
  m_Size: {x: 0.28125, y: 0.40625}
  m_AdaptiveModeThreshold: 0.5
  m_SpriteTileMode: 0
  m_WasSpriteAssigned: 1
  m_MaskInteraction: 0
  m_SpriteSortPoint: 0
--- !u!61 &400611249
BoxCollider2D:
  m_ObjectHideFlags: 0
  m_CorrespondingSourceObject: {fileID: 0}
  m_PrefabInstance: {fileID: 0}
  m_PrefabAsset: {fileID: 0}
  m_GameObject: {fileID: 8880890978844414795}
  m_Enabled: 1
  m_Density: 1
  m_Material: {fileID: 0}
  m_IsTrigger: 0
  m_UsedByEffector: 0
  m_UsedByComposite: 0
  m_Offset: {x: 0, y: 0}
  m_SpriteTilingProperty:
    border: {x: 0, y: 0, z: 0, w: 0}
    pivot: {x: 0.5, y: 0.5}
    oldSize: {x: 0.28125, y: 0.40625}
    newSize: {x: 0.28125, y: 0.40625}
    adaptiveTilingThreshold: 0.5
    drawMode: 0
    adaptiveTiling: 0
  m_AutoTiling: 0
  serializedVersion: 2
  m_Size: {x: 0.28125, y: 0.40625}
  m_EdgeRadius: 0
--- !u!1 &8880890979093333424
GameObject:
  m_ObjectHideFlags: 0
  m_CorrespondingSourceObject: {fileID: 0}
  m_PrefabInstance: {fileID: 0}
  m_PrefabAsset: {fileID: 0}
  serializedVersion: 6
  m_Component:
  - component: {fileID: 8880890979093333426}
  - component: {fileID: 8880890979093333425}
  - component: {fileID: 259831209}
  m_Layer: 10
  m_Name: TX Village Props Stall Tent
  m_TagString: Untagged
  m_Icon: {fileID: 0}
  m_NavMeshLayer: 0
  m_StaticEditorFlags: 0
  m_IsActive: 1
--- !u!4 &8880890979093333426
Transform:
  m_ObjectHideFlags: 0
  m_CorrespondingSourceObject: {fileID: 0}
  m_PrefabInstance: {fileID: 0}
  m_PrefabAsset: {fileID: 0}
  m_GameObject: {fileID: 8880890979093333424}
  m_LocalRotation: {x: -0, y: -0, z: -0, w: 1}
  m_LocalPosition: {x: -0.07, y: 1.905, z: -0.091}
  m_LocalScale: {x: 1, y: 1, z: 1}
  m_ConstrainProportionsScale: 0
  m_Children: []
  m_Father: {fileID: 8880890979157700243}
  m_RootOrder: 0
  m_LocalEulerAnglesHint: {x: 0, y: 0, z: 0}
--- !u!212 &8880890979093333425
SpriteRenderer:
  m_ObjectHideFlags: 0
  m_CorrespondingSourceObject: {fileID: 0}
  m_PrefabInstance: {fileID: 0}
  m_PrefabAsset: {fileID: 0}
  m_GameObject: {fileID: 8880890979093333424}
  m_Enabled: 1
  m_CastShadows: 0
  m_ReceiveShadows: 0
  m_DynamicOccludee: 1
  m_StaticShadowCaster: 0
  m_MotionVectors: 1
  m_LightProbeUsage: 1
  m_ReflectionProbeUsage: 1
  m_RayTracingMode: 0
  m_RayTraceProcedural: 0
  m_RenderingLayerMask: 1
  m_RendererPriority: 0
  m_Materials:
  - {fileID: 2100000, guid: 014095a0ff976c9478d39b72d0bbe6db, type: 2}
  m_StaticBatchInfo:
    firstSubMesh: 0
    subMeshCount: 0
  m_StaticBatchRoot: {fileID: 0}
  m_ProbeAnchor: {fileID: 0}
  m_LightProbeVolumeOverride: {fileID: 0}
  m_ScaleInLightmap: 1
  m_ReceiveGI: 1
  m_PreserveUVs: 0
  m_IgnoreNormalsForChartDetection: 0
  m_ImportantGI: 0
  m_StitchLightmapSeams: 0
  m_SelectedEditorRenderState: 0
  m_MinimumChartSize: 4
  m_AutoUVMaxDistance: 0.5
  m_AutoUVMaxAngle: 89
  m_LightmapParameters: {fileID: 0}
  m_SortingLayerID: -730795765
  m_SortingLayer: 3
  m_SortingOrder: 0
  m_Sprite: {fileID: 21300188, guid: 7810966f0f690954c87305933cabf2b0, type: 3}
  m_Color: {r: 1, g: 1, b: 1, a: 1}
  m_FlipX: 0
  m_FlipY: 0
  m_DrawMode: 0
  m_Size: {x: 2.8125, y: 0.875}
  m_AdaptiveModeThreshold: 0.5
  m_SpriteTileMode: 0
  m_WasSpriteAssigned: 1
  m_MaskInteraction: 0
  m_SpriteSortPoint: 0
--- !u!61 &259831209
BoxCollider2D:
  m_ObjectHideFlags: 0
  m_CorrespondingSourceObject: {fileID: 0}
  m_PrefabInstance: {fileID: 0}
  m_PrefabAsset: {fileID: 0}
  m_GameObject: {fileID: 8880890979093333424}
  m_Enabled: 1
  m_Density: 1
  m_Material: {fileID: 0}
  m_IsTrigger: 0
  m_UsedByEffector: 0
  m_UsedByComposite: 0
  m_Offset: {x: 0, y: 0}
  m_SpriteTilingProperty:
    border: {x: 0, y: 0, z: 0, w: 0}
    pivot: {x: 0.5, y: 0.5}
    oldSize: {x: 2.8125, y: 0.875}
    newSize: {x: 2.8125, y: 0.875}
    adaptiveTilingThreshold: 0.5
    drawMode: 0
    adaptiveTiling: 0
  m_AutoTiling: 0
  serializedVersion: 2
  m_Size: {x: 2.8125, y: 0.875}
  m_EdgeRadius: 0
--- !u!1 &8880890979157700241
GameObject:
  m_ObjectHideFlags: 0
  m_CorrespondingSourceObject: {fileID: 0}
  m_PrefabInstance: {fileID: 0}
  m_PrefabAsset: {fileID: 0}
  serializedVersion: 6
  m_Component:
  - component: {fileID: 8880890979157700243}
  m_Layer: 10
  m_Name: PF Village Props - Stall
  m_TagString: Untagged
  m_Icon: {fileID: 0}
  m_NavMeshLayer: 0
  m_StaticEditorFlags: 0
  m_IsActive: 1
--- !u!4 &8880890979157700243
Transform:
  m_ObjectHideFlags: 0
  m_CorrespondingSourceObject: {fileID: 0}
  m_PrefabInstance: {fileID: 0}
  m_PrefabAsset: {fileID: 0}
  m_GameObject: {fileID: 8880890979157700241}
  m_LocalRotation: {x: 0, y: 0, z: 0, w: 1}
  m_LocalPosition: {x: 0, y: 0, z: 0}
  m_LocalScale: {x: 1, y: 1, z: 1}
  m_ConstrainProportionsScale: 0
  m_Children:
  - {fileID: 8880890979093333426}
  - {fileID: 8880890978261839357}
  - {fileID: 8880890979189036122}
  - {fileID: 8880890979259085648}
  - {fileID: 8880890978217765434}
  - {fileID: 8880890978844414797}
  - {fileID: 8880890977736793461}
  - {fileID: 299008622165011597}
  - {fileID: 8880890977463174005}
  - {fileID: 8880890978935763845}
  - {fileID: 8880890977455105451}
  - {fileID: 8880890978000517118}
  - {fileID: 8880890979124023395}
  - {fileID: 8731064917795236288}
  - {fileID: 4382483147025464263}
  - {fileID: 4748770549160642476}
  - {fileID: 3078579911246584663}
  m_Father: {fileID: 0}
  m_RootOrder: 0
  m_LocalEulerAnglesHint: {x: 0, y: 0, z: 0}
--- !u!1 &8880890979189036120
GameObject:
  m_ObjectHideFlags: 0
  m_CorrespondingSourceObject: {fileID: 0}
  m_PrefabInstance: {fileID: 0}
  m_PrefabAsset: {fileID: 0}
  serializedVersion: 6
  m_Component:
  - component: {fileID: 8880890979189036122}
  - component: {fileID: 8880890979189036121}
  - component: {fileID: 259831207}
  m_Layer: 10
  m_Name: TX Village Props Stall Fruit A
  m_TagString: Untagged
  m_Icon: {fileID: 0}
  m_NavMeshLayer: 0
  m_StaticEditorFlags: 0
  m_IsActive: 1
--- !u!4 &8880890979189036122
Transform:
  m_ObjectHideFlags: 0
  m_CorrespondingSourceObject: {fileID: 0}
  m_PrefabInstance: {fileID: 0}
  m_PrefabAsset: {fileID: 0}
  m_GameObject: {fileID: 8880890979189036120}
  m_LocalRotation: {x: -0, y: -0, z: -0, w: 1}
  m_LocalPosition: {x: -1.0309982, y: 0.761, z: -0.078}
  m_LocalScale: {x: 1, y: 1, z: 1}
  m_ConstrainProportionsScale: 0
  m_Children: []
  m_Father: {fileID: 8880890979157700243}
  m_RootOrder: 2
  m_LocalEulerAnglesHint: {x: 0, y: 0, z: 0}
--- !u!212 &8880890979189036121
SpriteRenderer:
  m_ObjectHideFlags: 0
  m_CorrespondingSourceObject: {fileID: 0}
  m_PrefabInstance: {fileID: 0}
  m_PrefabAsset: {fileID: 0}
  m_GameObject: {fileID: 8880890979189036120}
  m_Enabled: 1
  m_CastShadows: 0
  m_ReceiveShadows: 0
  m_DynamicOccludee: 1
  m_StaticShadowCaster: 0
  m_MotionVectors: 1
  m_LightProbeUsage: 1
  m_ReflectionProbeUsage: 1
  m_RayTracingMode: 0
  m_RayTraceProcedural: 0
  m_RenderingLayerMask: 1
  m_RendererPriority: 0
  m_Materials:
  - {fileID: 2100000, guid: 014095a0ff976c9478d39b72d0bbe6db, type: 2}
  m_StaticBatchInfo:
    firstSubMesh: 0
    subMeshCount: 0
  m_StaticBatchRoot: {fileID: 0}
  m_ProbeAnchor: {fileID: 0}
  m_LightProbeVolumeOverride: {fileID: 0}
  m_ScaleInLightmap: 1
  m_ReceiveGI: 1
  m_PreserveUVs: 0
  m_IgnoreNormalsForChartDetection: 0
  m_ImportantGI: 0
  m_StitchLightmapSeams: 0
  m_SelectedEditorRenderState: 0
  m_MinimumChartSize: 4
  m_AutoUVMaxDistance: 0.5
  m_AutoUVMaxAngle: 89
  m_LightmapParameters: {fileID: 0}
  m_SortingLayerID: 1478759805
  m_SortingLayer: 7
  m_SortingOrder: 1
  m_Sprite: {fileID: 21300206, guid: 7810966f0f690954c87305933cabf2b0, type: 3}
  m_Color: {r: 1, g: 1, b: 1, a: 1}
  m_FlipX: 0
  m_FlipY: 0
  m_DrawMode: 0
  m_Size: {x: 0.28125, y: 0.40625}
  m_AdaptiveModeThreshold: 0.5
  m_SpriteTileMode: 0
  m_WasSpriteAssigned: 1
  m_MaskInteraction: 0
  m_SpriteSortPoint: 0
--- !u!61 &259831207
BoxCollider2D:
  m_ObjectHideFlags: 0
  m_CorrespondingSourceObject: {fileID: 0}
  m_PrefabInstance: {fileID: 0}
  m_PrefabAsset: {fileID: 0}
  m_GameObject: {fileID: 8880890979189036120}
  m_Enabled: 1
  m_Density: 1
  m_Material: {fileID: 0}
  m_IsTrigger: 0
  m_UsedByEffector: 0
  m_UsedByComposite: 0
  m_Offset: {x: 0, y: 0}
  m_SpriteTilingProperty:
    border: {x: 0, y: 0, z: 0, w: 0}
    pivot: {x: 0.5, y: 0.5}
    oldSize: {x: 0.28125, y: 0.40625}
    newSize: {x: 0.28125, y: 0.40625}
    adaptiveTilingThreshold: 0.5
    drawMode: 0
    adaptiveTiling: 0
  m_AutoTiling: 0
  serializedVersion: 2
  m_Size: {x: 0.28125, y: 0.40625}
  m_EdgeRadius: 0
--- !u!1 &8880890979259085662
GameObject:
  m_ObjectHideFlags: 0
  m_CorrespondingSourceObject: {fileID: 0}
  m_PrefabInstance: {fileID: 0}
  m_PrefabAsset: {fileID: 0}
  serializedVersion: 6
  m_Component:
  - component: {fileID: 8880890979259085648}
  - component: {fileID: 8880890979259085663}
  - component: {fileID: 259831206}
  m_Layer: 10
  m_Name: TX Village Props Stall Fruit B
  m_TagString: Untagged
  m_Icon: {fileID: 0}
  m_NavMeshLayer: 0
  m_StaticEditorFlags: 0
  m_IsActive: 1
--- !u!4 &8880890979259085648
Transform:
  m_ObjectHideFlags: 0
  m_CorrespondingSourceObject: {fileID: 0}
  m_PrefabInstance: {fileID: 0}
  m_PrefabAsset: {fileID: 0}
  m_GameObject: {fileID: 8880890979259085662}
  m_LocalRotation: {x: -0, y: -0, z: -0, w: 1}
  m_LocalPosition: {x: -0.5923996, y: 0.76379997, z: -0.078}
  m_LocalScale: {x: 1, y: 1, z: 1}
  m_ConstrainProportionsScale: 0
  m_Children: []
  m_Father: {fileID: 8880890979157700243}
  m_RootOrder: 3
  m_LocalEulerAnglesHint: {x: 0, y: 0, z: 0}
--- !u!212 &8880890979259085663
SpriteRenderer:
  m_ObjectHideFlags: 0
  m_CorrespondingSourceObject: {fileID: 0}
  m_PrefabInstance: {fileID: 0}
  m_PrefabAsset: {fileID: 0}
  m_GameObject: {fileID: 8880890979259085662}
  m_Enabled: 1
  m_CastShadows: 0
  m_ReceiveShadows: 0
  m_DynamicOccludee: 1
  m_StaticShadowCaster: 0
  m_MotionVectors: 1
  m_LightProbeUsage: 1
  m_ReflectionProbeUsage: 1
  m_RayTracingMode: 0
  m_RayTraceProcedural: 0
  m_RenderingLayerMask: 1
  m_RendererPriority: 0
  m_Materials:
  - {fileID: 2100000, guid: 014095a0ff976c9478d39b72d0bbe6db, type: 2}
  m_StaticBatchInfo:
    firstSubMesh: 0
    subMeshCount: 0
  m_StaticBatchRoot: {fileID: 0}
  m_ProbeAnchor: {fileID: 0}
  m_LightProbeVolumeOverride: {fileID: 0}
  m_ScaleInLightmap: 1
  m_ReceiveGI: 1
  m_PreserveUVs: 0
  m_IgnoreNormalsForChartDetection: 0
  m_ImportantGI: 0
  m_StitchLightmapSeams: 0
  m_SelectedEditorRenderState: 0
  m_MinimumChartSize: 4
  m_AutoUVMaxDistance: 0.5
  m_AutoUVMaxAngle: 89
  m_LightmapParameters: {fileID: 0}
  m_SortingLayerID: 1478759805
  m_SortingLayer: 7
  m_SortingOrder: 1
  m_Sprite: {fileID: 21300208, guid: 7810966f0f690954c87305933cabf2b0, type: 3}
  m_Color: {r: 1, g: 1, b: 1, a: 1}
  m_FlipX: 0
  m_FlipY: 0
  m_DrawMode: 0
  m_Size: {x: 0.28125, y: 0.40625}
  m_AdaptiveModeThreshold: 0.5
  m_SpriteTileMode: 0
  m_WasSpriteAssigned: 1
  m_MaskInteraction: 0
  m_SpriteSortPoint: 0
--- !u!61 &259831206
BoxCollider2D:
  m_ObjectHideFlags: 0
  m_CorrespondingSourceObject: {fileID: 0}
  m_PrefabInstance: {fileID: 0}
  m_PrefabAsset: {fileID: 0}
  m_GameObject: {fileID: 8880890979259085662}
  m_Enabled: 1
  m_Density: 1
  m_Material: {fileID: 0}
  m_IsTrigger: 0
  m_UsedByEffector: 0
  m_UsedByComposite: 0
  m_Offset: {x: 0, y: 0}
  m_SpriteTilingProperty:
    border: {x: 0, y: 0, z: 0, w: 0}
    pivot: {x: 0.5, y: 0.5}
    oldSize: {x: 0.28125, y: 0.40625}
    newSize: {x: 0.28125, y: 0.40625}
    adaptiveTilingThreshold: 0.5
    drawMode: 0
    adaptiveTiling: 0
  m_AutoTiling: 0
  serializedVersion: 2
  m_Size: {x: 0.28125, y: 0.40625}
  m_EdgeRadius: 0
--- !u!1001 &1904452323142444033
PrefabInstance:
  m_ObjectHideFlags: 0
  serializedVersion: 2
  m_Modification:
    m_TransformParent: {fileID: 8880890979157700243}
    m_Modifications:
    - target: {fileID: 7012872107734090152, guid: 5dad1464d7a3246408607532834aec13, type: 3}
      propertyPath: m_Name
      value: TX Village Props - Kettle
      objectReference: {fileID: 0}
    - target: {fileID: 7012872107734090152, guid: 5dad1464d7a3246408607532834aec13, type: 3}
      propertyPath: m_Layer
      value: 10
      objectReference: {fileID: 0}
    - target: {fileID: 7012872107734090154, guid: 5dad1464d7a3246408607532834aec13, type: 3}
      propertyPath: m_RootOrder
      value: 10
      objectReference: {fileID: 0}
    - target: {fileID: 7012872107734090154, guid: 5dad1464d7a3246408607532834aec13, type: 3}
      propertyPath: m_LocalPosition.x
      value: 1.0149994
      objectReference: {fileID: 0}
    - target: {fileID: 7012872107734090154, guid: 5dad1464d7a3246408607532834aec13, type: 3}
      propertyPath: m_LocalPosition.y
      value: 0
      objectReference: {fileID: 0}
    - target: {fileID: 7012872107734090154, guid: 5dad1464d7a3246408607532834aec13, type: 3}
      propertyPath: m_LocalPosition.z
      value: -0.086
      objectReference: {fileID: 0}
    - target: {fileID: 7012872107734090154, guid: 5dad1464d7a3246408607532834aec13, type: 3}
      propertyPath: m_LocalRotation.w
      value: 1
      objectReference: {fileID: 0}
    - target: {fileID: 7012872107734090154, guid: 5dad1464d7a3246408607532834aec13, type: 3}
      propertyPath: m_LocalRotation.x
      value: -0
      objectReference: {fileID: 0}
    - target: {fileID: 7012872107734090154, guid: 5dad1464d7a3246408607532834aec13, type: 3}
      propertyPath: m_LocalRotation.y
      value: -0
      objectReference: {fileID: 0}
    - target: {fileID: 7012872107734090154, guid: 5dad1464d7a3246408607532834aec13, type: 3}
      propertyPath: m_LocalRotation.z
      value: -0
      objectReference: {fileID: 0}
    - target: {fileID: 7012872107734090154, guid: 5dad1464d7a3246408607532834aec13, type: 3}
      propertyPath: m_LocalEulerAnglesHint.x
      value: 0
      objectReference: {fileID: 0}
    - target: {fileID: 7012872107734090154, guid: 5dad1464d7a3246408607532834aec13, type: 3}
      propertyPath: m_LocalEulerAnglesHint.y
      value: 0
      objectReference: {fileID: 0}
    - target: {fileID: 7012872107734090154, guid: 5dad1464d7a3246408607532834aec13, type: 3}
      propertyPath: m_LocalEulerAnglesHint.z
      value: 0
      objectReference: {fileID: 0}
    - target: {fileID: 7012872107734090155, guid: 5dad1464d7a3246408607532834aec13, type: 3}
      propertyPath: m_SortingLayer
      value: 7
      objectReference: {fileID: 0}
    - target: {fileID: 7012872107734090155, guid: 5dad1464d7a3246408607532834aec13, type: 3}
      propertyPath: m_SortingLayerID
      value: 1478759805
      objectReference: {fileID: 0}
    - target: {fileID: 7012872107734090155, guid: 5dad1464d7a3246408607532834aec13, type: 3}
      propertyPath: m_Materials.Array.data[0]
      value: 
      objectReference: {fileID: 2100000, guid: 014095a0ff976c9478d39b72d0bbe6db, type: 2}
    m_RemovedComponents: []
  m_SourcePrefab: {fileID: 100100000, guid: 5dad1464d7a3246408607532834aec13, type: 3}
--- !u!1 &8880890977455105449 stripped
GameObject:
  m_CorrespondingSourceObject: {fileID: 7012872107734090152, guid: 5dad1464d7a3246408607532834aec13, type: 3}
  m_PrefabInstance: {fileID: 1904452323142444033}
  m_PrefabAsset: {fileID: 0}
--- !u!61 &1351438710
BoxCollider2D:
  m_ObjectHideFlags: 0
  m_CorrespondingSourceObject: {fileID: 0}
  m_PrefabInstance: {fileID: 0}
  m_PrefabAsset: {fileID: 0}
  m_GameObject: {fileID: 8880890977455105449}
  m_Enabled: 1
  m_Density: 1
  m_Material: {fileID: 0}
  m_IsTrigger: 0
  m_UsedByEffector: 0
  m_UsedByComposite: 0
  m_Offset: {x: 0, y: 0.234375}
  m_SpriteTilingProperty:
    border: {x: 0, y: 0, z: 0, w: 0}
    pivot: {x: 0.5, y: 0}
    oldSize: {x: 0.4375, y: 0.46875}
    newSize: {x: 0.4375, y: 0.46875}
    adaptiveTilingThreshold: 0.5
    drawMode: 0
    adaptiveTiling: 0
  m_AutoTiling: 0
  serializedVersion: 2
  m_Size: {x: 0.4375, y: 0.46875}
  m_EdgeRadius: 0
--- !u!4 &8880890977455105451 stripped
Transform:
  m_CorrespondingSourceObject: {fileID: 7012872107734090154, guid: 5dad1464d7a3246408607532834aec13, type: 3}
  m_PrefabInstance: {fileID: 1904452323142444033}
  m_PrefabAsset: {fileID: 0}
--- !u!1001 &2148509153683690944
PrefabInstance:
  m_ObjectHideFlags: 0
  serializedVersion: 2
  m_Modification:
    m_TransformParent: {fileID: 8880890979157700243}
    m_Modifications:
    - target: {fileID: 7416948081550509473, guid: 945a24dea7767f846ad8007110a371f3, type: 3}
      propertyPath: m_Name
      value: PF Village Props - Grain Box
      objectReference: {fileID: 0}
    - target: {fileID: 7416948081550509473, guid: 945a24dea7767f846ad8007110a371f3, type: 3}
      propertyPath: m_Layer
      value: 10
      objectReference: {fileID: 0}
    - target: {fileID: 7416948081550509474, guid: 945a24dea7767f846ad8007110a371f3, type: 3}
      propertyPath: m_SortingLayer
      value: 7
      objectReference: {fileID: 0}
    - target: {fileID: 7416948081550509474, guid: 945a24dea7767f846ad8007110a371f3, type: 3}
      propertyPath: m_SortingLayerID
      value: 1478759805
      objectReference: {fileID: 0}
    - target: {fileID: 7416948081550509474, guid: 945a24dea7767f846ad8007110a371f3, type: 3}
      propertyPath: m_Materials.Array.data[0]
      value: 
      objectReference: {fileID: 2100000, guid: 014095a0ff976c9478d39b72d0bbe6db, type: 2}
    - target: {fileID: 7416948081550509475, guid: 945a24dea7767f846ad8007110a371f3, type: 3}
      propertyPath: m_RootOrder
      value: 12
      objectReference: {fileID: 0}
    - target: {fileID: 7416948081550509475, guid: 945a24dea7767f846ad8007110a371f3, type: 3}
      propertyPath: m_LocalPosition.x
      value: -1.017273
      objectReference: {fileID: 0}
    - target: {fileID: 7416948081550509475, guid: 945a24dea7767f846ad8007110a371f3, type: 3}
      propertyPath: m_LocalPosition.y
      value: 0
      objectReference: {fileID: 0}
    - target: {fileID: 7416948081550509475, guid: 945a24dea7767f846ad8007110a371f3, type: 3}
      propertyPath: m_LocalPosition.z
      value: -0.09
      objectReference: {fileID: 0}
    - target: {fileID: 7416948081550509475, guid: 945a24dea7767f846ad8007110a371f3, type: 3}
      propertyPath: m_LocalRotation.w
      value: 1
      objectReference: {fileID: 0}
    - target: {fileID: 7416948081550509475, guid: 945a24dea7767f846ad8007110a371f3, type: 3}
      propertyPath: m_LocalRotation.x
      value: -0
      objectReference: {fileID: 0}
    - target: {fileID: 7416948081550509475, guid: 945a24dea7767f846ad8007110a371f3, type: 3}
      propertyPath: m_LocalRotation.y
      value: -0
      objectReference: {fileID: 0}
    - target: {fileID: 7416948081550509475, guid: 945a24dea7767f846ad8007110a371f3, type: 3}
      propertyPath: m_LocalRotation.z
      value: -0
      objectReference: {fileID: 0}
    - target: {fileID: 7416948081550509475, guid: 945a24dea7767f846ad8007110a371f3, type: 3}
      propertyPath: m_LocalEulerAnglesHint.x
      value: 0
      objectReference: {fileID: 0}
    - target: {fileID: 7416948081550509475, guid: 945a24dea7767f846ad8007110a371f3, type: 3}
      propertyPath: m_LocalEulerAnglesHint.y
      value: 0
      objectReference: {fileID: 0}
    - target: {fileID: 7416948081550509475, guid: 945a24dea7767f846ad8007110a371f3, type: 3}
      propertyPath: m_LocalEulerAnglesHint.z
      value: 0
      objectReference: {fileID: 0}
    m_RemovedComponents: []
  m_SourcePrefab: {fileID: 100100000, guid: 945a24dea7767f846ad8007110a371f3, type: 3}
--- !u!1 &8880890979124023393 stripped
GameObject:
  m_CorrespondingSourceObject: {fileID: 7416948081550509473, guid: 945a24dea7767f846ad8007110a371f3, type: 3}
  m_PrefabInstance: {fileID: 2148509153683690944}
  m_PrefabAsset: {fileID: 0}
--- !u!61 &1314718122
BoxCollider2D:
  m_ObjectHideFlags: 0
  m_CorrespondingSourceObject: {fileID: 0}
  m_PrefabInstance: {fileID: 0}
  m_PrefabAsset: {fileID: 0}
  m_GameObject: {fileID: 8880890979124023393}
  m_Enabled: 1
  m_Density: 1
  m_Material: {fileID: 0}
  m_IsTrigger: 0
  m_UsedByEffector: 0
  m_UsedByComposite: 0
  m_Offset: {x: 0, y: 0.1875}
  m_SpriteTilingProperty:
    border: {x: 0, y: 0, z: 0, w: 0}
    pivot: {x: 0.5, y: 0}
    oldSize: {x: 0.625, y: 0.375}
    newSize: {x: 0.625, y: 0.375}
    adaptiveTilingThreshold: 0.5
    drawMode: 0
    adaptiveTiling: 0
  m_AutoTiling: 0
  serializedVersion: 2
  m_Size: {x: 0.625, y: 0.375}
  m_EdgeRadius: 0
--- !u!4 &8880890979124023395 stripped
Transform:
  m_CorrespondingSourceObject: {fileID: 7416948081550509475, guid: 945a24dea7767f846ad8007110a371f3, type: 3}
  m_PrefabInstance: {fileID: 2148509153683690944}
  m_PrefabAsset: {fileID: 0}
--- !u!1001 &2989730001238443663
PrefabInstance:
  m_ObjectHideFlags: 0
  serializedVersion: 2
  m_Modification:
    m_TransformParent: {fileID: 8880890979157700243}
    m_Modifications:
    - target: {fileID: 5789200093759024960, guid: ab9278aa8a6f856468c48e893720a765, type: 3}
      propertyPath: m_SortingLayer
      value: 7
      objectReference: {fileID: 0}
    - target: {fileID: 5789200093759024960, guid: ab9278aa8a6f856468c48e893720a765, type: 3}
      propertyPath: m_SortingLayerID
      value: 1478759805
      objectReference: {fileID: 0}
    - target: {fileID: 5789200093759024960, guid: ab9278aa8a6f856468c48e893720a765, type: 3}
      propertyPath: m_Materials.Array.data[0]
      value: 
      objectReference: {fileID: 2100000, guid: 014095a0ff976c9478d39b72d0bbe6db, type: 2}
    - target: {fileID: 5789200093759024974, guid: ab9278aa8a6f856468c48e893720a765, type: 3}
      propertyPath: m_Name
      value: PF Village Props - Crate Small
      objectReference: {fileID: 0}
    - target: {fileID: 5789200093759024974, guid: ab9278aa8a6f856468c48e893720a765, type: 3}
      propertyPath: m_Layer
      value: 10
      objectReference: {fileID: 0}
    - target: {fileID: 5789200093759024975, guid: ab9278aa8a6f856468c48e893720a765, type: 3}
      propertyPath: m_RootOrder
      value: 13
      objectReference: {fileID: 0}
    - target: {fileID: 5789200093759024975, guid: ab9278aa8a6f856468c48e893720a765, type: 3}
      propertyPath: m_LocalPosition.x
      value: 2.154
      objectReference: {fileID: 0}
    - target: {fileID: 5789200093759024975, guid: ab9278aa8a6f856468c48e893720a765, type: 3}
      propertyPath: m_LocalPosition.y
      value: 0
      objectReference: {fileID: 0}
    - target: {fileID: 5789200093759024975, guid: ab9278aa8a6f856468c48e893720a765, type: 3}
      propertyPath: m_LocalPosition.z
      value: 0
      objectReference: {fileID: 0}
    - target: {fileID: 5789200093759024975, guid: ab9278aa8a6f856468c48e893720a765, type: 3}
      propertyPath: m_LocalRotation.w
      value: 1
      objectReference: {fileID: 0}
    - target: {fileID: 5789200093759024975, guid: ab9278aa8a6f856468c48e893720a765, type: 3}
      propertyPath: m_LocalRotation.x
      value: -0
      objectReference: {fileID: 0}
    - target: {fileID: 5789200093759024975, guid: ab9278aa8a6f856468c48e893720a765, type: 3}
      propertyPath: m_LocalRotation.y
      value: -0
      objectReference: {fileID: 0}
    - target: {fileID: 5789200093759024975, guid: ab9278aa8a6f856468c48e893720a765, type: 3}
      propertyPath: m_LocalRotation.z
      value: -0
      objectReference: {fileID: 0}
    - target: {fileID: 5789200093759024975, guid: ab9278aa8a6f856468c48e893720a765, type: 3}
      propertyPath: m_LocalEulerAnglesHint.x
      value: 0
      objectReference: {fileID: 0}
    - target: {fileID: 5789200093759024975, guid: ab9278aa8a6f856468c48e893720a765, type: 3}
      propertyPath: m_LocalEulerAnglesHint.y
      value: 0
      objectReference: {fileID: 0}
    - target: {fileID: 5789200093759024975, guid: ab9278aa8a6f856468c48e893720a765, type: 3}
      propertyPath: m_LocalEulerAnglesHint.z
      value: 0
      objectReference: {fileID: 0}
    m_RemovedComponents:
    - {fileID: 1518750911181478944, guid: ab9278aa8a6f856468c48e893720a765, type: 3}
    - {fileID: 3577951827066795359, guid: ab9278aa8a6f856468c48e893720a765, type: 3}
  m_SourcePrefab: {fileID: 100100000, guid: ab9278aa8a6f856468c48e893720a765, type: 3}
--- !u!4 &8731064917795236288 stripped
Transform:
  m_CorrespondingSourceObject: {fileID: 5789200093759024975, guid: ab9278aa8a6f856468c48e893720a765, type: 3}
  m_PrefabInstance: {fileID: 2989730001238443663}
  m_PrefabAsset: {fileID: 0}
--- !u!1 &8731064917795236289 stripped
GameObject:
  m_CorrespondingSourceObject: {fileID: 5789200093759024974, guid: ab9278aa8a6f856468c48e893720a765, type: 3}
  m_PrefabInstance: {fileID: 2989730001238443663}
  m_PrefabAsset: {fileID: 0}
--- !u!61 &2063741916
BoxCollider2D:
  m_ObjectHideFlags: 0
  m_CorrespondingSourceObject: {fileID: 0}
  m_PrefabInstance: {fileID: 0}
  m_PrefabAsset: {fileID: 0}
  m_GameObject: {fileID: 8731064917795236289}
  m_Enabled: 1
  m_Density: 1
  m_Material: {fileID: 0}
  m_IsTrigger: 0
  m_UsedByEffector: 0
  m_UsedByComposite: 0
  m_Offset: {x: 0, y: 0.546875}
  m_SpriteTilingProperty:
    border: {x: 0, y: 0, z: 0, w: 0}
    pivot: {x: 0.5, y: 0}
    oldSize: {x: 1.09375, y: 1.09375}
    newSize: {x: 1.09375, y: 1.09375}
    adaptiveTilingThreshold: 0.5
    drawMode: 0
    adaptiveTiling: 0
  m_AutoTiling: 0
  serializedVersion: 2
  m_Size: {x: 1.09375, y: 1.09375}
  m_EdgeRadius: 0
--- !u!1001 &4271805503555603264
PrefabInstance:
  m_ObjectHideFlags: 0
  serializedVersion: 2
  m_Modification:
    m_TransformParent: {fileID: 8880890979157700243}
    m_Modifications:
    - target: {fileID: 4645396162123630643, guid: af37d6137b6748f4dbfe059a86aad627, type: 3}
      propertyPath: m_Name
      value: PF Village Props - White Bottle
      objectReference: {fileID: 0}
    - target: {fileID: 4645396162123630643, guid: af37d6137b6748f4dbfe059a86aad627, type: 3}
      propertyPath: m_Layer
      value: 10
      objectReference: {fileID: 0}
    - target: {fileID: 4645396162123630644, guid: af37d6137b6748f4dbfe059a86aad627, type: 3}
      propertyPath: m_SortingLayer
      value: 7
      objectReference: {fileID: 0}
    - target: {fileID: 4645396162123630644, guid: af37d6137b6748f4dbfe059a86aad627, type: 3}
      propertyPath: m_SortingLayerID
      value: 1478759805
      objectReference: {fileID: 0}
    - target: {fileID: 4645396162123630644, guid: af37d6137b6748f4dbfe059a86aad627, type: 3}
      propertyPath: m_Materials.Array.data[0]
      value: 
      objectReference: {fileID: 2100000, guid: 014095a0ff976c9478d39b72d0bbe6db, type: 2}
    - target: {fileID: 4645396162123630645, guid: af37d6137b6748f4dbfe059a86aad627, type: 3}
      propertyPath: m_RootOrder
      value: 8
      objectReference: {fileID: 0}
    - target: {fileID: 4645396162123630645, guid: af37d6137b6748f4dbfe059a86aad627, type: 3}
      propertyPath: m_LocalPosition.x
      value: 1.0469971
      objectReference: {fileID: 0}
    - target: {fileID: 4645396162123630645, guid: af37d6137b6748f4dbfe059a86aad627, type: 3}
      propertyPath: m_LocalPosition.y
      value: 0.751
      objectReference: {fileID: 0}
    - target: {fileID: 4645396162123630645, guid: af37d6137b6748f4dbfe059a86aad627, type: 3}
      propertyPath: m_LocalPosition.z
      value: 0
      objectReference: {fileID: 0}
    - target: {fileID: 4645396162123630645, guid: af37d6137b6748f4dbfe059a86aad627, type: 3}
      propertyPath: m_LocalRotation.w
      value: 1
      objectReference: {fileID: 0}
    - target: {fileID: 4645396162123630645, guid: af37d6137b6748f4dbfe059a86aad627, type: 3}
      propertyPath: m_LocalRotation.x
      value: -0
      objectReference: {fileID: 0}
    - target: {fileID: 4645396162123630645, guid: af37d6137b6748f4dbfe059a86aad627, type: 3}
      propertyPath: m_LocalRotation.y
      value: -0
      objectReference: {fileID: 0}
    - target: {fileID: 4645396162123630645, guid: af37d6137b6748f4dbfe059a86aad627, type: 3}
      propertyPath: m_LocalRotation.z
      value: -0
      objectReference: {fileID: 0}
    - target: {fileID: 4645396162123630645, guid: af37d6137b6748f4dbfe059a86aad627, type: 3}
      propertyPath: m_LocalEulerAnglesHint.x
      value: 0
      objectReference: {fileID: 0}
    - target: {fileID: 4645396162123630645, guid: af37d6137b6748f4dbfe059a86aad627, type: 3}
      propertyPath: m_LocalEulerAnglesHint.y
      value: 0
      objectReference: {fileID: 0}
    - target: {fileID: 4645396162123630645, guid: af37d6137b6748f4dbfe059a86aad627, type: 3}
      propertyPath: m_LocalEulerAnglesHint.z
      value: 0
      objectReference: {fileID: 0}
    m_RemovedComponents: []
  m_SourcePrefab: {fileID: 100100000, guid: af37d6137b6748f4dbfe059a86aad627, type: 3}
--- !u!1 &8880890977463174003 stripped
GameObject:
  m_CorrespondingSourceObject: {fileID: 4645396162123630643, guid: af37d6137b6748f4dbfe059a86aad627, type: 3}
  m_PrefabInstance: {fileID: 4271805503555603264}
  m_PrefabAsset: {fileID: 0}
--- !u!61 &479007452
BoxCollider2D:
  m_ObjectHideFlags: 0
  m_CorrespondingSourceObject: {fileID: 0}
  m_PrefabInstance: {fileID: 0}
  m_PrefabAsset: {fileID: 0}
  m_GameObject: {fileID: 8880890977463174003}
  m_Enabled: 1
  m_Density: 1
  m_Material: {fileID: 0}
  m_IsTrigger: 0
  m_UsedByEffector: 0
  m_UsedByComposite: 0
  m_Offset: {x: 0, y: 0.15625}
  m_SpriteTilingProperty:
    border: {x: 0, y: 0, z: 0, w: 0}
    pivot: {x: 0.5, y: 0}
    oldSize: {x: 0.21875, y: 0.3125}
    newSize: {x: 0.21875, y: 0.3125}
    adaptiveTilingThreshold: 0.5
    drawMode: 0
    adaptiveTiling: 0
  m_AutoTiling: 0
  serializedVersion: 2
  m_Size: {x: 0.21875, y: 0.3125}
  m_EdgeRadius: 0
--- !u!4 &8880890977463174005 stripped
Transform:
  m_CorrespondingSourceObject: {fileID: 4645396162123630645, guid: af37d6137b6748f4dbfe059a86aad627, type: 3}
  m_PrefabInstance: {fileID: 4271805503555603264}
  m_PrefabAsset: {fileID: 0}
--- !u!1001 &4969492847749123459
PrefabInstance:
  m_ObjectHideFlags: 0
  serializedVersion: 2
  m_Modification:
    m_TransformParent: {fileID: 8880890979157700243}
    m_Modifications:
    - target: {fileID: 4596042308710791805, guid: 33765db783031c64eb242d22002b9a55, type: 3}
      propertyPath: m_RootOrder
      value: 11
      objectReference: {fileID: 0}
    - target: {fileID: 4596042308710791805, guid: 33765db783031c64eb242d22002b9a55, type: 3}
      propertyPath: m_LocalPosition.x
      value: -0.04800415
      objectReference: {fileID: 0}
    - target: {fileID: 4596042308710791805, guid: 33765db783031c64eb242d22002b9a55, type: 3}
      propertyPath: m_LocalPosition.y
      value: 0
      objectReference: {fileID: 0}
    - target: {fileID: 4596042308710791805, guid: 33765db783031c64eb242d22002b9a55, type: 3}
      propertyPath: m_LocalPosition.z
      value: -0.13
      objectReference: {fileID: 0}
    - target: {fileID: 4596042308710791805, guid: 33765db783031c64eb242d22002b9a55, type: 3}
      propertyPath: m_LocalRotation.w
      value: 1
      objectReference: {fileID: 0}
    - target: {fileID: 4596042308710791805, guid: 33765db783031c64eb242d22002b9a55, type: 3}
      propertyPath: m_LocalRotation.x
      value: -0
      objectReference: {fileID: 0}
    - target: {fileID: 4596042308710791805, guid: 33765db783031c64eb242d22002b9a55, type: 3}
      propertyPath: m_LocalRotation.y
      value: -0
      objectReference: {fileID: 0}
    - target: {fileID: 4596042308710791805, guid: 33765db783031c64eb242d22002b9a55, type: 3}
      propertyPath: m_LocalRotation.z
      value: -0
      objectReference: {fileID: 0}
    - target: {fileID: 4596042308710791805, guid: 33765db783031c64eb242d22002b9a55, type: 3}
      propertyPath: m_LocalEulerAnglesHint.x
      value: 0
      objectReference: {fileID: 0}
    - target: {fileID: 4596042308710791805, guid: 33765db783031c64eb242d22002b9a55, type: 3}
      propertyPath: m_LocalEulerAnglesHint.y
      value: 0
      objectReference: {fileID: 0}
    - target: {fileID: 4596042308710791805, guid: 33765db783031c64eb242d22002b9a55, type: 3}
      propertyPath: m_LocalEulerAnglesHint.z
      value: 0
      objectReference: {fileID: 0}
    - target: {fileID: 4596042308710791806, guid: 33765db783031c64eb242d22002b9a55, type: 3}
      propertyPath: m_SortingLayer
      value: 7
      objectReference: {fileID: 0}
    - target: {fileID: 4596042308710791806, guid: 33765db783031c64eb242d22002b9a55, type: 3}
      propertyPath: m_SortingLayerID
      value: 1478759805
      objectReference: {fileID: 0}
    - target: {fileID: 4596042308710791806, guid: 33765db783031c64eb242d22002b9a55, type: 3}
      propertyPath: m_Materials.Array.data[0]
      value: 
      objectReference: {fileID: 2100000, guid: 014095a0ff976c9478d39b72d0bbe6db, type: 2}
    - target: {fileID: 4596042308710791807, guid: 33765db783031c64eb242d22002b9a55, type: 3}
      propertyPath: m_Name
      value: PF Village Props - Basket
      objectReference: {fileID: 0}
    - target: {fileID: 4596042308710791807, guid: 33765db783031c64eb242d22002b9a55, type: 3}
      propertyPath: m_Layer
      value: 10
      objectReference: {fileID: 0}
    m_RemovedComponents: []
  m_SourcePrefab: {fileID: 100100000, guid: 33765db783031c64eb242d22002b9a55, type: 3}
--- !u!1 &8880890978000517116 stripped
GameObject:
  m_CorrespondingSourceObject: {fileID: 4596042308710791807, guid: 33765db783031c64eb242d22002b9a55, type: 3}
  m_PrefabInstance: {fileID: 4969492847749123459}
  m_PrefabAsset: {fileID: 0}
--- !u!61 &934052482
BoxCollider2D:
  m_ObjectHideFlags: 0
  m_CorrespondingSourceObject: {fileID: 0}
  m_PrefabInstance: {fileID: 0}
  m_PrefabAsset: {fileID: 0}
  m_GameObject: {fileID: 8880890978000517116}
  m_Enabled: 1
  m_Density: 1
  m_Material: {fileID: 0}
  m_IsTrigger: 0
  m_UsedByEffector: 0
  m_UsedByComposite: 0
  m_Offset: {x: 0, y: 0.203125}
  m_SpriteTilingProperty:
    border: {x: 0, y: 0, z: 0, w: 0}
    pivot: {x: 0.5, y: 0}
    oldSize: {x: 0.6875, y: 0.40625}
    newSize: {x: 0.6875, y: 0.40625}
    adaptiveTilingThreshold: 0.5
    drawMode: 0
    adaptiveTiling: 0
  m_AutoTiling: 0
  serializedVersion: 2
  m_Size: {x: 0.6875, y: 0.40625}
  m_EdgeRadius: 0
--- !u!4 &8880890978000517118 stripped
Transform:
  m_CorrespondingSourceObject: {fileID: 4596042308710791805, guid: 33765db783031c64eb242d22002b9a55, type: 3}
  m_PrefabInstance: {fileID: 4969492847749123459}
  m_PrefabAsset: {fileID: 0}
--- !u!1001 &5468942014487123045
PrefabInstance:
  m_ObjectHideFlags: 0
  serializedVersion: 2
  m_Modification:
    m_TransformParent: {fileID: 8880890979157700243}
    m_Modifications:
    - target: {fileID: 3520361919269119968, guid: 83d9652edf8102948abc7e6551b4db36, type: 3}
      propertyPath: m_RootOrder
      value: 9
      objectReference: {fileID: 0}
    - target: {fileID: 3520361919269119968, guid: 83d9652edf8102948abc7e6551b4db36, type: 3}
      propertyPath: m_LocalPosition.x
      value: 0.75099945
      objectReference: {fileID: 0}
    - target: {fileID: 3520361919269119968, guid: 83d9652edf8102948abc7e6551b4db36, type: 3}
      propertyPath: m_LocalPosition.y
      value: 1.03
      objectReference: {fileID: 0}
    - target: {fileID: 3520361919269119968, guid: 83d9652edf8102948abc7e6551b4db36, type: 3}
      propertyPath: m_LocalPosition.z
      value: 0
      objectReference: {fileID: 0}
    - target: {fileID: 3520361919269119968, guid: 83d9652edf8102948abc7e6551b4db36, type: 3}
      propertyPath: m_LocalRotation.w
      value: 1
      objectReference: {fileID: 0}
    - target: {fileID: 3520361919269119968, guid: 83d9652edf8102948abc7e6551b4db36, type: 3}
      propertyPath: m_LocalRotation.x
      value: -0
      objectReference: {fileID: 0}
    - target: {fileID: 3520361919269119968, guid: 83d9652edf8102948abc7e6551b4db36, type: 3}
      propertyPath: m_LocalRotation.y
      value: -0
      objectReference: {fileID: 0}
    - target: {fileID: 3520361919269119968, guid: 83d9652edf8102948abc7e6551b4db36, type: 3}
      propertyPath: m_LocalRotation.z
      value: -0
      objectReference: {fileID: 0}
    - target: {fileID: 3520361919269119968, guid: 83d9652edf8102948abc7e6551b4db36, type: 3}
      propertyPath: m_LocalEulerAnglesHint.x
      value: 0
      objectReference: {fileID: 0}
    - target: {fileID: 3520361919269119968, guid: 83d9652edf8102948abc7e6551b4db36, type: 3}
      propertyPath: m_LocalEulerAnglesHint.y
      value: 0
      objectReference: {fileID: 0}
    - target: {fileID: 3520361919269119968, guid: 83d9652edf8102948abc7e6551b4db36, type: 3}
      propertyPath: m_LocalEulerAnglesHint.z
      value: 0
      objectReference: {fileID: 0}
    - target: {fileID: 3520361919269119969, guid: 83d9652edf8102948abc7e6551b4db36, type: 3}
      propertyPath: m_SortingLayer
      value: 7
      objectReference: {fileID: 0}
    - target: {fileID: 3520361919269119969, guid: 83d9652edf8102948abc7e6551b4db36, type: 3}
      propertyPath: m_SortingLayerID
      value: 1478759805
      objectReference: {fileID: 0}
    - target: {fileID: 3520361919269119969, guid: 83d9652edf8102948abc7e6551b4db36, type: 3}
      propertyPath: m_Materials.Array.data[0]
      value: 
      objectReference: {fileID: 2100000, guid: 014095a0ff976c9478d39b72d0bbe6db, type: 2}
    - target: {fileID: 3520361919269119974, guid: 83d9652edf8102948abc7e6551b4db36, type: 3}
      propertyPath: m_Name
      value: PF Village Props - Wine Bottle
      objectReference: {fileID: 0}
    - target: {fileID: 3520361919269119974, guid: 83d9652edf8102948abc7e6551b4db36, type: 3}
      propertyPath: m_Layer
      value: 10
      objectReference: {fileID: 0}
    m_RemovedComponents: []
  m_SourcePrefab: {fileID: 100100000, guid: 83d9652edf8102948abc7e6551b4db36, type: 3}
--- !u!1 &8880890978935763843 stripped
GameObject:
  m_CorrespondingSourceObject: {fileID: 3520361919269119974, guid: 83d9652edf8102948abc7e6551b4db36, type: 3}
  m_PrefabInstance: {fileID: 5468942014487123045}
  m_PrefabAsset: {fileID: 0}
--- !u!61 &981140584
BoxCollider2D:
  m_ObjectHideFlags: 0
  m_CorrespondingSourceObject: {fileID: 0}
  m_PrefabInstance: {fileID: 0}
  m_PrefabAsset: {fileID: 0}
  m_GameObject: {fileID: 8880890978935763843}
  m_Enabled: 1
  m_Density: 1
  m_Material: {fileID: 0}
  m_IsTrigger: 0
  m_UsedByEffector: 0
  m_UsedByComposite: 0
  m_Offset: {x: 0, y: 0}
  m_SpriteTilingProperty:
    border: {x: 0, y: 0, z: 0, w: 0}
    pivot: {x: 0.5, y: 0.5}
    oldSize: {x: 0.21875, y: 0.5625}
    newSize: {x: 0.21875, y: 0.5625}
    adaptiveTilingThreshold: 0.5
    drawMode: 0
    adaptiveTiling: 0
  m_AutoTiling: 0
  serializedVersion: 2
  m_Size: {x: 0.21875, y: 0.5625}
  m_EdgeRadius: 0
--- !u!4 &8880890978935763845 stripped
Transform:
  m_CorrespondingSourceObject: {fileID: 3520361919269119968, guid: 83d9652edf8102948abc7e6551b4db36, type: 3}
  m_PrefabInstance: {fileID: 5468942014487123045}
  m_PrefabAsset: {fileID: 0}
--- !u!1001 &9092602203269627345
PrefabInstance:
  m_ObjectHideFlags: 0
  serializedVersion: 2
  m_Modification:
    m_TransformParent: {fileID: 8880890979157700243}
    m_Modifications:
    - target: {fileID: 4596042308710791805, guid: 33765db783031c64eb242d22002b9a55, type: 3}
      propertyPath: m_RootOrder
      value: 15
      objectReference: {fileID: 0}
    - target: {fileID: 4596042308710791805, guid: 33765db783031c64eb242d22002b9a55, type: 3}
      propertyPath: m_LocalPosition.x
      value: 2.067
      objectReference: {fileID: 0}
    - target: {fileID: 4596042308710791805, guid: 33765db783031c64eb242d22002b9a55, type: 3}
      propertyPath: m_LocalPosition.y
      value: 1.057
      objectReference: {fileID: 0}
    - target: {fileID: 4596042308710791805, guid: 33765db783031c64eb242d22002b9a55, type: 3}
      propertyPath: m_LocalPosition.z
      value: 0.204
      objectReference: {fileID: 0}
    - target: {fileID: 4596042308710791805, guid: 33765db783031c64eb242d22002b9a55, type: 3}
      propertyPath: m_LocalRotation.w
      value: 1
      objectReference: {fileID: 0}
    - target: {fileID: 4596042308710791805, guid: 33765db783031c64eb242d22002b9a55, type: 3}
      propertyPath: m_LocalRotation.x
      value: -0
      objectReference: {fileID: 0}
    - target: {fileID: 4596042308710791805, guid: 33765db783031c64eb242d22002b9a55, type: 3}
      propertyPath: m_LocalRotation.y
      value: -0
      objectReference: {fileID: 0}
    - target: {fileID: 4596042308710791805, guid: 33765db783031c64eb242d22002b9a55, type: 3}
      propertyPath: m_LocalRotation.z
      value: -0
      objectReference: {fileID: 0}
    - target: {fileID: 4596042308710791805, guid: 33765db783031c64eb242d22002b9a55, type: 3}
      propertyPath: m_LocalEulerAnglesHint.x
      value: 0
      objectReference: {fileID: 0}
    - target: {fileID: 4596042308710791805, guid: 33765db783031c64eb242d22002b9a55, type: 3}
      propertyPath: m_LocalEulerAnglesHint.y
      value: 0
      objectReference: {fileID: 0}
    - target: {fileID: 4596042308710791805, guid: 33765db783031c64eb242d22002b9a55, type: 3}
      propertyPath: m_LocalEulerAnglesHint.z
      value: 0
      objectReference: {fileID: 0}
    - target: {fileID: 4596042308710791806, guid: 33765db783031c64eb242d22002b9a55, type: 3}
      propertyPath: m_SortingLayer
      value: 7
      objectReference: {fileID: 0}
    - target: {fileID: 4596042308710791806, guid: 33765db783031c64eb242d22002b9a55, type: 3}
      propertyPath: m_SortingLayerID
      value: 1478759805
      objectReference: {fileID: 0}
    - target: {fileID: 4596042308710791806, guid: 33765db783031c64eb242d22002b9a55, type: 3}
      propertyPath: m_Materials.Array.data[0]
      value: 
      objectReference: {fileID: 2100000, guid: 014095a0ff976c9478d39b72d0bbe6db, type: 2}
    - target: {fileID: 4596042308710791807, guid: 33765db783031c64eb242d22002b9a55, type: 3}
      propertyPath: m_Name
      value: PF Village Props - Basket (1)
      objectReference: {fileID: 0}
    - target: {fileID: 4596042308710791807, guid: 33765db783031c64eb242d22002b9a55, type: 3}
      propertyPath: m_Layer
      value: 10
      objectReference: {fileID: 0}
    m_RemovedComponents: []
  m_SourcePrefab: {fileID: 100100000, guid: 33765db783031c64eb242d22002b9a55, type: 3}
--- !u!4 &4748770549160642476 stripped
Transform:
  m_CorrespondingSourceObject: {fileID: 4596042308710791805, guid: 33765db783031c64eb242d22002b9a55, type: 3}
  m_PrefabInstance: {fileID: 9092602203269627345}
  m_PrefabAsset: {fileID: 0}
--- !u!1 &4748770549160642478 stripped
GameObject:
  m_CorrespondingSourceObject: {fileID: 4596042308710791807, guid: 33765db783031c64eb242d22002b9a55, type: 3}
  m_PrefabInstance: {fileID: 9092602203269627345}
  m_PrefabAsset: {fileID: 0}
--- !u!61 &31394529
BoxCollider2D:
  m_ObjectHideFlags: 0
  m_CorrespondingSourceObject: {fileID: 0}
  m_PrefabInstance: {fileID: 0}
  m_PrefabAsset: {fileID: 0}
  m_GameObject: {fileID: 4748770549160642478}
  m_Enabled: 1
  m_Density: 1
  m_Material: {fileID: 0}
  m_IsTrigger: 0
  m_UsedByEffector: 0
  m_UsedByComposite: 0
  m_Offset: {x: 0, y: 0.203125}
  m_SpriteTilingProperty:
    border: {x: 0, y: 0, z: 0, w: 0}
    pivot: {x: 0.5, y: 0}
    oldSize: {x: 0.6875, y: 0.40625}
    newSize: {x: 0.6875, y: 0.40625}
    adaptiveTilingThreshold: 0.5
    drawMode: 0
    adaptiveTiling: 0
  m_AutoTiling: 0
  serializedVersion: 2
  m_Size: {x: 0.6875, y: 0.40625}
  m_EdgeRadius: 0
--- !u!1001 &9099071393722192106
PrefabInstance:
  m_ObjectHideFlags: 0
  serializedVersion: 2
  m_Modification:
    m_TransformParent: {fileID: 8880890979157700243}
    m_Modifications:
    - target: {fileID: 4798532672243395371, guid: 838a9c74e6cba734faec44d9be3b765e, type: 3}
      propertyPath: m_Name
      value: PF Village Props - Cauldron
      objectReference: {fileID: 0}
    - target: {fileID: 4798532672243395371, guid: 838a9c74e6cba734faec44d9be3b765e, type: 3}
      propertyPath: m_Layer
      value: 10
      objectReference: {fileID: 0}
    - target: {fileID: 4798532672243395372, guid: 838a9c74e6cba734faec44d9be3b765e, type: 3}
      propertyPath: m_SortingLayer
      value: 7
      objectReference: {fileID: 0}
    - target: {fileID: 4798532672243395372, guid: 838a9c74e6cba734faec44d9be3b765e, type: 3}
      propertyPath: m_SortingLayerID
      value: 1478759805
      objectReference: {fileID: 0}
    - target: {fileID: 4798532672243395372, guid: 838a9c74e6cba734faec44d9be3b765e, type: 3}
      propertyPath: m_Materials.Array.data[0]
      value: 
      objectReference: {fileID: 2100000, guid: 014095a0ff976c9478d39b72d0bbe6db, type: 2}
    - target: {fileID: 4798532672243395373, guid: 838a9c74e6cba734faec44d9be3b765e, type: 3}
      propertyPath: m_RootOrder
      value: 14
      objectReference: {fileID: 0}
    - target: {fileID: 4798532672243395373, guid: 838a9c74e6cba734faec44d9be3b765e, type: 3}
      propertyPath: m_LocalPosition.x
      value: -1.827
      objectReference: {fileID: 0}
    - target: {fileID: 4798532672243395373, guid: 838a9c74e6cba734faec44d9be3b765e, type: 3}
      propertyPath: m_LocalPosition.y
      value: 0
      objectReference: {fileID: 0}
    - target: {fileID: 4798532672243395373, guid: 838a9c74e6cba734faec44d9be3b765e, type: 3}
      propertyPath: m_LocalPosition.z
      value: 0
      objectReference: {fileID: 0}
    - target: {fileID: 4798532672243395373, guid: 838a9c74e6cba734faec44d9be3b765e, type: 3}
      propertyPath: m_LocalRotation.w
      value: 1
      objectReference: {fileID: 0}
    - target: {fileID: 4798532672243395373, guid: 838a9c74e6cba734faec44d9be3b765e, type: 3}
      propertyPath: m_LocalRotation.x
      value: -0
      objectReference: {fileID: 0}
    - target: {fileID: 4798532672243395373, guid: 838a9c74e6cba734faec44d9be3b765e, type: 3}
      propertyPath: m_LocalRotation.y
      value: -0
      objectReference: {fileID: 0}
    - target: {fileID: 4798532672243395373, guid: 838a9c74e6cba734faec44d9be3b765e, type: 3}
      propertyPath: m_LocalRotation.z
      value: -0
      objectReference: {fileID: 0}
    - target: {fileID: 4798532672243395373, guid: 838a9c74e6cba734faec44d9be3b765e, type: 3}
      propertyPath: m_LocalEulerAnglesHint.x
      value: 0
      objectReference: {fileID: 0}
    - target: {fileID: 4798532672243395373, guid: 838a9c74e6cba734faec44d9be3b765e, type: 3}
      propertyPath: m_LocalEulerAnglesHint.y
      value: 0
      objectReference: {fileID: 0}
    - target: {fileID: 4798532672243395373, guid: 838a9c74e6cba734faec44d9be3b765e, type: 3}
      propertyPath: m_LocalEulerAnglesHint.z
      value: 0
      objectReference: {fileID: 0}
    m_RemovedComponents: []
  m_SourcePrefab: {fileID: 100100000, guid: 838a9c74e6cba734faec44d9be3b765e, type: 3}
--- !u!1 &4382483147025464257 stripped
GameObject:
  m_CorrespondingSourceObject: {fileID: 4798532672243395371, guid: 838a9c74e6cba734faec44d9be3b765e, type: 3}
  m_PrefabInstance: {fileID: 9099071393722192106}
  m_PrefabAsset: {fileID: 0}
--- !u!61 &333349650
BoxCollider2D:
  m_ObjectHideFlags: 0
  m_CorrespondingSourceObject: {fileID: 0}
  m_PrefabInstance: {fileID: 0}
  m_PrefabAsset: {fileID: 0}
  m_GameObject: {fileID: 4382483147025464257}
  m_Enabled: 1
  m_Density: 1
  m_Material: {fileID: 0}
  m_IsTrigger: 0
  m_UsedByEffector: 0
  m_UsedByComposite: 0
  m_Offset: {x: 0, y: 0.1875}
  m_SpriteTilingProperty:
    border: {x: 0, y: 0, z: 0, w: 0}
    pivot: {x: 0.5, y: 0}
    oldSize: {x: 0.5, y: 0.375}
    newSize: {x: 0.5, y: 0.375}
    adaptiveTilingThreshold: 0.5
    drawMode: 0
    adaptiveTiling: 0
  m_AutoTiling: 0
  serializedVersion: 2
  m_Size: {x: 0.5, y: 0.375}
  m_EdgeRadius: 0
--- !u!4 &4382483147025464263 stripped
Transform:
  m_CorrespondingSourceObject: {fileID: 4798532672243395373, guid: 838a9c74e6cba734faec44d9be3b765e, type: 3}
  m_PrefabInstance: {fileID: 9099071393722192106}
  m_PrefabAsset: {fileID: 0}
