%YAML 1.1
%TAG !u! tag:unity3d.com,2011:
--- !u!1001 &4245977830012999934
PrefabInstance:
  m_ObjectHideFlags: 0
  serializedVersion: 2
  m_Modification:
    m_TransformParent: {fileID: 0}
    m_Modifications:
    - target: {fileID: 748714275572094684, guid: 0315a0d3378e27d4f95f7ba64529118c, type: 3}
      propertyPath: CollisionModule.radiusScale
      value: 1.34
      objectReference: {fileID: 0}
    - target: {fileID: 748714275572094684, guid: 0315a0d3378e27d4f95f7ba64529118c, type: 3}
      propertyPath: CollisionModule.collisionMessages
      value: 1
      objectReference: {fileID: 0}
    - target: {fileID: 748714275572094684, guid: 0315a0d3378e27d4f95f7ba64529118c, type: 3}
      propertyPath: CollisionModule.multiplyColliderForceByCollisionAngle
      value: 0
      objectReference: {fileID: 0}
    - target: {fileID: 748714276837997268, guid: 0315a0d3378e27d4f95f7ba64529118c, type: 3}
      propertyPath: CollisionModule.radiusScale
      value: 1.34
      objectReference: {fileID: 0}
    - target: {fileID: 748714276837997268, guid: 0315a0d3378e27d4f95f7ba64529118c, type: 3}
      propertyPath: CollisionModule.collisionMessages
      value: 1
      objectReference: {fileID: 0}
    - target: {fileID: 748714276837997268, guid: 0315a0d3378e27d4f95f7ba64529118c, type: 3}
      propertyPath: CollisionModule.multiplyColliderForceByCollisionAngle
      value: 0
      objectReference: {fileID: 0}
    - target: {fileID: 1107324212933523652, guid: 0315a0d3378e27d4f95f7ba64529118c, type: 3}
      propertyPath: CollisionModule.radiusScale
      value: 1.34
      objectReference: {fileID: 0}
    - target: {fileID: 1107324212933523652, guid: 0315a0d3378e27d4f95f7ba64529118c, type: 3}
      propertyPath: CollisionModule.collisionMessages
      value: 1
      objectReference: {fileID: 0}
    - target: {fileID: 1107324212933523652, guid: 0315a0d3378e27d4f95f7ba64529118c, type: 3}
      propertyPath: CollisionModule.multiplyColliderForceByCollisionAngle
      value: 0
      objectReference: {fileID: 0}
    - target: {fileID: 1536947671593178535, guid: 0315a0d3378e27d4f95f7ba64529118c, type: 3}
      propertyPath: m_IsTrigger
      value: 1
      objectReference: {fileID: 0}
    - target: {fileID: 1650596949725215848, guid: 0315a0d3378e27d4f95f7ba64529118c, type: 3}
      propertyPath: m_IsTrigger
      value: 1
      objectReference: {fileID: 0}
    - target: {fileID: 1965935695747175341, guid: 0315a0d3378e27d4f95f7ba64529118c, type: 3}
      propertyPath: m_IsTrigger
      value: 1
      objectReference: {fileID: 0}
    - target: {fileID: 3461858639400527501, guid: 0315a0d3378e27d4f95f7ba64529118c, type: 3}
      propertyPath: m_IsTrigger
      value: 1
      objectReference: {fileID: 0}
    - target: {fileID: 3950214903663497645, guid: 0315a0d3378e27d4f95f7ba64529118c, type: 3}
      propertyPath: CollisionModule.radiusScale
      value: 1.34
      objectReference: {fileID: 0}
    - target: {fileID: 3950214903663497645, guid: 0315a0d3378e27d4f95f7ba64529118c, type: 3}
      propertyPath: CollisionModule.collisionMessages
      value: 1
      objectReference: {fileID: 0}
    - target: {fileID: 3950214903663497645, guid: 0315a0d3378e27d4f95f7ba64529118c, type: 3}
      propertyPath: CollisionModule.multiplyColliderForceByCollisionAngle
      value: 0
      objectReference: {fileID: 0}
    - target: {fileID: 3950214903768291746, guid: 0315a0d3378e27d4f95f7ba64529118c, type: 3}
      propertyPath: CollisionModule.radiusScale
      value: 1.34
      objectReference: {fileID: 0}
    - target: {fileID: 3950214903768291746, guid: 0315a0d3378e27d4f95f7ba64529118c, type: 3}
      propertyPath: CollisionModule.collisionMessages
      value: 1
      objectReference: {fileID: 0}
    - target: {fileID: 3950214903768291746, guid: 0315a0d3378e27d4f95f7ba64529118c, type: 3}
      propertyPath: CollisionModule.multiplyColliderForceByCollisionAngle
      value: 0
      objectReference: {fileID: 0}
    - target: {fileID: 3950214905298395389, guid: 0315a0d3378e27d4f95f7ba64529118c, type: 3}
      propertyPath: CollisionModule.radiusScale
      value: 1.34
      objectReference: {fileID: 0}
    - target: {fileID: 3950214905298395389, guid: 0315a0d3378e27d4f95f7ba64529118c, type: 3}
      propertyPath: CollisionModule.collisionMessages
      value: 1
      objectReference: {fileID: 0}
    - target: {fileID: 3950214905298395389, guid: 0315a0d3378e27d4f95f7ba64529118c, type: 3}
      propertyPath: CollisionModule.multiplyColliderForceByCollisionAngle
      value: 0
      objectReference: {fileID: 0}
    - target: {fileID: 4152039298091157011, guid: 0315a0d3378e27d4f95f7ba64529118c, type: 3}
      propertyPath: SubModule.enabled
      value: 1
      objectReference: {fileID: 0}
    - target: {fileID: 4152039298091157011, guid: 0315a0d3378e27d4f95f7ba64529118c, type: 3}
      propertyPath: CollisionModule.radiusScale
      value: 1.34
      objectReference: {fileID: 0}
    - target: {fileID: 4152039298091157011, guid: 0315a0d3378e27d4f95f7ba64529118c, type: 3}
      propertyPath: CollisionModule.collisionMessages
      value: 1
      objectReference: {fileID: 0}
    - target: {fileID: 4152039298091157011, guid: 0315a0d3378e27d4f95f7ba64529118c, type: 3}
      propertyPath: CollisionModule.multiplyColliderForceByCollisionAngle
      value: 0
      objectReference: {fileID: 0}
    - target: {fileID: 4940014515792809846, guid: 0315a0d3378e27d4f95f7ba64529118c, type: 3}
      propertyPath: m_IsTrigger
      value: 1
      objectReference: {fileID: 0}
    - target: {fileID: 6058200053813999472, guid: 0315a0d3378e27d4f95f7ba64529118c, type: 3}
      propertyPath: m_Name
      value: Lightning Variant
      objectReference: {fileID: 0}
    - target: {fileID: 6058200053813999485, guid: 0315a0d3378e27d4f95f7ba64529118c, type: 3}
      propertyPath: m_RootOrder
      value: 0
      objectReference: {fileID: 0}
    - target: {fileID: 6058200053813999485, guid: 0315a0d3378e27d4f95f7ba64529118c, type: 3}
      propertyPath: m_LocalPosition.x
      value: -49.894176
      objectReference: {fileID: 0}
    - target: {fileID: 6058200053813999485, guid: 0315a0d3378e27d4f95f7ba64529118c, type: 3}
      propertyPath: m_LocalPosition.y
      value: 1.0160038
      objectReference: {fileID: 0}
    - target: {fileID: 6058200053813999485, guid: 0315a0d3378e27d4f95f7ba64529118c, type: 3}
      propertyPath: m_LocalPosition.z
      value: 0
      objectReference: {fileID: 0}
    - target: {fileID: 6058200053813999485, guid: 0315a0d3378e27d4f95f7ba64529118c, type: 3}
      propertyPath: m_LocalRotation.w
      value: 0.7071068
      objectReference: {fileID: 0}
    - target: {fileID: 6058200053813999485, guid: 0315a0d3378e27d4f95f7ba64529118c, type: 3}
      propertyPath: m_LocalRotation.x
      value: -0.7071068
      objectReference: {fileID: 0}
    - target: {fileID: 6058200053813999485, guid: 0315a0d3378e27d4f95f7ba64529118c, type: 3}
      propertyPath: m_LocalRotation.y
      value: -0
      objectReference: {fileID: 0}
    - target: {fileID: 6058200053813999485, guid: 0315a0d3378e27d4f95f7ba64529118c, type: 3}
      propertyPath: m_LocalRotation.z
      value: -0
      objectReference: {fileID: 0}
    - target: {fileID: 6058200053813999485, guid: 0315a0d3378e27d4f95f7ba64529118c, type: 3}
      propertyPath: m_LocalEulerAnglesHint.x
      value: -90
      objectReference: {fileID: 0}
    - target: {fileID: 6058200053813999485, guid: 0315a0d3378e27d4f95f7ba64529118c, type: 3}
      propertyPath: m_LocalEulerAnglesHint.y
      value: 0
      objectReference: {fileID: 0}
    - target: {fileID: 6058200053813999485, guid: 0315a0d3378e27d4f95f7ba64529118c, type: 3}
      propertyPath: m_LocalEulerAnglesHint.z
      value: 0
      objectReference: {fileID: 0}
    - target: {fileID: 6215513594914473472, guid: 0315a0d3378e27d4f95f7ba64529118c, type: 3}
      propertyPath: m_IsTrigger
      value: 1
      objectReference: {fileID: 0}
    - target: {fileID: 6300318490394886069, guid: 0315a0d3378e27d4f95f7ba64529118c, type: 3}
      propertyPath: m_IsTrigger
      value: 1
      objectReference: {fileID: 0}
    m_RemovedComponents: []
  m_SourcePrefab: {fileID: 100100000, guid: 0315a0d3378e27d4f95f7ba64529118c, type: 3}
