%YAML 1.1
%TAG !u! tag:unity3d.com,2011:
--- !u!114 &11400000
MonoBehaviour:
  m_ObjectHideFlags: 0
  m_CorrespondingSourceObject: {fileID: 0}
  m_PrefabInstance: {fileID: 0}
  m_PrefabAsset: {fileID: 0}
  m_GameObject: {fileID: 0}
  m_Enabled: 1
  m_EditorHideFlags: 0
  m_Script: {fileID: 11500000, guid: 5d0199c11aa6f514784c5c69cd8378d8, type: 3}
  m_Name: PlayFabEditorPrefsSO
  m_EditorClassIdentifier: 
  DevAccountEmail: bagj21563@gmail.com
  DevAccountToken: edqxmxgexu65a6m5zczn4ea9kmai3nu1b6znqwmm8ignracnbsuusibbtr1s8sgwbp4m6njeha4f9c7yyqzkw73gfayup7576x513zgf78q861nh6p53d4azr3x1anski9j85bwaksfbjsiqirez77c1csf4r35bgftqzd6rxhxwoush7gpitjt4ohwc5pqt9ocf88if
  SelectedStudio: 
  SdkPath: Assets/PlayFabSDK
  EdExPath: 
  LocalCloudScriptPath: 
  PanelIsShown: 0
  curMainMenuIdx: 2
  curSubMenuIdx: 0
