Rating,Level,Gold,WeaponValue,WeaponValue2,HelmetValue,HelmetValue2,ArmorValue,ArmorValue2,LeggingsValue,LeggingsValue2,BootsValue,BootsValue2
레전드,0,1000,6,0,15,25,20,30,2,2,3,3
레전드,1,1500,7,0,3,30,4,35,5,3,4,4
레전드,2,3000,10,0,6,50,7,55,8,4,7,5
레전드,3,5500,20,0,14,100,15,115,16,5,15,6
레전드,4,8000,35,0,16,125,17,130,17,6,16,7
레전드,5,10000,50,0,20,150,21,155,18,7,17,8
전설,0,4000,5,0,1,15,2,15,2,1,1,2
전설,1,4500,6,0,2,20,3,30,4,2,2,3
전설,2,5000,8,0,5,45,5,50,6,3,4,4
전설,3,6500,15,0,13,80,10,100,12,4,10,5
전설,4,8000,30,0,16,120,15,125,14,5,15,6
전설,5,10000,40,0,18,130,20,140,15,5,16,7
영웅,0,2000,4,0,1,10,1,15,1,1,1,2
영웅,1,3000,5,0,2,15,2,20,3,2,3,3
영웅,2,5500,6,0,4,20,3,50,5,3,5,4
영웅,3,6000,13,0,10,50,11,70,10,4,10,5
영웅,4,6500,25,0,15,60,16,100,13,5,12,6
영웅,5,7000,30,0,16,70,20,130,16,6,15,7
희귀,0,1000,3,0,1,10,1,10,1,1,1,1
희귀,1,1500,4,0,2,15,2,15,2,2,2,3
희귀,2,2000,6,0,3,20,5,30,3,3,3,4
희귀,3,3000,8,0,5,25,8,35,5,5,4,6
희귀,4,5000,15,0,10,35,10,50,7,7,5,8
희귀,5,6000,20,0,12,40,13,60,9,9,6,11
고급,0,500,2,0,1,5,2,5,1,1,1,1
고급,1,1000,3,0,2,10,2,10,2,2,2,3
고급,2,1500,5,0,3,15,3,15,3,3,2,5
고급,3,2000,7,0,4,20,6,30,4,4,3,7
고급,4,3000,9,0,9,25,10,35,5,5,4,8
고급,5,5000,11,0,10,30,11,40,6,6,5,9
일반,0,300,1,0,1,5,1,5,1,1,1,1
일반,1,500,2,0,1,5,1,10,2,2,1,3
일반,2,1000,4,0,2,10,2,10,2,3,1,4
일반,3,2000,5,0,3,15,3,15,3,3,2,4
일반,4,3000,6,0,4,20,4,20,4,4,2,5
일반,5,4000,7,0,5,25,5,25,5,5,3,6
