SkillType,SkillDescription,SkillValue,SkillValue1,SkillCool,Mana,Level,PointConsumption,StatUpgrade,StatUpgrade2
GreatSword,주변 적3명에게 연속으로 휘두르는 검을 소환한다.(마나 소모:50),30,0,3,50,0,1,30,0
GuidedMissle,적을 추격하는 미사일 3개를 발사하고 추격한 적과 닿으면 폭발한다.(마나 소모:100),50,0,5,100,5,2,20,0
Shield,적의 공격을 4초동안 막아주는 방패를 소환한다.(마나 소모:70),0,0,7,70,10,4,0,0
Lightning,플레이어 주변으로 번개를 소환한다.(마나 소모:120),150,0,10,120,15,5,40,0
Bite,(보스제외)적의 체력이 9%이하이면 적을 물어 처치한다.(마나 소모:50),30,0,12,50,18,7,20,0
WideAreaAttack,5초동안 적에게 피해를 입히면 주변 적에게도 피해를 입힌다.(마나 소모:100),40,20,6,100,15,6,40,30
VampireSword,적의 체력의 30%의20배를 1번 흡혈하는 검을 소환한다.(마나 소모:150),5,0,5,150,20,7,10,0
ManySword,플레이어 주변으로 여러개의 검을 소환한다.(마나 소모:200),200,0,10,200,20,6,35,0
ManaRecovery,자신의 체력10%를없애고 마나를15% 회복한다.(마나 소모:0),0,0,1,0,5,2,0,0
