%YAML 1.1
%TAG !u! tag:unity3d.com,2011:
--- !u!74 &7400000
AnimationClip:
  m_ObjectHideFlags: 0
  m_CorrespondingSourceObject: {fileID: 0}
  m_PrefabInstance: {fileID: 0}
  m_PrefabAsset: {fileID: 0}
  m_Name: DuckIdle
  serializedVersion: 6
  m_Legacy: 0
  m_Compressed: 0
  m_UseHighQualityCurve: 1
  m_RotationCurves: []
  m_CompressedRotationCurves: []
  m_EulerCurves: []
  m_PositionCurves: []
  m_ScaleCurves: []
  m_FloatCurves: []
  m_PPtrCurves:
  - curve:
    - time: 0
      value: {fileID: -8439380473363227068, guid: 7af988cf7a79102429c8cf4e1adbdf06, type: 3}
    - time: 0.083333336
      value: {fileID: 8392069322806011941, guid: 7af988cf7a79102429c8cf4e1adbdf06, type: 3}
    - time: 0.16666667
      value: {fileID: 4097232650232281631, guid: 7af988cf7a79102429c8cf4e1adbdf06, type: 3}
    - time: 0.25
      value: {fileID: 9066636875504524519, guid: 7af988cf7a79102429c8cf4e1adbdf06, type: 3}
    - time: 0.33333334
      value: {fileID: 8342904927666951788, guid: 7af988cf7a79102429c8cf4e1adbdf06, type: 3}
    - time: 0.41666666
      value: {fileID: -616445348691919024, guid: 7af988cf7a79102429c8cf4e1adbdf06, type: 3}
    - time: 0.5
      value: {fileID: 4602039959607397244, guid: 7af988cf7a79102429c8cf4e1adbdf06, type: 3}
    - time: 0.5833333
      value: {fileID: -9190968547788551741, guid: 7af988cf7a79102429c8cf4e1adbdf06, type: 3}
    - time: 0.6666667
      value: {fileID: -568716397133879842, guid: 7af988cf7a79102429c8cf4e1adbdf06, type: 3}
    - time: 0.75
      value: {fileID: 7919846380019009996, guid: 7af988cf7a79102429c8cf4e1adbdf06, type: 3}
    - time: 0.8333333
      value: {fileID: -7213013170065750333, guid: 7af988cf7a79102429c8cf4e1adbdf06, type: 3}
    - time: 0.9166667
      value: {fileID: -6051249533303784775, guid: 7af988cf7a79102429c8cf4e1adbdf06, type: 3}
    - time: 1
      value: {fileID: -6271453338586801456, guid: 7af988cf7a79102429c8cf4e1adbdf06, type: 3}
    - time: 1.0833334
      value: {fileID: 3281204817930959553, guid: 7af988cf7a79102429c8cf4e1adbdf06, type: 3}
    - time: 1.1666666
      value: {fileID: -8180128963177154881, guid: 7af988cf7a79102429c8cf4e1adbdf06, type: 3}
    - time: 1.25
      value: {fileID: -757519926389809089, guid: 7af988cf7a79102429c8cf4e1adbdf06, type: 3}
    - time: 1.3333334
      value: {fileID: -3560418650803000581, guid: 7af988cf7a79102429c8cf4e1adbdf06, type: 3}
    - time: 1.4166666
      value: {fileID: 2598983270751243946, guid: 7af988cf7a79102429c8cf4e1adbdf06, type: 3}
    - time: 1.5
      value: {fileID: -8822256161212341795, guid: 7af988cf7a79102429c8cf4e1adbdf06, type: 3}
    - time: 1.5833334
      value: {fileID: -4412118212515487542, guid: 7af988cf7a79102429c8cf4e1adbdf06, type: 3}
    - time: 1.6666666
      value: {fileID: -1920638241283167688, guid: 7af988cf7a79102429c8cf4e1adbdf06, type: 3}
    - time: 1.75
      value: {fileID: -1396595369901645689, guid: 7af988cf7a79102429c8cf4e1adbdf06, type: 3}
    - time: 1.8333334
      value: {fileID: 2344892576501692034, guid: 7af988cf7a79102429c8cf4e1adbdf06, type: 3}
    - time: 1.9166666
      value: {fileID: -5685165575500876367, guid: 7af988cf7a79102429c8cf4e1adbdf06, type: 3}
    - time: 2
      value: {fileID: 3510355818335991637, guid: 7af988cf7a79102429c8cf4e1adbdf06, type: 3}
    - time: 2.0833333
      value: {fileID: -5917437833162697427, guid: 7af988cf7a79102429c8cf4e1adbdf06, type: 3}
    - time: 2.1666667
      value: {fileID: -658476787323093032, guid: 7af988cf7a79102429c8cf4e1adbdf06, type: 3}
    - time: 2.25
      value: {fileID: -2344047118954778131, guid: 7af988cf7a79102429c8cf4e1adbdf06, type: 3}
    - time: 2.3333333
      value: {fileID: 8127301091859268680, guid: 7af988cf7a79102429c8cf4e1adbdf06, type: 3}
    - time: 2.4166667
      value: {fileID: -4412509647957459047, guid: 7af988cf7a79102429c8cf4e1adbdf06, type: 3}
    - time: 2.5
      value: {fileID: -1483567291800364822, guid: 7af988cf7a79102429c8cf4e1adbdf06, type: 3}
    - time: 2.5833333
      value: {fileID: 6778639467506739415, guid: 7af988cf7a79102429c8cf4e1adbdf06, type: 3}
    - time: 2.6666667
      value: {fileID: -3579486140465399417, guid: 7af988cf7a79102429c8cf4e1adbdf06, type: 3}
    - time: 2.75
      value: {fileID: 8109255943387514078, guid: 7af988cf7a79102429c8cf4e1adbdf06, type: 3}
    - time: 2.8333333
      value: {fileID: 4555113282471758252, guid: 7af988cf7a79102429c8cf4e1adbdf06, type: 3}
    - time: 2.9166667
      value: {fileID: -5458212777247276895, guid: 7af988cf7a79102429c8cf4e1adbdf06, type: 3}
    - time: 3
      value: {fileID: 7296082599143861305, guid: 7af988cf7a79102429c8cf4e1adbdf06, type: 3}
    - time: 3.0833333
      value: {fileID: -6569629771960833661, guid: 7af988cf7a79102429c8cf4e1adbdf06, type: 3}
    - time: 3.1666667
      value: {fileID: 2348537157107252749, guid: 7af988cf7a79102429c8cf4e1adbdf06, type: 3}
    - time: 3.25
      value: {fileID: 1459852714021287580, guid: 7af988cf7a79102429c8cf4e1adbdf06, type: 3}
    - time: 3.3333333
      value: {fileID: -6322658128613849712, guid: 7af988cf7a79102429c8cf4e1adbdf06, type: 3}
    - time: 3.4166667
      value: {fileID: 8628393972507153446, guid: 7af988cf7a79102429c8cf4e1adbdf06, type: 3}
    - time: 3.5
      value: {fileID: -3006281696251654155, guid: 7af988cf7a79102429c8cf4e1adbdf06, type: 3}
    - time: 3.5833333
      value: {fileID: -8390669214179972146, guid: 7af988cf7a79102429c8cf4e1adbdf06, type: 3}
    - time: 3.6666667
      value: {fileID: 4641763894108679294, guid: 7af988cf7a79102429c8cf4e1adbdf06, type: 3}
    - time: 3.75
      value: {fileID: 8314130437514815688, guid: 7af988cf7a79102429c8cf4e1adbdf06, type: 3}
    - time: 3.8333333
      value: {fileID: -3610945039673188404, guid: 7af988cf7a79102429c8cf4e1adbdf06, type: 3}
    - time: 3.9166667
      value: {fileID: 4982418031089111688, guid: 7af988cf7a79102429c8cf4e1adbdf06, type: 3}
    - time: 4
      value: {fileID: 8033881183511262665, guid: 7af988cf7a79102429c8cf4e1adbdf06, type: 3}
    - time: 4.0833335
      value: {fileID: 7076309878469305421, guid: 7af988cf7a79102429c8cf4e1adbdf06, type: 3}
    - time: 4.1666665
      value: {fileID: 9145765565595737038, guid: 7af988cf7a79102429c8cf4e1adbdf06, type: 3}
    - time: 4.25
      value: {fileID: -7444933807955775024, guid: 7af988cf7a79102429c8cf4e1adbdf06, type: 3}
    - time: 4.3333335
      value: {fileID: 6190424533840428207, guid: 7af988cf7a79102429c8cf4e1adbdf06, type: 3}
    - time: 4.4166665
      value: {fileID: -5713565759436087522, guid: 7af988cf7a79102429c8cf4e1adbdf06, type: 3}
    - time: 4.5
      value: {fileID: -686114545928080456, guid: 7af988cf7a79102429c8cf4e1adbdf06, type: 3}
    - time: 4.5833335
      value: {fileID: -6453343579579867299, guid: 7af988cf7a79102429c8cf4e1adbdf06, type: 3}
    - time: 4.6666665
      value: {fileID: 498002897882197467, guid: 7af988cf7a79102429c8cf4e1adbdf06, type: 3}
    - time: 4.75
      value: {fileID: -2139720473302759237, guid: 7af988cf7a79102429c8cf4e1adbdf06, type: 3}
    - time: 4.8333335
      value: {fileID: 2683338556366479781, guid: 7af988cf7a79102429c8cf4e1adbdf06, type: 3}
    - time: 4.9166665
      value: {fileID: -2418158251643601459, guid: 7af988cf7a79102429c8cf4e1adbdf06, type: 3}
    - time: 5
      value: {fileID: 6347234528629038491, guid: 7af988cf7a79102429c8cf4e1adbdf06, type: 3}
    - time: 5.0833335
      value: {fileID: -1211740266548614565, guid: 7af988cf7a79102429c8cf4e1adbdf06, type: 3}
    - time: 5.1666665
      value: {fileID: 4869449735249130388, guid: 7af988cf7a79102429c8cf4e1adbdf06, type: 3}
    - time: 5.25
      value: {fileID: -3434287225224007723, guid: 7af988cf7a79102429c8cf4e1adbdf06, type: 3}
    - time: 5.3333335
      value: {fileID: -328425917086439938, guid: 7af988cf7a79102429c8cf4e1adbdf06, type: 3}
    - time: 5.4166665
      value: {fileID: -7996195309221114180, guid: 7af988cf7a79102429c8cf4e1adbdf06, type: 3}
    - time: 5.5
      value: {fileID: 7234252230270795144, guid: 7af988cf7a79102429c8cf4e1adbdf06, type: 3}
    attribute: m_Sprite
    path: 
    classID: 212
    script: {fileID: 0}
  m_SampleRate: 12
  m_WrapMode: 0
  m_Bounds:
    m_Center: {x: 0, y: 0, z: 0}
    m_Extent: {x: 0, y: 0, z: 0}
  m_ClipBindingConstant:
    genericBindings:
    - serializedVersion: 2
      path: 0
      attribute: 0
      script: {fileID: 0}
      typeID: 212
      customType: 23
      isPPtrCurve: 1
    pptrCurveMapping:
    - {fileID: -8439380473363227068, guid: 7af988cf7a79102429c8cf4e1adbdf06, type: 3}
    - {fileID: 8392069322806011941, guid: 7af988cf7a79102429c8cf4e1adbdf06, type: 3}
    - {fileID: 4097232650232281631, guid: 7af988cf7a79102429c8cf4e1adbdf06, type: 3}
    - {fileID: 9066636875504524519, guid: 7af988cf7a79102429c8cf4e1adbdf06, type: 3}
    - {fileID: 8342904927666951788, guid: 7af988cf7a79102429c8cf4e1adbdf06, type: 3}
    - {fileID: -616445348691919024, guid: 7af988cf7a79102429c8cf4e1adbdf06, type: 3}
    - {fileID: 4602039959607397244, guid: 7af988cf7a79102429c8cf4e1adbdf06, type: 3}
    - {fileID: -9190968547788551741, guid: 7af988cf7a79102429c8cf4e1adbdf06, type: 3}
    - {fileID: -568716397133879842, guid: 7af988cf7a79102429c8cf4e1adbdf06, type: 3}
    - {fileID: 7919846380019009996, guid: 7af988cf7a79102429c8cf4e1adbdf06, type: 3}
    - {fileID: -7213013170065750333, guid: 7af988cf7a79102429c8cf4e1adbdf06, type: 3}
    - {fileID: -6051249533303784775, guid: 7af988cf7a79102429c8cf4e1adbdf06, type: 3}
    - {fileID: -6271453338586801456, guid: 7af988cf7a79102429c8cf4e1adbdf06, type: 3}
    - {fileID: 3281204817930959553, guid: 7af988cf7a79102429c8cf4e1adbdf06, type: 3}
    - {fileID: -8180128963177154881, guid: 7af988cf7a79102429c8cf4e1adbdf06, type: 3}
    - {fileID: -757519926389809089, guid: 7af988cf7a79102429c8cf4e1adbdf06, type: 3}
    - {fileID: -3560418650803000581, guid: 7af988cf7a79102429c8cf4e1adbdf06, type: 3}
    - {fileID: 2598983270751243946, guid: 7af988cf7a79102429c8cf4e1adbdf06, type: 3}
    - {fileID: -8822256161212341795, guid: 7af988cf7a79102429c8cf4e1adbdf06, type: 3}
    - {fileID: -4412118212515487542, guid: 7af988cf7a79102429c8cf4e1adbdf06, type: 3}
    - {fileID: -1920638241283167688, guid: 7af988cf7a79102429c8cf4e1adbdf06, type: 3}
    - {fileID: -1396595369901645689, guid: 7af988cf7a79102429c8cf4e1adbdf06, type: 3}
    - {fileID: 2344892576501692034, guid: 7af988cf7a79102429c8cf4e1adbdf06, type: 3}
    - {fileID: -5685165575500876367, guid: 7af988cf7a79102429c8cf4e1adbdf06, type: 3}
    - {fileID: 3510355818335991637, guid: 7af988cf7a79102429c8cf4e1adbdf06, type: 3}
    - {fileID: -5917437833162697427, guid: 7af988cf7a79102429c8cf4e1adbdf06, type: 3}
    - {fileID: -658476787323093032, guid: 7af988cf7a79102429c8cf4e1adbdf06, type: 3}
    - {fileID: -2344047118954778131, guid: 7af988cf7a79102429c8cf4e1adbdf06, type: 3}
    - {fileID: 8127301091859268680, guid: 7af988cf7a79102429c8cf4e1adbdf06, type: 3}
    - {fileID: -4412509647957459047, guid: 7af988cf7a79102429c8cf4e1adbdf06, type: 3}
    - {fileID: -1483567291800364822, guid: 7af988cf7a79102429c8cf4e1adbdf06, type: 3}
    - {fileID: 6778639467506739415, guid: 7af988cf7a79102429c8cf4e1adbdf06, type: 3}
    - {fileID: -3579486140465399417, guid: 7af988cf7a79102429c8cf4e1adbdf06, type: 3}
    - {fileID: 8109255943387514078, guid: 7af988cf7a79102429c8cf4e1adbdf06, type: 3}
    - {fileID: 4555113282471758252, guid: 7af988cf7a79102429c8cf4e1adbdf06, type: 3}
    - {fileID: -5458212777247276895, guid: 7af988cf7a79102429c8cf4e1adbdf06, type: 3}
    - {fileID: 7296082599143861305, guid: 7af988cf7a79102429c8cf4e1adbdf06, type: 3}
    - {fileID: -6569629771960833661, guid: 7af988cf7a79102429c8cf4e1adbdf06, type: 3}
    - {fileID: 2348537157107252749, guid: 7af988cf7a79102429c8cf4e1adbdf06, type: 3}
    - {fileID: 1459852714021287580, guid: 7af988cf7a79102429c8cf4e1adbdf06, type: 3}
    - {fileID: -6322658128613849712, guid: 7af988cf7a79102429c8cf4e1adbdf06, type: 3}
    - {fileID: 8628393972507153446, guid: 7af988cf7a79102429c8cf4e1adbdf06, type: 3}
    - {fileID: -3006281696251654155, guid: 7af988cf7a79102429c8cf4e1adbdf06, type: 3}
    - {fileID: -8390669214179972146, guid: 7af988cf7a79102429c8cf4e1adbdf06, type: 3}
    - {fileID: 4641763894108679294, guid: 7af988cf7a79102429c8cf4e1adbdf06, type: 3}
    - {fileID: 8314130437514815688, guid: 7af988cf7a79102429c8cf4e1adbdf06, type: 3}
    - {fileID: -3610945039673188404, guid: 7af988cf7a79102429c8cf4e1adbdf06, type: 3}
    - {fileID: 4982418031089111688, guid: 7af988cf7a79102429c8cf4e1adbdf06, type: 3}
    - {fileID: 8033881183511262665, guid: 7af988cf7a79102429c8cf4e1adbdf06, type: 3}
    - {fileID: 7076309878469305421, guid: 7af988cf7a79102429c8cf4e1adbdf06, type: 3}
    - {fileID: 9145765565595737038, guid: 7af988cf7a79102429c8cf4e1adbdf06, type: 3}
    - {fileID: -7444933807955775024, guid: 7af988cf7a79102429c8cf4e1adbdf06, type: 3}
    - {fileID: 6190424533840428207, guid: 7af988cf7a79102429c8cf4e1adbdf06, type: 3}
    - {fileID: -5713565759436087522, guid: 7af988cf7a79102429c8cf4e1adbdf06, type: 3}
    - {fileID: -686114545928080456, guid: 7af988cf7a79102429c8cf4e1adbdf06, type: 3}
    - {fileID: -6453343579579867299, guid: 7af988cf7a79102429c8cf4e1adbdf06, type: 3}
    - {fileID: 498002897882197467, guid: 7af988cf7a79102429c8cf4e1adbdf06, type: 3}
    - {fileID: -2139720473302759237, guid: 7af988cf7a79102429c8cf4e1adbdf06, type: 3}
    - {fileID: 2683338556366479781, guid: 7af988cf7a79102429c8cf4e1adbdf06, type: 3}
    - {fileID: -2418158251643601459, guid: 7af988cf7a79102429c8cf4e1adbdf06, type: 3}
    - {fileID: 6347234528629038491, guid: 7af988cf7a79102429c8cf4e1adbdf06, type: 3}
    - {fileID: -1211740266548614565, guid: 7af988cf7a79102429c8cf4e1adbdf06, type: 3}
    - {fileID: 4869449735249130388, guid: 7af988cf7a79102429c8cf4e1adbdf06, type: 3}
    - {fileID: -3434287225224007723, guid: 7af988cf7a79102429c8cf4e1adbdf06, type: 3}
    - {fileID: -328425917086439938, guid: 7af988cf7a79102429c8cf4e1adbdf06, type: 3}
    - {fileID: -7996195309221114180, guid: 7af988cf7a79102429c8cf4e1adbdf06, type: 3}
    - {fileID: 7234252230270795144, guid: 7af988cf7a79102429c8cf4e1adbdf06, type: 3}
  m_AnimationClipSettings:
    serializedVersion: 2
    m_AdditiveReferencePoseClip: {fileID: 0}
    m_AdditiveReferencePoseTime: 0
    m_StartTime: 0
    m_StopTime: 5.5833335
    m_OrientationOffsetY: 0
    m_Level: 0
    m_CycleOffset: 0
    m_HasAdditiveReferencePose: 0
    m_LoopTime: 0
    m_LoopBlend: 0
    m_LoopBlendOrientation: 0
    m_LoopBlendPositionY: 0
    m_LoopBlendPositionXZ: 0
    m_KeepOriginalOrientation: 0
    m_KeepOriginalPositionY: 1
    m_KeepOriginalPositionXZ: 0
    m_HeightFromFeet: 0
    m_Mirror: 0
  m_EditorCurves: []
  m_EulerEditorCurves: []
  m_HasGenericRootTransform: 0
  m_HasMotionFloatCurves: 0
  m_Events:
  - time: 5.5833335
    functionName: InvokePlayAnim
    data: 
    objectReferenceParameter: {fileID: 0}
    floatParameter: 0
    intParameter: 0
    messageOptions: 0
