%YAML 1.1
%TAG !u! tag:unity3d.com,2011:
--- !u!687078895 &4343727234628468602
SpriteAtlas:
  m_ObjectHideFlags: 0
  m_CorrespondingSourceObject: {fileID: 0}
  m_PrefabInstance: {fileID: 0}
  m_PrefabAsset: {fileID: 0}
  m_Name: ItemIconAtlas
  m_EditorData:
    serializedVersion: 2
    textureSettings:
      serializedVersion: 2
      anisoLevel: 1
      compressionQuality: 50
      maxTextureSize: 2048
      textureCompression: 0
      filterMode: 1
      generateMipMaps: 0
      readable: 0
      crunchedCompression: 0
      sRGB: 1
    platformSettings:
    - serializedVersion: 3
      m_BuildTarget: DefaultTexturePlatform
      m_MaxTextureSize: 512
      m_ResizeAlgorithm: 0
      m_TextureFormat: -1
      m_TextureCompression: 0
      m_CompressionQuality: 50
      m_CrunchedCompression: 0
      m_AllowsAlphaSplitting: 0
      m_Overridden: 0
      m_AndroidETC2FallbackOverride: 0
      m_ForceMaximumCompressionQuality_BC6H_BC7: 0
    - serializedVersion: 3
      m_BuildTarget: Android
      m_MaxTextureSize: 512
      m_ResizeAlgorithm: 0
      m_TextureFormat: 46
      m_TextureCompression: 1
      m_CompressionQuality: 50
      m_CrunchedCompression: 0
      m_AllowsAlphaSplitting: 0
      m_Overridden: 1
      m_AndroidETC2FallbackOverride: 0
      m_ForceMaximumCompressionQuality_BC6H_BC7: 0
    packingSettings:
      serializedVersion: 2
      padding: 8
      blockOffset: 1
      allowAlphaSplitting: 0
      enableRotation: 0
      enableTightPacking: 0
    secondaryTextureSettings: {}
    variantMultiplier: 1
    packables:
    - {fileID: 2800000, guid: 29afe0a10ccf86b41ada0343477a6d34, type: 3}
    - {fileID: 2800000, guid: 177188eb8b158f14abb194116af6aeb1, type: 3}
    - {fileID: 2800000, guid: 96a0af4d94da6ce49b617134bc71ff78, type: 3}
    - {fileID: 2800000, guid: d0f11bbe6a88d5340887c9bc68155f27, type: 3}
    - {fileID: 2800000, guid: 16b3845293d08bb4584145d0b77e3086, type: 3}
    - {fileID: 2800000, guid: 4d1ebc8e8ee1cee448a06d9e97646857, type: 3}
    bindAsDefault: 1
    isAtlasV2: 0
    cachedData: {fileID: 0}
  m_MasterAtlas: {fileID: 0}
  m_PackedSprites:
  - {fileID: 21300000, guid: 29afe0a10ccf86b41ada0343477a6d34, type: 3}
  - {fileID: 21300000, guid: 16b3845293d08bb4584145d0b77e3086, type: 3}
  - {fileID: 21300000, guid: 177188eb8b158f14abb194116af6aeb1, type: 3}
  - {fileID: 21300000, guid: 96a0af4d94da6ce49b617134bc71ff78, type: 3}
  - {fileID: 21300000, guid: 4d1ebc8e8ee1cee448a06d9e97646857, type: 3}
  - {fileID: 21300000, guid: d0f11bbe6a88d5340887c9bc68155f27, type: 3}
  m_PackedSpriteNamesToIndex:
  - helmet
  - weapon
  - armor
  - leggings
  - Potion
  - boots
  m_RenderDataMap: {}
  m_Tag: ItemIconAtlas
  m_IsVariant: 0
