%YAML 1.1
%TAG !u! tag:unity3d.com,2011:
--- !u!1 &2550766255549669854
GameObject:
  m_ObjectHideFlags: 0
  m_CorrespondingSourceObject: {fileID: 0}
  m_PrefabInstance: {fileID: 0}
  m_PrefabAsset: {fileID: 0}
  serializedVersion: 6
  m_Component:
  - component: {fileID: 4843523529981291859}
  - component: {fileID: 1950240067593518639}
  m_Layer: 31
  m_Name: Loading
  m_TagString: Untagged
  m_Icon: {fileID: 0}
  m_NavMeshLayer: 0
  m_StaticEditorFlags: 0
  m_IsActive: 1
--- !u!4 &4843523529981291859
Transform:
  m_ObjectHideFlags: 0
  m_CorrespondingSourceObject: {fileID: 0}
  m_PrefabInstance: {fileID: 0}
  m_PrefabAsset: {fileID: 0}
  m_GameObject: {fileID: 2550766255549669854}
  m_LocalRotation: {x: 0, y: 0, z: 0, w: 1}
  m_LocalPosition: {x: 0, y: 0, z: 0}
  m_LocalScale: {x: 1, y: 1, z: 1}
  m_Children:
  - {fileID: 7054366732930788223}
  m_Father: {fileID: 0}
  m_RootOrder: 0
  m_LocalEulerAnglesHint: {x: 0, y: 0, z: 0}
--- !u!156049354 &1950240067593518639
Grid:
  m_ObjectHideFlags: 0
  m_CorrespondingSourceObject: {fileID: 0}
  m_PrefabInstance: {fileID: 0}
  m_PrefabAsset: {fileID: 0}
  m_GameObject: {fileID: 2550766255549669854}
  m_Enabled: 1
  m_CellSize: {x: 1, y: 1, z: 0}
  m_CellGap: {x: 0, y: 0, z: 0}
  m_CellLayout: 0
  m_CellSwizzle: 0
--- !u!1 &5285948780988905317
GameObject:
  m_ObjectHideFlags: 0
  m_CorrespondingSourceObject: {fileID: 0}
  m_PrefabInstance: {fileID: 0}
  m_PrefabAsset: {fileID: 0}
  serializedVersion: 6
  m_Component:
  - component: {fileID: 7054366732930788223}
  - component: {fileID: 7878742794785198980}
  - component: {fileID: 5172572331761047412}
  m_Layer: 0
  m_Name: Layer1
  m_TagString: Untagged
  m_Icon: {fileID: 0}
  m_NavMeshLayer: 0
  m_StaticEditorFlags: 0
  m_IsActive: 1
--- !u!4 &7054366732930788223
Transform:
  m_ObjectHideFlags: 0
  m_CorrespondingSourceObject: {fileID: 0}
  m_PrefabInstance: {fileID: 0}
  m_PrefabAsset: {fileID: 0}
  m_GameObject: {fileID: 5285948780988905317}
  m_LocalRotation: {x: -0, y: -0, z: -0, w: 1}
  m_LocalPosition: {x: 0, y: 0, z: 0}
  m_LocalScale: {x: 1, y: 1, z: 1}
  m_Children: []
  m_Father: {fileID: 4843523529981291859}
  m_RootOrder: 0
  m_LocalEulerAnglesHint: {x: 0, y: 0, z: 0}
--- !u!1839735485 &7878742794785198980
Tilemap:
  m_ObjectHideFlags: 0
  m_CorrespondingSourceObject: {fileID: 0}
  m_PrefabInstance: {fileID: 0}
  m_PrefabAsset: {fileID: 0}
  m_GameObject: {fileID: 5285948780988905317}
  m_Enabled: 1
  m_Tiles:
  - first: {x: -1, y: -11, z: 0}
    second:
      serializedVersion: 2
      m_TileIndex: 101
      m_TileSpriteIndex: 101
      m_TileMatrixIndex: 0
      m_TileColorIndex: 0
      m_TileObjectToInstantiateIndex: 65535
      dummyAlignment: 0
      m_AllTileFlags: 1073741825
  - first: {x: 0, y: -11, z: 0}
    second:
      serializedVersion: 2
      m_TileIndex: 102
      m_TileSpriteIndex: 102
      m_TileMatrixIndex: 0
      m_TileColorIndex: 0
      m_TileObjectToInstantiateIndex: 65535
      dummyAlignment: 0
      m_AllTileFlags: 1073741825
  - first: {x: 2, y: -11, z: 0}
    second:
      serializedVersion: 2
      m_TileIndex: 103
      m_TileSpriteIndex: 103
      m_TileMatrixIndex: 0
      m_TileColorIndex: 0
      m_TileObjectToInstantiateIndex: 65535
      dummyAlignment: 0
      m_AllTileFlags: 1073741825
  - first: {x: 3, y: -11, z: 0}
    second:
      serializedVersion: 2
      m_TileIndex: 104
      m_TileSpriteIndex: 104
      m_TileMatrixIndex: 0
      m_TileColorIndex: 0
      m_TileObjectToInstantiateIndex: 65535
      dummyAlignment: 0
      m_AllTileFlags: 1073741825
  - first: {x: 6, y: -11, z: 0}
    second:
      serializedVersion: 2
      m_TileIndex: 105
      m_TileSpriteIndex: 105
      m_TileMatrixIndex: 0
      m_TileColorIndex: 0
      m_TileObjectToInstantiateIndex: 65535
      dummyAlignment: 0
      m_AllTileFlags: 1073741825
  - first: {x: 7, y: -11, z: 0}
    second:
      serializedVersion: 2
      m_TileIndex: 106
      m_TileSpriteIndex: 106
      m_TileMatrixIndex: 0
      m_TileColorIndex: 0
      m_TileObjectToInstantiateIndex: 65535
      dummyAlignment: 0
      m_AllTileFlags: 1073741825
  - first: {x: 8, y: -11, z: 0}
    second:
      serializedVersion: 2
      m_TileIndex: 107
      m_TileSpriteIndex: 107
      m_TileMatrixIndex: 0
      m_TileColorIndex: 0
      m_TileObjectToInstantiateIndex: 65535
      dummyAlignment: 0
      m_AllTileFlags: 1073741825
  - first: {x: 9, y: -11, z: 0}
    second:
      serializedVersion: 2
      m_TileIndex: 108
      m_TileSpriteIndex: 108
      m_TileMatrixIndex: 0
      m_TileColorIndex: 0
      m_TileObjectToInstantiateIndex: 65535
      dummyAlignment: 0
      m_AllTileFlags: 1073741825
  - first: {x: -1, y: -10, z: 0}
    second:
      serializedVersion: 2
      m_TileIndex: 89
      m_TileSpriteIndex: 89
      m_TileMatrixIndex: 0
      m_TileColorIndex: 0
      m_TileObjectToInstantiateIndex: 65535
      dummyAlignment: 0
      m_AllTileFlags: 1073741825
  - first: {x: 0, y: -10, z: 0}
    second:
      serializedVersion: 2
      m_TileIndex: 90
      m_TileSpriteIndex: 90
      m_TileMatrixIndex: 0
      m_TileColorIndex: 0
      m_TileObjectToInstantiateIndex: 65535
      dummyAlignment: 0
      m_AllTileFlags: 1073741825
  - first: {x: 2, y: -10, z: 0}
    second:
      serializedVersion: 2
      m_TileIndex: 91
      m_TileSpriteIndex: 91
      m_TileMatrixIndex: 0
      m_TileColorIndex: 0
      m_TileObjectToInstantiateIndex: 65535
      dummyAlignment: 0
      m_AllTileFlags: 1073741825
  - first: {x: 3, y: -10, z: 0}
    second:
      serializedVersion: 2
      m_TileIndex: 92
      m_TileSpriteIndex: 92
      m_TileMatrixIndex: 0
      m_TileColorIndex: 0
      m_TileObjectToInstantiateIndex: 65535
      dummyAlignment: 0
      m_AllTileFlags: 1073741825
  - first: {x: 6, y: -10, z: 0}
    second:
      serializedVersion: 2
      m_TileIndex: 93
      m_TileSpriteIndex: 93
      m_TileMatrixIndex: 0
      m_TileColorIndex: 0
      m_TileObjectToInstantiateIndex: 65535
      dummyAlignment: 0
      m_AllTileFlags: 1073741825
  - first: {x: 7, y: -10, z: 0}
    second:
      serializedVersion: 2
      m_TileIndex: 94
      m_TileSpriteIndex: 94
      m_TileMatrixIndex: 0
      m_TileColorIndex: 0
      m_TileObjectToInstantiateIndex: 65535
      dummyAlignment: 0
      m_AllTileFlags: 1073741825
  - first: {x: 8, y: -10, z: 0}
    second:
      serializedVersion: 2
      m_TileIndex: 95
      m_TileSpriteIndex: 95
      m_TileMatrixIndex: 0
      m_TileColorIndex: 0
      m_TileObjectToInstantiateIndex: 65535
      dummyAlignment: 0
      m_AllTileFlags: 1073741825
  - first: {x: 9, y: -10, z: 0}
    second:
      serializedVersion: 2
      m_TileIndex: 96
      m_TileSpriteIndex: 96
      m_TileMatrixIndex: 0
      m_TileColorIndex: 0
      m_TileObjectToInstantiateIndex: 65535
      dummyAlignment: 0
      m_AllTileFlags: 1073741825
  - first: {x: 11, y: -10, z: 0}
    second:
      serializedVersion: 2
      m_TileIndex: 97
      m_TileSpriteIndex: 97
      m_TileMatrixIndex: 0
      m_TileColorIndex: 0
      m_TileObjectToInstantiateIndex: 65535
      dummyAlignment: 0
      m_AllTileFlags: 1073741825
  - first: {x: 12, y: -10, z: 0}
    second:
      serializedVersion: 2
      m_TileIndex: 98
      m_TileSpriteIndex: 98
      m_TileMatrixIndex: 0
      m_TileColorIndex: 0
      m_TileObjectToInstantiateIndex: 65535
      dummyAlignment: 0
      m_AllTileFlags: 1073741825
  - first: {x: 13, y: -10, z: 0}
    second:
      serializedVersion: 2
      m_TileIndex: 99
      m_TileSpriteIndex: 99
      m_TileMatrixIndex: 0
      m_TileColorIndex: 0
      m_TileObjectToInstantiateIndex: 65535
      dummyAlignment: 0
      m_AllTileFlags: 1073741825
  - first: {x: 14, y: -10, z: 0}
    second:
      serializedVersion: 2
      m_TileIndex: 100
      m_TileSpriteIndex: 100
      m_TileMatrixIndex: 0
      m_TileColorIndex: 0
      m_TileObjectToInstantiateIndex: 65535
      dummyAlignment: 0
      m_AllTileFlags: 1073741825
  - first: {x: 6, y: -9, z: 0}
    second:
      serializedVersion: 2
      m_TileIndex: 79
      m_TileSpriteIndex: 79
      m_TileMatrixIndex: 0
      m_TileColorIndex: 0
      m_TileObjectToInstantiateIndex: 65535
      dummyAlignment: 0
      m_AllTileFlags: 1073741825
  - first: {x: 7, y: -9, z: 0}
    second:
      serializedVersion: 2
      m_TileIndex: 80
      m_TileSpriteIndex: 80
      m_TileMatrixIndex: 0
      m_TileColorIndex: 0
      m_TileObjectToInstantiateIndex: 65535
      dummyAlignment: 0
      m_AllTileFlags: 1073741825
  - first: {x: 8, y: -9, z: 0}
    second:
      serializedVersion: 2
      m_TileIndex: 81
      m_TileSpriteIndex: 81
      m_TileMatrixIndex: 0
      m_TileColorIndex: 0
      m_TileObjectToInstantiateIndex: 65535
      dummyAlignment: 0
      m_AllTileFlags: 1073741825
  - first: {x: 9, y: -9, z: 0}
    second:
      serializedVersion: 2
      m_TileIndex: 82
      m_TileSpriteIndex: 82
      m_TileMatrixIndex: 0
      m_TileColorIndex: 0
      m_TileObjectToInstantiateIndex: 65535
      dummyAlignment: 0
      m_AllTileFlags: 1073741825
  - first: {x: 11, y: -9, z: 0}
    second:
      serializedVersion: 2
      m_TileIndex: 83
      m_TileSpriteIndex: 83
      m_TileMatrixIndex: 0
      m_TileColorIndex: 0
      m_TileObjectToInstantiateIndex: 65535
      dummyAlignment: 0
      m_AllTileFlags: 1073741825
  - first: {x: 12, y: -9, z: 0}
    second:
      serializedVersion: 2
      m_TileIndex: 84
      m_TileSpriteIndex: 84
      m_TileMatrixIndex: 0
      m_TileColorIndex: 0
      m_TileObjectToInstantiateIndex: 65535
      dummyAlignment: 0
      m_AllTileFlags: 1073741825
  - first: {x: 13, y: -9, z: 0}
    second:
      serializedVersion: 2
      m_TileIndex: 85
      m_TileSpriteIndex: 85
      m_TileMatrixIndex: 0
      m_TileColorIndex: 0
      m_TileObjectToInstantiateIndex: 65535
      dummyAlignment: 0
      m_AllTileFlags: 1073741825
  - first: {x: 14, y: -9, z: 0}
    second:
      serializedVersion: 2
      m_TileIndex: 86
      m_TileSpriteIndex: 86
      m_TileMatrixIndex: 0
      m_TileColorIndex: 0
      m_TileObjectToInstantiateIndex: 65535
      dummyAlignment: 0
      m_AllTileFlags: 1073741825
  - first: {x: 16, y: -9, z: 0}
    second:
      serializedVersion: 2
      m_TileIndex: 87
      m_TileSpriteIndex: 87
      m_TileMatrixIndex: 0
      m_TileColorIndex: 0
      m_TileObjectToInstantiateIndex: 65535
      dummyAlignment: 0
      m_AllTileFlags: 1073741825
  - first: {x: 17, y: -9, z: 0}
    second:
      serializedVersion: 2
      m_TileIndex: 88
      m_TileSpriteIndex: 88
      m_TileMatrixIndex: 0
      m_TileColorIndex: 0
      m_TileObjectToInstantiateIndex: 65535
      dummyAlignment: 0
      m_AllTileFlags: 1073741825
  - first: {x: 11, y: -8, z: 0}
    second:
      serializedVersion: 2
      m_TileIndex: 72
      m_TileSpriteIndex: 72
      m_TileMatrixIndex: 0
      m_TileColorIndex: 0
      m_TileObjectToInstantiateIndex: 65535
      dummyAlignment: 0
      m_AllTileFlags: 1073741825
  - first: {x: 12, y: -8, z: 0}
    second:
      serializedVersion: 2
      m_TileIndex: 73
      m_TileSpriteIndex: 73
      m_TileMatrixIndex: 0
      m_TileColorIndex: 0
      m_TileObjectToInstantiateIndex: 65535
      dummyAlignment: 0
      m_AllTileFlags: 1073741825
  - first: {x: 13, y: -8, z: 0}
    second:
      serializedVersion: 2
      m_TileIndex: 74
      m_TileSpriteIndex: 74
      m_TileMatrixIndex: 0
      m_TileColorIndex: 0
      m_TileObjectToInstantiateIndex: 65535
      dummyAlignment: 0
      m_AllTileFlags: 1073741825
  - first: {x: 14, y: -8, z: 0}
    second:
      serializedVersion: 2
      m_TileIndex: 75
      m_TileSpriteIndex: 75
      m_TileMatrixIndex: 0
      m_TileColorIndex: 0
      m_TileObjectToInstantiateIndex: 65535
      dummyAlignment: 0
      m_AllTileFlags: 1073741825
  - first: {x: 16, y: -8, z: 0}
    second:
      serializedVersion: 2
      m_TileIndex: 76
      m_TileSpriteIndex: 76
      m_TileMatrixIndex: 0
      m_TileColorIndex: 0
      m_TileObjectToInstantiateIndex: 65535
      dummyAlignment: 0
      m_AllTileFlags: 1073741825
  - first: {x: 17, y: -8, z: 0}
    second:
      serializedVersion: 2
      m_TileIndex: 77
      m_TileSpriteIndex: 77
      m_TileMatrixIndex: 0
      m_TileColorIndex: 0
      m_TileObjectToInstantiateIndex: 65535
      dummyAlignment: 0
      m_AllTileFlags: 1073741825
  - first: {x: 18, y: -8, z: 0}
    second:
      serializedVersion: 2
      m_TileIndex: 78
      m_TileSpriteIndex: 78
      m_TileMatrixIndex: 0
      m_TileColorIndex: 0
      m_TileObjectToInstantiateIndex: 65535
      dummyAlignment: 0
      m_AllTileFlags: 1073741825
  - first: {x: -1, y: -7, z: 0}
    second:
      serializedVersion: 2
      m_TileIndex: 57
      m_TileSpriteIndex: 57
      m_TileMatrixIndex: 0
      m_TileColorIndex: 0
      m_TileObjectToInstantiateIndex: 65535
      dummyAlignment: 0
      m_AllTileFlags: 1073741825
  - first: {x: 0, y: -7, z: 0}
    second:
      serializedVersion: 2
      m_TileIndex: 58
      m_TileSpriteIndex: 58
      m_TileMatrixIndex: 0
      m_TileColorIndex: 0
      m_TileObjectToInstantiateIndex: 65535
      dummyAlignment: 0
      m_AllTileFlags: 1073741825
  - first: {x: 2, y: -7, z: 0}
    second:
      serializedVersion: 2
      m_TileIndex: 59
      m_TileSpriteIndex: 59
      m_TileMatrixIndex: 0
      m_TileColorIndex: 0
      m_TileObjectToInstantiateIndex: 65535
      dummyAlignment: 0
      m_AllTileFlags: 1073741825
  - first: {x: 3, y: -7, z: 0}
    second:
      serializedVersion: 2
      m_TileIndex: 60
      m_TileSpriteIndex: 60
      m_TileMatrixIndex: 0
      m_TileColorIndex: 0
      m_TileObjectToInstantiateIndex: 65535
      dummyAlignment: 0
      m_AllTileFlags: 1073741825
  - first: {x: 6, y: -7, z: 0}
    second:
      serializedVersion: 2
      m_TileIndex: 61
      m_TileSpriteIndex: 61
      m_TileMatrixIndex: 0
      m_TileColorIndex: 0
      m_TileObjectToInstantiateIndex: 65535
      dummyAlignment: 0
      m_AllTileFlags: 1073741825
  - first: {x: 7, y: -7, z: 0}
    second:
      serializedVersion: 2
      m_TileIndex: 62
      m_TileSpriteIndex: 62
      m_TileMatrixIndex: 0
      m_TileColorIndex: 0
      m_TileObjectToInstantiateIndex: 65535
      dummyAlignment: 0
      m_AllTileFlags: 1073741825
  - first: {x: 8, y: -7, z: 0}
    second:
      serializedVersion: 2
      m_TileIndex: 63
      m_TileSpriteIndex: 63
      m_TileMatrixIndex: 0
      m_TileColorIndex: 0
      m_TileObjectToInstantiateIndex: 65535
      dummyAlignment: 0
      m_AllTileFlags: 1073741825
  - first: {x: 9, y: -7, z: 0}
    second:
      serializedVersion: 2
      m_TileIndex: 64
      m_TileSpriteIndex: 64
      m_TileMatrixIndex: 0
      m_TileColorIndex: 0
      m_TileObjectToInstantiateIndex: 65535
      dummyAlignment: 0
      m_AllTileFlags: 1073741825
  - first: {x: 11, y: -7, z: 0}
    second:
      serializedVersion: 2
      m_TileIndex: 65
      m_TileSpriteIndex: 65
      m_TileMatrixIndex: 0
      m_TileColorIndex: 0
      m_TileObjectToInstantiateIndex: 65535
      dummyAlignment: 0
      m_AllTileFlags: 1073741825
  - first: {x: 12, y: -7, z: 0}
    second:
      serializedVersion: 2
      m_TileIndex: 66
      m_TileSpriteIndex: 66
      m_TileMatrixIndex: 0
      m_TileColorIndex: 0
      m_TileObjectToInstantiateIndex: 65535
      dummyAlignment: 0
      m_AllTileFlags: 1073741825
  - first: {x: 13, y: -7, z: 0}
    second:
      serializedVersion: 2
      m_TileIndex: 67
      m_TileSpriteIndex: 67
      m_TileMatrixIndex: 0
      m_TileColorIndex: 0
      m_TileObjectToInstantiateIndex: 65535
      dummyAlignment: 0
      m_AllTileFlags: 1073741825
  - first: {x: 14, y: -7, z: 0}
    second:
      serializedVersion: 2
      m_TileIndex: 68
      m_TileSpriteIndex: 68
      m_TileMatrixIndex: 0
      m_TileColorIndex: 0
      m_TileObjectToInstantiateIndex: 65535
      dummyAlignment: 0
      m_AllTileFlags: 1073741825
  - first: {x: 16, y: -7, z: 0}
    second:
      serializedVersion: 2
      m_TileIndex: 69
      m_TileSpriteIndex: 69
      m_TileMatrixIndex: 0
      m_TileColorIndex: 0
      m_TileObjectToInstantiateIndex: 65535
      dummyAlignment: 0
      m_AllTileFlags: 1073741825
  - first: {x: 17, y: -7, z: 0}
    second:
      serializedVersion: 2
      m_TileIndex: 70
      m_TileSpriteIndex: 70
      m_TileMatrixIndex: 0
      m_TileColorIndex: 0
      m_TileObjectToInstantiateIndex: 65535
      dummyAlignment: 0
      m_AllTileFlags: 1073741825
  - first: {x: 18, y: -7, z: 0}
    second:
      serializedVersion: 2
      m_TileIndex: 71
      m_TileSpriteIndex: 71
      m_TileMatrixIndex: 0
      m_TileColorIndex: 0
      m_TileObjectToInstantiateIndex: 65535
      dummyAlignment: 0
      m_AllTileFlags: 1073741825
  - first: {x: -1, y: -6, z: 0}
    second:
      serializedVersion: 2
      m_TileIndex: 42
      m_TileSpriteIndex: 42
      m_TileMatrixIndex: 0
      m_TileColorIndex: 0
      m_TileObjectToInstantiateIndex: 65535
      dummyAlignment: 0
      m_AllTileFlags: 1073741825
  - first: {x: 0, y: -6, z: 0}
    second:
      serializedVersion: 2
      m_TileIndex: 43
      m_TileSpriteIndex: 43
      m_TileMatrixIndex: 0
      m_TileColorIndex: 0
      m_TileObjectToInstantiateIndex: 65535
      dummyAlignment: 0
      m_AllTileFlags: 1073741825
  - first: {x: 2, y: -6, z: 0}
    second:
      serializedVersion: 2
      m_TileIndex: 44
      m_TileSpriteIndex: 44
      m_TileMatrixIndex: 0
      m_TileColorIndex: 0
      m_TileObjectToInstantiateIndex: 65535
      dummyAlignment: 0
      m_AllTileFlags: 1073741825
  - first: {x: 3, y: -6, z: 0}
    second:
      serializedVersion: 2
      m_TileIndex: 45
      m_TileSpriteIndex: 45
      m_TileMatrixIndex: 0
      m_TileColorIndex: 0
      m_TileObjectToInstantiateIndex: 65535
      dummyAlignment: 0
      m_AllTileFlags: 1073741825
  - first: {x: 6, y: -6, z: 0}
    second:
      serializedVersion: 2
      m_TileIndex: 46
      m_TileSpriteIndex: 46
      m_TileMatrixIndex: 0
      m_TileColorIndex: 0
      m_TileObjectToInstantiateIndex: 65535
      dummyAlignment: 0
      m_AllTileFlags: 1073741825
  - first: {x: 7, y: -6, z: 0}
    second:
      serializedVersion: 2
      m_TileIndex: 47
      m_TileSpriteIndex: 47
      m_TileMatrixIndex: 0
      m_TileColorIndex: 0
      m_TileObjectToInstantiateIndex: 65535
      dummyAlignment: 0
      m_AllTileFlags: 1073741825
  - first: {x: 8, y: -6, z: 0}
    second:
      serializedVersion: 2
      m_TileIndex: 48
      m_TileSpriteIndex: 48
      m_TileMatrixIndex: 0
      m_TileColorIndex: 0
      m_TileObjectToInstantiateIndex: 65535
      dummyAlignment: 0
      m_AllTileFlags: 1073741825
  - first: {x: 9, y: -6, z: 0}
    second:
      serializedVersion: 2
      m_TileIndex: 49
      m_TileSpriteIndex: 49
      m_TileMatrixIndex: 0
      m_TileColorIndex: 0
      m_TileObjectToInstantiateIndex: 65535
      dummyAlignment: 0
      m_AllTileFlags: 1073741825
  - first: {x: 11, y: -6, z: 0}
    second:
      serializedVersion: 2
      m_TileIndex: 50
      m_TileSpriteIndex: 50
      m_TileMatrixIndex: 0
      m_TileColorIndex: 0
      m_TileObjectToInstantiateIndex: 65535
      dummyAlignment: 0
      m_AllTileFlags: 1073741825
  - first: {x: 12, y: -6, z: 0}
    second:
      serializedVersion: 2
      m_TileIndex: 51
      m_TileSpriteIndex: 51
      m_TileMatrixIndex: 0
      m_TileColorIndex: 0
      m_TileObjectToInstantiateIndex: 65535
      dummyAlignment: 0
      m_AllTileFlags: 1073741825
  - first: {x: 13, y: -6, z: 0}
    second:
      serializedVersion: 2
      m_TileIndex: 52
      m_TileSpriteIndex: 52
      m_TileMatrixIndex: 0
      m_TileColorIndex: 0
      m_TileObjectToInstantiateIndex: 65535
      dummyAlignment: 0
      m_AllTileFlags: 1073741825
  - first: {x: 14, y: -6, z: 0}
    second:
      serializedVersion: 2
      m_TileIndex: 53
      m_TileSpriteIndex: 53
      m_TileMatrixIndex: 0
      m_TileColorIndex: 0
      m_TileObjectToInstantiateIndex: 65535
      dummyAlignment: 0
      m_AllTileFlags: 1073741825
  - first: {x: 16, y: -6, z: 0}
    second:
      serializedVersion: 2
      m_TileIndex: 54
      m_TileSpriteIndex: 54
      m_TileMatrixIndex: 0
      m_TileColorIndex: 0
      m_TileObjectToInstantiateIndex: 65535
      dummyAlignment: 0
      m_AllTileFlags: 1073741825
  - first: {x: 17, y: -6, z: 0}
    second:
      serializedVersion: 2
      m_TileIndex: 55
      m_TileSpriteIndex: 55
      m_TileMatrixIndex: 0
      m_TileColorIndex: 0
      m_TileObjectToInstantiateIndex: 65535
      dummyAlignment: 0
      m_AllTileFlags: 1073741825
  - first: {x: 18, y: -6, z: 0}
    second:
      serializedVersion: 2
      m_TileIndex: 56
      m_TileSpriteIndex: 56
      m_TileMatrixIndex: 0
      m_TileColorIndex: 0
      m_TileObjectToInstantiateIndex: 65535
      dummyAlignment: 0
      m_AllTileFlags: 1073741825
  - first: {x: 5, y: -5, z: 0}
    second:
      serializedVersion: 2
      m_TileIndex: 36
      m_TileSpriteIndex: 36
      m_TileMatrixIndex: 0
      m_TileColorIndex: 0
      m_TileObjectToInstantiateIndex: 65535
      dummyAlignment: 0
      m_AllTileFlags: 1073741825
  - first: {x: 6, y: -5, z: 0}
    second:
      serializedVersion: 2
      m_TileIndex: 37
      m_TileSpriteIndex: 37
      m_TileMatrixIndex: 0
      m_TileColorIndex: 0
      m_TileObjectToInstantiateIndex: 65535
      dummyAlignment: 0
      m_AllTileFlags: 1073741825
  - first: {x: 7, y: -5, z: 0}
    second:
      serializedVersion: 2
      m_TileIndex: 38
      m_TileSpriteIndex: 38
      m_TileMatrixIndex: 0
      m_TileColorIndex: 0
      m_TileObjectToInstantiateIndex: 65535
      dummyAlignment: 0
      m_AllTileFlags: 1073741825
  - first: {x: 8, y: -5, z: 0}
    second:
      serializedVersion: 2
      m_TileIndex: 39
      m_TileSpriteIndex: 39
      m_TileMatrixIndex: 0
      m_TileColorIndex: 0
      m_TileObjectToInstantiateIndex: 65535
      dummyAlignment: 0
      m_AllTileFlags: 1073741825
  - first: {x: 9, y: -5, z: 0}
    second:
      serializedVersion: 2
      m_TileIndex: 40
      m_TileSpriteIndex: 40
      m_TileMatrixIndex: 0
      m_TileColorIndex: 0
      m_TileObjectToInstantiateIndex: 65535
      dummyAlignment: 0
      m_AllTileFlags: 1073741825
  - first: {x: 10, y: -5, z: 0}
    second:
      serializedVersion: 2
      m_TileIndex: 41
      m_TileSpriteIndex: 41
      m_TileMatrixIndex: 0
      m_TileColorIndex: 0
      m_TileObjectToInstantiateIndex: 65535
      dummyAlignment: 0
      m_AllTileFlags: 1073741825
  - first: {x: 0, y: -4, z: 0}
    second:
      serializedVersion: 2
      m_TileIndex: 25
      m_TileSpriteIndex: 25
      m_TileMatrixIndex: 0
      m_TileColorIndex: 0
      m_TileObjectToInstantiateIndex: 65535
      dummyAlignment: 0
      m_AllTileFlags: 1073741825
  - first: {x: 2, y: -4, z: 0}
    second:
      serializedVersion: 2
      m_TileIndex: 26
      m_TileSpriteIndex: 26
      m_TileMatrixIndex: 0
      m_TileColorIndex: 0
      m_TileObjectToInstantiateIndex: 65535
      dummyAlignment: 0
      m_AllTileFlags: 1073741825
  - first: {x: 5, y: -4, z: 0}
    second:
      serializedVersion: 2
      m_TileIndex: 27
      m_TileSpriteIndex: 27
      m_TileMatrixIndex: 0
      m_TileColorIndex: 0
      m_TileObjectToInstantiateIndex: 65535
      dummyAlignment: 0
      m_AllTileFlags: 1073741825
  - first: {x: 6, y: -4, z: 0}
    second:
      serializedVersion: 2
      m_TileIndex: 28
      m_TileSpriteIndex: 28
      m_TileMatrixIndex: 0
      m_TileColorIndex: 0
      m_TileObjectToInstantiateIndex: 65535
      dummyAlignment: 0
      m_AllTileFlags: 1073741825
  - first: {x: 7, y: -4, z: 0}
    second:
      serializedVersion: 2
      m_TileIndex: 29
      m_TileSpriteIndex: 29
      m_TileMatrixIndex: 0
      m_TileColorIndex: 0
      m_TileObjectToInstantiateIndex: 65535
      dummyAlignment: 0
      m_AllTileFlags: 1073741825
  - first: {x: 8, y: -4, z: 0}
    second:
      serializedVersion: 2
      m_TileIndex: 30
      m_TileSpriteIndex: 30
      m_TileMatrixIndex: 0
      m_TileColorIndex: 0
      m_TileObjectToInstantiateIndex: 65535
      dummyAlignment: 0
      m_AllTileFlags: 1073741825
  - first: {x: 9, y: -4, z: 0}
    second:
      serializedVersion: 2
      m_TileIndex: 31
      m_TileSpriteIndex: 31
      m_TileMatrixIndex: 0
      m_TileColorIndex: 0
      m_TileObjectToInstantiateIndex: 65535
      dummyAlignment: 0
      m_AllTileFlags: 1073741825
  - first: {x: 10, y: -4, z: 0}
    second:
      serializedVersion: 2
      m_TileIndex: 32
      m_TileSpriteIndex: 32
      m_TileMatrixIndex: 0
      m_TileColorIndex: 0
      m_TileObjectToInstantiateIndex: 65535
      dummyAlignment: 0
      m_AllTileFlags: 1073741825
  - first: {x: 11, y: -4, z: 0}
    second:
      serializedVersion: 2
      m_TileIndex: 33
      m_TileSpriteIndex: 33
      m_TileMatrixIndex: 0
      m_TileColorIndex: 0
      m_TileObjectToInstantiateIndex: 65535
      dummyAlignment: 0
      m_AllTileFlags: 1073741825
  - first: {x: 15, y: -4, z: 0}
    second:
      serializedVersion: 2
      m_TileIndex: 34
      m_TileSpriteIndex: 34
      m_TileMatrixIndex: 0
      m_TileColorIndex: 0
      m_TileObjectToInstantiateIndex: 65535
      dummyAlignment: 0
      m_AllTileFlags: 1073741825
  - first: {x: 17, y: -4, z: 0}
    second:
      serializedVersion: 2
      m_TileIndex: 35
      m_TileSpriteIndex: 35
      m_TileMatrixIndex: 0
      m_TileColorIndex: 0
      m_TileObjectToInstantiateIndex: 65535
      dummyAlignment: 0
      m_AllTileFlags: 1073741825
  - first: {x: 0, y: -3, z: 0}
    second:
      serializedVersion: 2
      m_TileIndex: 15
      m_TileSpriteIndex: 15
      m_TileMatrixIndex: 0
      m_TileColorIndex: 0
      m_TileObjectToInstantiateIndex: 65535
      dummyAlignment: 0
      m_AllTileFlags: 1073741825
  - first: {x: 2, y: -3, z: 0}
    second:
      serializedVersion: 2
      m_TileIndex: 16
      m_TileSpriteIndex: 16
      m_TileMatrixIndex: 0
      m_TileColorIndex: 0
      m_TileObjectToInstantiateIndex: 65535
      dummyAlignment: 0
      m_AllTileFlags: 1073741825
  - first: {x: 6, y: -3, z: 0}
    second:
      serializedVersion: 2
      m_TileIndex: 17
      m_TileSpriteIndex: 17
      m_TileMatrixIndex: 0
      m_TileColorIndex: 0
      m_TileObjectToInstantiateIndex: 65535
      dummyAlignment: 0
      m_AllTileFlags: 1073741825
  - first: {x: 7, y: -3, z: 0}
    second:
      serializedVersion: 2
      m_TileIndex: 18
      m_TileSpriteIndex: 18
      m_TileMatrixIndex: 0
      m_TileColorIndex: 0
      m_TileObjectToInstantiateIndex: 65535
      dummyAlignment: 0
      m_AllTileFlags: 1073741825
  - first: {x: 8, y: -3, z: 0}
    second:
      serializedVersion: 2
      m_TileIndex: 19
      m_TileSpriteIndex: 19
      m_TileMatrixIndex: 0
      m_TileColorIndex: 0
      m_TileObjectToInstantiateIndex: 65535
      dummyAlignment: 0
      m_AllTileFlags: 1073741825
  - first: {x: 9, y: -3, z: 0}
    second:
      serializedVersion: 2
      m_TileIndex: 20
      m_TileSpriteIndex: 20
      m_TileMatrixIndex: 0
      m_TileColorIndex: 0
      m_TileObjectToInstantiateIndex: 65535
      dummyAlignment: 0
      m_AllTileFlags: 1073741825
  - first: {x: 11, y: -3, z: 0}
    second:
      serializedVersion: 2
      m_TileIndex: 21
      m_TileSpriteIndex: 21
      m_TileMatrixIndex: 0
      m_TileColorIndex: 0
      m_TileObjectToInstantiateIndex: 65535
      dummyAlignment: 0
      m_AllTileFlags: 1073741825
  - first: {x: 13, y: -3, z: 0}
    second:
      serializedVersion: 2
      m_TileIndex: 22
      m_TileSpriteIndex: 22
      m_TileMatrixIndex: 0
      m_TileColorIndex: 0
      m_TileObjectToInstantiateIndex: 65535
      dummyAlignment: 0
      m_AllTileFlags: 1073741825
  - first: {x: 15, y: -3, z: 0}
    second:
      serializedVersion: 2
      m_TileIndex: 23
      m_TileSpriteIndex: 23
      m_TileMatrixIndex: 0
      m_TileColorIndex: 0
      m_TileObjectToInstantiateIndex: 65535
      dummyAlignment: 0
      m_AllTileFlags: 1073741825
  - first: {x: 17, y: -3, z: 0}
    second:
      serializedVersion: 2
      m_TileIndex: 24
      m_TileSpriteIndex: 24
      m_TileMatrixIndex: 0
      m_TileColorIndex: 0
      m_TileObjectToInstantiateIndex: 65535
      dummyAlignment: 0
      m_AllTileFlags: 1073741825
  - first: {x: 7, y: -2, z: 0}
    second:
      serializedVersion: 2
      m_TileIndex: 9
      m_TileSpriteIndex: 9
      m_TileMatrixIndex: 0
      m_TileColorIndex: 0
      m_TileObjectToInstantiateIndex: 65535
      dummyAlignment: 0
      m_AllTileFlags: 1073741825
  - first: {x: 8, y: -2, z: 0}
    second:
      serializedVersion: 2
      m_TileIndex: 10
      m_TileSpriteIndex: 10
      m_TileMatrixIndex: 0
      m_TileColorIndex: 0
      m_TileObjectToInstantiateIndex: 65535
      dummyAlignment: 0
      m_AllTileFlags: 1073741825
  - first: {x: 11, y: -2, z: 0}
    second:
      serializedVersion: 2
      m_TileIndex: 11
      m_TileSpriteIndex: 11
      m_TileMatrixIndex: 0
      m_TileColorIndex: 0
      m_TileObjectToInstantiateIndex: 65535
      dummyAlignment: 0
      m_AllTileFlags: 1073741825
  - first: {x: 13, y: -2, z: 0}
    second:
      serializedVersion: 2
      m_TileIndex: 12
      m_TileSpriteIndex: 12
      m_TileMatrixIndex: 0
      m_TileColorIndex: 0
      m_TileObjectToInstantiateIndex: 65535
      dummyAlignment: 0
      m_AllTileFlags: 1073741825
  - first: {x: 15, y: -2, z: 0}
    second:
      serializedVersion: 2
      m_TileIndex: 13
      m_TileSpriteIndex: 13
      m_TileMatrixIndex: 0
      m_TileColorIndex: 0
      m_TileObjectToInstantiateIndex: 65535
      dummyAlignment: 0
      m_AllTileFlags: 1073741825
  - first: {x: 17, y: -2, z: 0}
    second:
      serializedVersion: 2
      m_TileIndex: 14
      m_TileSpriteIndex: 14
      m_TileMatrixIndex: 0
      m_TileColorIndex: 0
      m_TileObjectToInstantiateIndex: 65535
      dummyAlignment: 0
      m_AllTileFlags: 1073741825
  - first: {x: 2, y: -1, z: 0}
    second:
      serializedVersion: 2
      m_TileIndex: 8
      m_TileSpriteIndex: 8
      m_TileMatrixIndex: 0
      m_TileColorIndex: 0
      m_TileObjectToInstantiateIndex: 65535
      dummyAlignment: 0
      m_AllTileFlags: 1073741825
  - first: {x: 0, y: 0, z: 0}
    second:
      serializedVersion: 2
      m_TileIndex: 0
      m_TileSpriteIndex: 0
      m_TileMatrixIndex: 0
      m_TileColorIndex: 0
      m_TileObjectToInstantiateIndex: 65535
      dummyAlignment: 0
      m_AllTileFlags: 1073741825
  - first: {x: 2, y: 0, z: 0}
    second:
      serializedVersion: 2
      m_TileIndex: 1
      m_TileSpriteIndex: 1
      m_TileMatrixIndex: 0
      m_TileColorIndex: 0
      m_TileObjectToInstantiateIndex: 65535
      dummyAlignment: 0
      m_AllTileFlags: 1073741825
  - first: {x: 3, y: 0, z: 0}
    second:
      serializedVersion: 2
      m_TileIndex: 2
      m_TileSpriteIndex: 2
      m_TileMatrixIndex: 0
      m_TileColorIndex: 0
      m_TileObjectToInstantiateIndex: 65535
      dummyAlignment: 0
      m_AllTileFlags: 1073741825
  - first: {x: 4, y: 0, z: 0}
    second:
      serializedVersion: 2
      m_TileIndex: 3
      m_TileSpriteIndex: 3
      m_TileMatrixIndex: 0
      m_TileColorIndex: 0
      m_TileObjectToInstantiateIndex: 65535
      dummyAlignment: 0
      m_AllTileFlags: 1073741825
  - first: {x: 5, y: 0, z: 0}
    second:
      serializedVersion: 2
      m_TileIndex: 4
      m_TileSpriteIndex: 4
      m_TileMatrixIndex: 0
      m_TileColorIndex: 0
      m_TileObjectToInstantiateIndex: 65535
      dummyAlignment: 0
      m_AllTileFlags: 1073741825
  - first: {x: 7, y: 0, z: 0}
    second:
      serializedVersion: 2
      m_TileIndex: 5
      m_TileSpriteIndex: 5
      m_TileMatrixIndex: 0
      m_TileColorIndex: 0
      m_TileObjectToInstantiateIndex: 65535
      dummyAlignment: 0
      m_AllTileFlags: 1073741825
  - first: {x: 9, y: 0, z: 0}
    second:
      serializedVersion: 2
      m_TileIndex: 6
      m_TileSpriteIndex: 6
      m_TileMatrixIndex: 0
      m_TileColorIndex: 0
      m_TileObjectToInstantiateIndex: 65535
      dummyAlignment: 0
      m_AllTileFlags: 1073741825
  - first: {x: 11, y: 0, z: 0}
    second:
      serializedVersion: 2
      m_TileIndex: 7
      m_TileSpriteIndex: 7
      m_TileMatrixIndex: 0
      m_TileColorIndex: 0
      m_TileObjectToInstantiateIndex: 65535
      dummyAlignment: 0
      m_AllTileFlags: 1073741825
  m_AnimatedTiles: {}
  m_TileAssetArray:
  - m_RefCount: 1
    m_Data: {fileID: 11400000, guid: 3c5981a5658886f4da8b5f99026b5cf0, type: 2}
  - m_RefCount: 1
    m_Data: {fileID: 11400000, guid: d67d1d613b050b64895f768bd4c07e59, type: 2}
  - m_RefCount: 1
    m_Data: {fileID: 11400000, guid: b880f76d8ea054e43b2dc477bc2ec4e7, type: 2}
  - m_RefCount: 1
    m_Data: {fileID: 11400000, guid: 8d3f0063834e1b742a11daf048ca2cf2, type: 2}
  - m_RefCount: 1
    m_Data: {fileID: 11400000, guid: 98a2f0685e6427a4dbb7846653af4e7c, type: 2}
  - m_RefCount: 1
    m_Data: {fileID: 11400000, guid: 45c72b165d141f14c9a05eb1ea2830fa, type: 2}
  - m_RefCount: 1
    m_Data: {fileID: 11400000, guid: ebfa1efc4e020f045b307db5617bd7d3, type: 2}
  - m_RefCount: 1
    m_Data: {fileID: 11400000, guid: 4b5b42054dfca434c8699d8676481a19, type: 2}
  - m_RefCount: 1
    m_Data: {fileID: 11400000, guid: a1fe87d0d84d8ce448c2c0b2ef2fd923, type: 2}
  - m_RefCount: 1
    m_Data: {fileID: 11400000, guid: 3949465143ca51549b0b1c773175ce10, type: 2}
  - m_RefCount: 1
    m_Data: {fileID: 11400000, guid: b6e3217a5284dde4fb07a16307a07237, type: 2}
  - m_RefCount: 1
    m_Data: {fileID: 11400000, guid: e025deb415a9a364f8f5e770ff36ad46, type: 2}
  - m_RefCount: 1
    m_Data: {fileID: 11400000, guid: e0165ac8d68918241bd24b285536d675, type: 2}
  - m_RefCount: 1
    m_Data: {fileID: 11400000, guid: 4ff2af0ac9ad0034aa53b64d8705aacc, type: 2}
  - m_RefCount: 1
    m_Data: {fileID: 11400000, guid: ad67d69e8c60bad419c2ce663be97b85, type: 2}
  - m_RefCount: 1
    m_Data: {fileID: 11400000, guid: 7871dc361b912784f9c1b6fbf6c1dc43, type: 2}
  - m_RefCount: 1
    m_Data: {fileID: 11400000, guid: b6134a4b33b1007428ad4d24269d74c9, type: 2}
  - m_RefCount: 1
    m_Data: {fileID: 11400000, guid: af4cbcbb636f529418f59a52aa0c6ef1, type: 2}
  - m_RefCount: 1
    m_Data: {fileID: 11400000, guid: 421d3228d45367d488daba09298911b5, type: 2}
  - m_RefCount: 1
    m_Data: {fileID: 11400000, guid: 9f5439d93158ddf4c80d54448f212ad5, type: 2}
  - m_RefCount: 1
    m_Data: {fileID: 11400000, guid: 4a9f18c9a5513a2449584c683e53886e, type: 2}
  - m_RefCount: 1
    m_Data: {fileID: 11400000, guid: c6174e7acffc955429479a37344a381d, type: 2}
  - m_RefCount: 1
    m_Data: {fileID: 11400000, guid: 7fafad8605a0b434eaccf45281a07a8a, type: 2}
  - m_RefCount: 1
    m_Data: {fileID: 11400000, guid: d728edca37629e048b6cf7c649750069, type: 2}
  - m_RefCount: 1
    m_Data: {fileID: 11400000, guid: 2a208040e76a17b46814d64be2654c97, type: 2}
  - m_RefCount: 1
    m_Data: {fileID: 11400000, guid: dcc38e99e2fda9c4998f9258b58f5869, type: 2}
  - m_RefCount: 1
    m_Data: {fileID: 11400000, guid: 4acb90852ee4a4b40b27bfd15ada0257, type: 2}
  - m_RefCount: 1
    m_Data: {fileID: 11400000, guid: 411deee8580b8d1448511aeb0576122f, type: 2}
  - m_RefCount: 1
    m_Data: {fileID: 11400000, guid: 30c32c0b6d7ee614180f889f3b76612a, type: 2}
  - m_RefCount: 1
    m_Data: {fileID: 11400000, guid: 60aac74222f0ef44b8dc6d5faa22f3c7, type: 2}
  - m_RefCount: 1
    m_Data: {fileID: 11400000, guid: b4c593ed74f84c54bbdf7fcee46b9a6e, type: 2}
  - m_RefCount: 1
    m_Data: {fileID: 11400000, guid: 325a930649c485c418b2cc98a7f59fc1, type: 2}
  - m_RefCount: 1
    m_Data: {fileID: 11400000, guid: 06fee1fd6aed6c64ca2b64ea888ac7a5, type: 2}
  - m_RefCount: 1
    m_Data: {fileID: 11400000, guid: 3792f4790549eb845b500d6c4185a0bf, type: 2}
  - m_RefCount: 1
    m_Data: {fileID: 11400000, guid: a11c17346feb9b043bdcd4a21e6a1d70, type: 2}
  - m_RefCount: 1
    m_Data: {fileID: 11400000, guid: 3e928558c47bcb34d9e10fd7befbe06c, type: 2}
  - m_RefCount: 1
    m_Data: {fileID: 11400000, guid: 0cf14208dc2e9b1408ca4e77a99285b3, type: 2}
  - m_RefCount: 1
    m_Data: {fileID: 11400000, guid: 406ec9bd4b62386498e41857edbec256, type: 2}
  - m_RefCount: 1
    m_Data: {fileID: 11400000, guid: 5442421e33a8c124588bd0d9002217dd, type: 2}
  - m_RefCount: 1
    m_Data: {fileID: 11400000, guid: 526c4cee39e261a4dbd38bd70a5574c1, type: 2}
  - m_RefCount: 1
    m_Data: {fileID: 11400000, guid: c317d28cfaf86dd4592a79ffabe3ab48, type: 2}
  - m_RefCount: 1
    m_Data: {fileID: 11400000, guid: 79236a966b17e064d9e33b04862fd849, type: 2}
  - m_RefCount: 1
    m_Data: {fileID: 11400000, guid: ccdcb3ee8c3a3a048b917e7b3c0b7dd6, type: 2}
  - m_RefCount: 1
    m_Data: {fileID: 11400000, guid: 3670aa9d911389248844c4d0190d5261, type: 2}
  - m_RefCount: 1
    m_Data: {fileID: 11400000, guid: cbefa3a43c9462745bdcde96939feb24, type: 2}
  - m_RefCount: 1
    m_Data: {fileID: 11400000, guid: b3af93025ed727a45afb03415d9c6d50, type: 2}
  - m_RefCount: 1
    m_Data: {fileID: 11400000, guid: c9ea4f1d980fc9846bffcd5f3c00571b, type: 2}
  - m_RefCount: 1
    m_Data: {fileID: 11400000, guid: b5e368da4391c644f9c3d30ea0f8703a, type: 2}
  - m_RefCount: 1
    m_Data: {fileID: 11400000, guid: b8ea5a24a0467ce4194eb6a161c1e272, type: 2}
  - m_RefCount: 1
    m_Data: {fileID: 11400000, guid: 379c04239ee804b4fb2141453bc4c103, type: 2}
  - m_RefCount: 1
    m_Data: {fileID: 11400000, guid: 71cb76b8aced10c4f8f341c4ccefa1c6, type: 2}
  - m_RefCount: 1
    m_Data: {fileID: 11400000, guid: 7ec7bf3c878b7e34e9e66cec0c38f2c8, type: 2}
  - m_RefCount: 1
    m_Data: {fileID: 11400000, guid: d0647edf218b809498aad518815b1b53, type: 2}
  - m_RefCount: 1
    m_Data: {fileID: 11400000, guid: 09beab4b3286c5d46aac6f9d500791d9, type: 2}
  - m_RefCount: 1
    m_Data: {fileID: 11400000, guid: dbe2019fd52820c4e9aa256e9c92eb5c, type: 2}
  - m_RefCount: 1
    m_Data: {fileID: 11400000, guid: 8a2d831e6c56d414692e165aaa95d063, type: 2}
  - m_RefCount: 1
    m_Data: {fileID: 11400000, guid: 0e1af5114d1d33d4291e9f2641be58d6, type: 2}
  - m_RefCount: 1
    m_Data: {fileID: 11400000, guid: 27d2f8e1cd7693d4bbbb7487ae1b55d7, type: 2}
  - m_RefCount: 1
    m_Data: {fileID: 11400000, guid: 520b89ab9b3bf8f48965444797515f35, type: 2}
  - m_RefCount: 1
    m_Data: {fileID: 11400000, guid: bdc867959d86bec498433b286121da22, type: 2}
  - m_RefCount: 1
    m_Data: {fileID: 11400000, guid: fb170850eac0a8e47b7f8efcf16f8d39, type: 2}
  - m_RefCount: 1
    m_Data: {fileID: 11400000, guid: 8737c887eb445ac4dbf6f86fddbf7752, type: 2}
  - m_RefCount: 1
    m_Data: {fileID: 11400000, guid: 842d6aefae0bcd74d960a5b7176fb4b5, type: 2}
  - m_RefCount: 1
    m_Data: {fileID: 11400000, guid: c26e0ef4f074ab043b262061bb756ef5, type: 2}
  - m_RefCount: 1
    m_Data: {fileID: 11400000, guid: d3d2882d100b7bc4abd069edb4595e31, type: 2}
  - m_RefCount: 1
    m_Data: {fileID: 11400000, guid: f5f95dbf8dba70241aea01ba462669ea, type: 2}
  - m_RefCount: 1
    m_Data: {fileID: 11400000, guid: b08ad7374f3a3984bae49352255715bd, type: 2}
  - m_RefCount: 1
    m_Data: {fileID: 11400000, guid: 7a65a1bff495d214e8ccf88cc3966743, type: 2}
  - m_RefCount: 1
    m_Data: {fileID: 11400000, guid: 773022962fa9a8f4e9ee189f5473557a, type: 2}
  - m_RefCount: 1
    m_Data: {fileID: 11400000, guid: 93b1e98b63d9a2a48a33cee39bf53933, type: 2}
  - m_RefCount: 1
    m_Data: {fileID: 11400000, guid: f13cc6f73b37e244185f835fa1a5dbbe, type: 2}
  - m_RefCount: 1
    m_Data: {fileID: 11400000, guid: ed9252bb0fb131d429ff8aaedcb7e917, type: 2}
  - m_RefCount: 1
    m_Data: {fileID: 11400000, guid: 7a930e7a658fbf44f9668b8be73c1e08, type: 2}
  - m_RefCount: 1
    m_Data: {fileID: 11400000, guid: 0ed1e0c7f4de78e4281455cea680ecd1, type: 2}
  - m_RefCount: 1
    m_Data: {fileID: 11400000, guid: c638d1c382da3774eac907d64cd9165a, type: 2}
  - m_RefCount: 1
    m_Data: {fileID: 11400000, guid: 066c2b398c3a01d4b90ef4a8280bc5b6, type: 2}
  - m_RefCount: 1
    m_Data: {fileID: 11400000, guid: 85fec693fe733914bb7c8943d78fd62a, type: 2}
  - m_RefCount: 1
    m_Data: {fileID: 11400000, guid: ece0f02283eb5044eadf2fc13e38269c, type: 2}
  - m_RefCount: 1
    m_Data: {fileID: 11400000, guid: cdea5e69af70f0949838f6209fc1a5f7, type: 2}
  - m_RefCount: 1
    m_Data: {fileID: 11400000, guid: 4ccbb4db57ce7844d86f8b29268895e2, type: 2}
  - m_RefCount: 1
    m_Data: {fileID: 11400000, guid: b90a8541467965b4e9236bc5a87d16d2, type: 2}
  - m_RefCount: 1
    m_Data: {fileID: 11400000, guid: 2e0cb6774b0746047b4022c8dd659b04, type: 2}
  - m_RefCount: 1
    m_Data: {fileID: 11400000, guid: d0c89fc00ee44df4e9da32e9aa95bcc0, type: 2}
  - m_RefCount: 1
    m_Data: {fileID: 11400000, guid: 7c538c879de8aca418815cf9e3a56924, type: 2}
  - m_RefCount: 1
    m_Data: {fileID: 11400000, guid: 4c1896298ba8a0a42ac741b4e042869c, type: 2}
  - m_RefCount: 1
    m_Data: {fileID: 11400000, guid: c6d8612a3e475fa40abb13658a53e5f2, type: 2}
  - m_RefCount: 1
    m_Data: {fileID: 11400000, guid: d727c657427920247be979d1166bbb61, type: 2}
  - m_RefCount: 1
    m_Data: {fileID: 11400000, guid: 3bc3836f536f15f449b0546c62f0d21d, type: 2}
  - m_RefCount: 1
    m_Data: {fileID: 11400000, guid: c5c7b5f6b77533949987c2e2a95e2bfb, type: 2}
  - m_RefCount: 1
    m_Data: {fileID: 11400000, guid: bf3914acdb322074faf1eaa446810598, type: 2}
  - m_RefCount: 1
    m_Data: {fileID: 11400000, guid: be42cf18ff2495940b0e131f667ca927, type: 2}
  - m_RefCount: 1
    m_Data: {fileID: 11400000, guid: bb3858b431ab1414597c446aa3018f75, type: 2}
  - m_RefCount: 1
    m_Data: {fileID: 11400000, guid: d6547ae1beedc2142871a06630d6c37b, type: 2}
  - m_RefCount: 1
    m_Data: {fileID: 11400000, guid: 0f91ecb514f30b540a900e1136a99532, type: 2}
  - m_RefCount: 1
    m_Data: {fileID: 11400000, guid: b1aa766366f431a4daf06fbb85d9ce8c, type: 2}
  - m_RefCount: 1
    m_Data: {fileID: 11400000, guid: e45bd22d8deecdd4994311791c0b4b5f, type: 2}
  - m_RefCount: 1
    m_Data: {fileID: 11400000, guid: 7a11c930de98cd247804aad591f56212, type: 2}
  - m_RefCount: 1
    m_Data: {fileID: 11400000, guid: 2e4cd095344cfd04d9cd7a838d7b3ca9, type: 2}
  - m_RefCount: 1
    m_Data: {fileID: 11400000, guid: 11f6de02c1b04a14e8cda84a5e1c24e1, type: 2}
  - m_RefCount: 1
    m_Data: {fileID: 11400000, guid: ff1ef4937ef5eb7458c14c8403369662, type: 2}
  - m_RefCount: 1
    m_Data: {fileID: 11400000, guid: 67fb91445a73bb643945bdf4961d3edc, type: 2}
  - m_RefCount: 1
    m_Data: {fileID: 11400000, guid: 8f0ca3c384eed134da6c1dee9f1e3cf3, type: 2}
  - m_RefCount: 1
    m_Data: {fileID: 11400000, guid: fe8873dc86952a7418855a2111220563, type: 2}
  - m_RefCount: 1
    m_Data: {fileID: 11400000, guid: 520f4b1a728d1f34bbe262c217d56c7c, type: 2}
  - m_RefCount: 1
    m_Data: {fileID: 11400000, guid: 77e4da956dbd4904aa6bfc60fad0cdb3, type: 2}
  - m_RefCount: 1
    m_Data: {fileID: 11400000, guid: f271282436650b74584b4dff3493727a, type: 2}
  - m_RefCount: 1
    m_Data: {fileID: 11400000, guid: a7c8fc1d1aef46f409d26f9622c7b3da, type: 2}
  - m_RefCount: 1
    m_Data: {fileID: 11400000, guid: 53e72df1ccadcab4e81cd0b3356845ab, type: 2}
  - m_RefCount: 1
    m_Data: {fileID: 11400000, guid: 457f9dca51afa7e4d8bffcfed0d28b5a, type: 2}
  m_TileSpriteArray:
  - m_RefCount: 1
    m_Data: {fileID: 21300000, guid: 2eeb0d4e8888f48459040781a511455e, type: 3}
  - m_RefCount: 1
    m_Data: {fileID: 21300002, guid: 2eeb0d4e8888f48459040781a511455e, type: 3}
  - m_RefCount: 1
    m_Data: {fileID: 21300004, guid: 2eeb0d4e8888f48459040781a511455e, type: 3}
  - m_RefCount: 1
    m_Data: {fileID: 21300006, guid: 2eeb0d4e8888f48459040781a511455e, type: 3}
  - m_RefCount: 1
    m_Data: {fileID: 21300008, guid: 2eeb0d4e8888f48459040781a511455e, type: 3}
  - m_RefCount: 1
    m_Data: {fileID: 21300010, guid: 2eeb0d4e8888f48459040781a511455e, type: 3}
  - m_RefCount: 1
    m_Data: {fileID: 21300012, guid: 2eeb0d4e8888f48459040781a511455e, type: 3}
  - m_RefCount: 1
    m_Data: {fileID: 21300014, guid: 2eeb0d4e8888f48459040781a511455e, type: 3}
  - m_RefCount: 1
    m_Data: {fileID: 21300016, guid: 2eeb0d4e8888f48459040781a511455e, type: 3}
  - m_RefCount: 1
    m_Data: {fileID: 21300018, guid: 2eeb0d4e8888f48459040781a511455e, type: 3}
  - m_RefCount: 1
    m_Data: {fileID: 21300020, guid: 2eeb0d4e8888f48459040781a511455e, type: 3}
  - m_RefCount: 1
    m_Data: {fileID: 21300022, guid: 2eeb0d4e8888f48459040781a511455e, type: 3}
  - m_RefCount: 1
    m_Data: {fileID: 21300024, guid: 2eeb0d4e8888f48459040781a511455e, type: 3}
  - m_RefCount: 1
    m_Data: {fileID: 21300026, guid: 2eeb0d4e8888f48459040781a511455e, type: 3}
  - m_RefCount: 1
    m_Data: {fileID: 21300028, guid: 2eeb0d4e8888f48459040781a511455e, type: 3}
  - m_RefCount: 1
    m_Data: {fileID: 21300030, guid: 2eeb0d4e8888f48459040781a511455e, type: 3}
  - m_RefCount: 1
    m_Data: {fileID: 21300032, guid: 2eeb0d4e8888f48459040781a511455e, type: 3}
  - m_RefCount: 1
    m_Data: {fileID: 21300034, guid: 2eeb0d4e8888f48459040781a511455e, type: 3}
  - m_RefCount: 1
    m_Data: {fileID: 21300036, guid: 2eeb0d4e8888f48459040781a511455e, type: 3}
  - m_RefCount: 1
    m_Data: {fileID: 21300038, guid: 2eeb0d4e8888f48459040781a511455e, type: 3}
  - m_RefCount: 1
    m_Data: {fileID: 21300040, guid: 2eeb0d4e8888f48459040781a511455e, type: 3}
  - m_RefCount: 1
    m_Data: {fileID: 21300042, guid: 2eeb0d4e8888f48459040781a511455e, type: 3}
  - m_RefCount: 1
    m_Data: {fileID: 21300044, guid: 2eeb0d4e8888f48459040781a511455e, type: 3}
  - m_RefCount: 1
    m_Data: {fileID: 21300046, guid: 2eeb0d4e8888f48459040781a511455e, type: 3}
  - m_RefCount: 1
    m_Data: {fileID: 21300048, guid: 2eeb0d4e8888f48459040781a511455e, type: 3}
  - m_RefCount: 1
    m_Data: {fileID: 21300050, guid: 2eeb0d4e8888f48459040781a511455e, type: 3}
  - m_RefCount: 1
    m_Data: {fileID: 21300052, guid: 2eeb0d4e8888f48459040781a511455e, type: 3}
  - m_RefCount: 1
    m_Data: {fileID: 21300054, guid: 2eeb0d4e8888f48459040781a511455e, type: 3}
  - m_RefCount: 1
    m_Data: {fileID: 21300056, guid: 2eeb0d4e8888f48459040781a511455e, type: 3}
  - m_RefCount: 1
    m_Data: {fileID: 21300058, guid: 2eeb0d4e8888f48459040781a511455e, type: 3}
  - m_RefCount: 1
    m_Data: {fileID: 21300060, guid: 2eeb0d4e8888f48459040781a511455e, type: 3}
  - m_RefCount: 1
    m_Data: {fileID: 21300062, guid: 2eeb0d4e8888f48459040781a511455e, type: 3}
  - m_RefCount: 1
    m_Data: {fileID: 21300064, guid: 2eeb0d4e8888f48459040781a511455e, type: 3}
  - m_RefCount: 1
    m_Data: {fileID: 21300066, guid: 2eeb0d4e8888f48459040781a511455e, type: 3}
  - m_RefCount: 1
    m_Data: {fileID: 21300068, guid: 2eeb0d4e8888f48459040781a511455e, type: 3}
  - m_RefCount: 1
    m_Data: {fileID: 21300070, guid: 2eeb0d4e8888f48459040781a511455e, type: 3}
  - m_RefCount: 1
    m_Data: {fileID: 21300072, guid: 2eeb0d4e8888f48459040781a511455e, type: 3}
  - m_RefCount: 1
    m_Data: {fileID: 21300074, guid: 2eeb0d4e8888f48459040781a511455e, type: 3}
  - m_RefCount: 1
    m_Data: {fileID: 21300076, guid: 2eeb0d4e8888f48459040781a511455e, type: 3}
  - m_RefCount: 1
    m_Data: {fileID: 21300078, guid: 2eeb0d4e8888f48459040781a511455e, type: 3}
  - m_RefCount: 1
    m_Data: {fileID: 21300080, guid: 2eeb0d4e8888f48459040781a511455e, type: 3}
  - m_RefCount: 1
    m_Data: {fileID: 21300082, guid: 2eeb0d4e8888f48459040781a511455e, type: 3}
  - m_RefCount: 1
    m_Data: {fileID: 21300084, guid: 2eeb0d4e8888f48459040781a511455e, type: 3}
  - m_RefCount: 1
    m_Data: {fileID: 21300086, guid: 2eeb0d4e8888f48459040781a511455e, type: 3}
  - m_RefCount: 1
    m_Data: {fileID: 21300088, guid: 2eeb0d4e8888f48459040781a511455e, type: 3}
  - m_RefCount: 1
    m_Data: {fileID: 21300090, guid: 2eeb0d4e8888f48459040781a511455e, type: 3}
  - m_RefCount: 1
    m_Data: {fileID: 21300092, guid: 2eeb0d4e8888f48459040781a511455e, type: 3}
  - m_RefCount: 1
    m_Data: {fileID: 21300094, guid: 2eeb0d4e8888f48459040781a511455e, type: 3}
  - m_RefCount: 1
    m_Data: {fileID: 21300096, guid: 2eeb0d4e8888f48459040781a511455e, type: 3}
  - m_RefCount: 1
    m_Data: {fileID: 21300098, guid: 2eeb0d4e8888f48459040781a511455e, type: 3}
  - m_RefCount: 1
    m_Data: {fileID: 21300100, guid: 2eeb0d4e8888f48459040781a511455e, type: 3}
  - m_RefCount: 1
    m_Data: {fileID: 21300102, guid: 2eeb0d4e8888f48459040781a511455e, type: 3}
  - m_RefCount: 1
    m_Data: {fileID: 21300104, guid: 2eeb0d4e8888f48459040781a511455e, type: 3}
  - m_RefCount: 1
    m_Data: {fileID: 21300106, guid: 2eeb0d4e8888f48459040781a511455e, type: 3}
  - m_RefCount: 1
    m_Data: {fileID: 21300108, guid: 2eeb0d4e8888f48459040781a511455e, type: 3}
  - m_RefCount: 1
    m_Data: {fileID: 21300110, guid: 2eeb0d4e8888f48459040781a511455e, type: 3}
  - m_RefCount: 1
    m_Data: {fileID: 21300112, guid: 2eeb0d4e8888f48459040781a511455e, type: 3}
  - m_RefCount: 1
    m_Data: {fileID: 21300114, guid: 2eeb0d4e8888f48459040781a511455e, type: 3}
  - m_RefCount: 1
    m_Data: {fileID: 21300116, guid: 2eeb0d4e8888f48459040781a511455e, type: 3}
  - m_RefCount: 1
    m_Data: {fileID: 21300118, guid: 2eeb0d4e8888f48459040781a511455e, type: 3}
  - m_RefCount: 1
    m_Data: {fileID: 21300120, guid: 2eeb0d4e8888f48459040781a511455e, type: 3}
  - m_RefCount: 1
    m_Data: {fileID: 21300122, guid: 2eeb0d4e8888f48459040781a511455e, type: 3}
  - m_RefCount: 1
    m_Data: {fileID: 21300124, guid: 2eeb0d4e8888f48459040781a511455e, type: 3}
  - m_RefCount: 1
    m_Data: {fileID: 21300126, guid: 2eeb0d4e8888f48459040781a511455e, type: 3}
  - m_RefCount: 1
    m_Data: {fileID: 21300128, guid: 2eeb0d4e8888f48459040781a511455e, type: 3}
  - m_RefCount: 1
    m_Data: {fileID: 21300130, guid: 2eeb0d4e8888f48459040781a511455e, type: 3}
  - m_RefCount: 1
    m_Data: {fileID: 21300132, guid: 2eeb0d4e8888f48459040781a511455e, type: 3}
  - m_RefCount: 1
    m_Data: {fileID: 21300134, guid: 2eeb0d4e8888f48459040781a511455e, type: 3}
  - m_RefCount: 1
    m_Data: {fileID: 21300136, guid: 2eeb0d4e8888f48459040781a511455e, type: 3}
  - m_RefCount: 1
    m_Data: {fileID: 21300138, guid: 2eeb0d4e8888f48459040781a511455e, type: 3}
  - m_RefCount: 1
    m_Data: {fileID: 21300140, guid: 2eeb0d4e8888f48459040781a511455e, type: 3}
  - m_RefCount: 1
    m_Data: {fileID: 21300142, guid: 2eeb0d4e8888f48459040781a511455e, type: 3}
  - m_RefCount: 1
    m_Data: {fileID: 21300144, guid: 2eeb0d4e8888f48459040781a511455e, type: 3}
  - m_RefCount: 1
    m_Data: {fileID: 21300146, guid: 2eeb0d4e8888f48459040781a511455e, type: 3}
  - m_RefCount: 1
    m_Data: {fileID: 21300148, guid: 2eeb0d4e8888f48459040781a511455e, type: 3}
  - m_RefCount: 1
    m_Data: {fileID: 21300150, guid: 2eeb0d4e8888f48459040781a511455e, type: 3}
  - m_RefCount: 1
    m_Data: {fileID: 21300152, guid: 2eeb0d4e8888f48459040781a511455e, type: 3}
  - m_RefCount: 1
    m_Data: {fileID: 21300154, guid: 2eeb0d4e8888f48459040781a511455e, type: 3}
  - m_RefCount: 1
    m_Data: {fileID: 21300156, guid: 2eeb0d4e8888f48459040781a511455e, type: 3}
  - m_RefCount: 1
    m_Data: {fileID: 21300158, guid: 2eeb0d4e8888f48459040781a511455e, type: 3}
  - m_RefCount: 1
    m_Data: {fileID: 21300160, guid: 2eeb0d4e8888f48459040781a511455e, type: 3}
  - m_RefCount: 1
    m_Data: {fileID: 21300162, guid: 2eeb0d4e8888f48459040781a511455e, type: 3}
  - m_RefCount: 1
    m_Data: {fileID: 21300164, guid: 2eeb0d4e8888f48459040781a511455e, type: 3}
  - m_RefCount: 1
    m_Data: {fileID: 21300166, guid: 2eeb0d4e8888f48459040781a511455e, type: 3}
  - m_RefCount: 1
    m_Data: {fileID: 21300168, guid: 2eeb0d4e8888f48459040781a511455e, type: 3}
  - m_RefCount: 1
    m_Data: {fileID: 21300170, guid: 2eeb0d4e8888f48459040781a511455e, type: 3}
  - m_RefCount: 1
    m_Data: {fileID: 21300172, guid: 2eeb0d4e8888f48459040781a511455e, type: 3}
  - m_RefCount: 1
    m_Data: {fileID: 21300174, guid: 2eeb0d4e8888f48459040781a511455e, type: 3}
  - m_RefCount: 1
    m_Data: {fileID: 21300176, guid: 2eeb0d4e8888f48459040781a511455e, type: 3}
  - m_RefCount: 1
    m_Data: {fileID: 21300178, guid: 2eeb0d4e8888f48459040781a511455e, type: 3}
  - m_RefCount: 1
    m_Data: {fileID: 21300180, guid: 2eeb0d4e8888f48459040781a511455e, type: 3}
  - m_RefCount: 1
    m_Data: {fileID: 21300182, guid: 2eeb0d4e8888f48459040781a511455e, type: 3}
  - m_RefCount: 1
    m_Data: {fileID: 21300184, guid: 2eeb0d4e8888f48459040781a511455e, type: 3}
  - m_RefCount: 1
    m_Data: {fileID: 21300186, guid: 2eeb0d4e8888f48459040781a511455e, type: 3}
  - m_RefCount: 1
    m_Data: {fileID: 21300188, guid: 2eeb0d4e8888f48459040781a511455e, type: 3}
  - m_RefCount: 1
    m_Data: {fileID: 21300190, guid: 2eeb0d4e8888f48459040781a511455e, type: 3}
  - m_RefCount: 1
    m_Data: {fileID: 21300192, guid: 2eeb0d4e8888f48459040781a511455e, type: 3}
  - m_RefCount: 1
    m_Data: {fileID: 21300194, guid: 2eeb0d4e8888f48459040781a511455e, type: 3}
  - m_RefCount: 1
    m_Data: {fileID: 21300196, guid: 2eeb0d4e8888f48459040781a511455e, type: 3}
  - m_RefCount: 1
    m_Data: {fileID: 21300198, guid: 2eeb0d4e8888f48459040781a511455e, type: 3}
  - m_RefCount: 1
    m_Data: {fileID: 21300200, guid: 2eeb0d4e8888f48459040781a511455e, type: 3}
  - m_RefCount: 1
    m_Data: {fileID: 21300202, guid: 2eeb0d4e8888f48459040781a511455e, type: 3}
  - m_RefCount: 1
    m_Data: {fileID: 21300204, guid: 2eeb0d4e8888f48459040781a511455e, type: 3}
  - m_RefCount: 1
    m_Data: {fileID: 21300206, guid: 2eeb0d4e8888f48459040781a511455e, type: 3}
  - m_RefCount: 1
    m_Data: {fileID: 21300208, guid: 2eeb0d4e8888f48459040781a511455e, type: 3}
  - m_RefCount: 1
    m_Data: {fileID: 21300210, guid: 2eeb0d4e8888f48459040781a511455e, type: 3}
  - m_RefCount: 1
    m_Data: {fileID: 21300212, guid: 2eeb0d4e8888f48459040781a511455e, type: 3}
  - m_RefCount: 1
    m_Data: {fileID: 21300214, guid: 2eeb0d4e8888f48459040781a511455e, type: 3}
  - m_RefCount: 1
    m_Data: {fileID: 21300216, guid: 2eeb0d4e8888f48459040781a511455e, type: 3}
  m_TileMatrixArray:
  - m_RefCount: 109
    m_Data:
      e00: 1
      e01: 0
      e02: 0
      e03: 0
      e10: 0
      e11: 1
      e12: 0
      e13: 0
      e20: 0
      e21: 0
      e22: 1
      e23: 0
      e30: 0
      e31: 0
      e32: 0
      e33: 1
  m_TileColorArray:
  - m_RefCount: 109
    m_Data: {r: 1, g: 1, b: 1, a: 1}
  m_TileObjectToInstantiateArray: []
  m_AnimationFrameRate: 1
  m_Color: {r: 1, g: 1, b: 1, a: 1}
  m_Origin: {x: -1, y: -11, z: 0}
  m_Size: {x: 20, y: 12, z: 1}
  m_TileAnchor: {x: 0.5, y: 0.5, z: 0}
  m_TileOrientation: 0
  m_TileOrientationMatrix:
    e00: 1
    e01: 0
    e02: 0
    e03: 0
    e10: 0
    e11: 1
    e12: 0
    e13: 0
    e20: 0
    e21: 0
    e22: 1
    e23: 0
    e30: 0
    e31: 0
    e32: 0
    e33: 1
--- !u!483693784 &5172572331761047412
TilemapRenderer:
  m_ObjectHideFlags: 0
  m_CorrespondingSourceObject: {fileID: 0}
  m_PrefabInstance: {fileID: 0}
  m_PrefabAsset: {fileID: 0}
  m_GameObject: {fileID: 5285948780988905317}
  m_Enabled: 1
  m_CastShadows: 0
  m_ReceiveShadows: 0
  m_DynamicOccludee: 0
  m_MotionVectors: 1
  m_LightProbeUsage: 0
  m_ReflectionProbeUsage: 0
  m_RayTracingMode: 0
  m_RayTraceProcedural: 0
  m_RenderingLayerMask: 1
  m_RendererPriority: 0
  m_Materials:
  - {fileID: 2100000, guid: a97c105638bdf8b4a8650670310a4cd3, type: 2}
  m_StaticBatchInfo:
    firstSubMesh: 0
    subMeshCount: 0
  m_StaticBatchRoot: {fileID: 0}
  m_ProbeAnchor: {fileID: 0}
  m_LightProbeVolumeOverride: {fileID: 0}
  m_ScaleInLightmap: 1
  m_ReceiveGI: 1
  m_PreserveUVs: 0
  m_IgnoreNormalsForChartDetection: 0
  m_ImportantGI: 0
  m_StitchLightmapSeams: 1
  m_SelectedEditorRenderState: 0
  m_MinimumChartSize: 4
  m_AutoUVMaxDistance: 0.5
  m_AutoUVMaxAngle: 89
  m_LightmapParameters: {fileID: 0}
  m_SortingLayerID: 0
  m_SortingLayer: 0
  m_SortingOrder: 0
  m_ChunkSize: {x: 32, y: 32, z: 32}
  m_ChunkCullingBounds: {x: 0, y: 0, z: 0}
  m_MaxChunkCount: 16
  m_MaxFrameAge: 16
  m_SortOrder: 0
  m_Mode: 0
  m_DetectChunkCullingBounds: 0
  m_MaskInteraction: 0
--- !u!114 &6019087973116460398
MonoBehaviour:
  m_ObjectHideFlags: 0
  m_CorrespondingSourceObject: {fileID: 0}
  m_PrefabInstance: {fileID: 0}
  m_PrefabAsset: {fileID: 0}
  m_GameObject: {fileID: 0}
  m_Enabled: 1
  m_EditorHideFlags: 0
  m_Script: {fileID: 12395, guid: 0000000000000000e000000000000000, type: 0}
  m_Name: Palette Settings
  m_EditorClassIdentifier: 
  cellSizing: 0
  m_TransparencySortMode: 0
  m_TransparencySortAxis: {x: 0, y: 0, z: 1}
