%YAML 1.1
%TAG !u! tag:unity3d.com,2011:
--- !u!1 &5755129476427399615
GameObject:
  m_ObjectHideFlags: 0
  m_CorrespondingSourceObject: {fileID: 0}
  m_PrefabInstance: {fileID: 0}
  m_PrefabAsset: {fileID: 0}
  serializedVersion: 6
  m_Component:
  - component: {fileID: 5755129476427399613}
  - component: {fileID: 5755129476427399614}
  m_Layer: 0
  m_Name: MoveSound
  m_TagString: Untagged
  m_Icon: {fileID: 0}
  m_NavMeshLayer: 0
  m_StaticEditorFlags: 0
  m_IsActive: 1
--- !u!4 &5755129476427399613
Transform:
  m_ObjectHideFlags: 0
  m_CorrespondingSourceObject: {fileID: 0}
  m_PrefabInstance: {fileID: 0}
  m_PrefabAsset: {fileID: 0}
  m_GameObject: {fileID: 5755129476427399615}
  m_LocalRotation: {x: 0, y: 0, z: 0, w: 1}
  m_LocalPosition: {x: -13.411609, y: -1.1716499, z: -31.574432}
  m_LocalScale: {x: 1, y: 1, z: 1}
  m_Children: []
  m_Father: {fileID: 0}
  m_RootOrder: 0
  m_LocalEulerAnglesHint: {x: 0, y: 0, z: 0}
--- !u!114 &5755129476427399614
MonoBehaviour:
  m_ObjectHideFlags: 0
  m_CorrespondingSourceObject: {fileID: 0}
  m_PrefabInstance: {fileID: 0}
  m_PrefabAsset: {fileID: 0}
  m_GameObject: {fileID: 5755129476427399615}
  m_Enabled: 1
  m_EditorHideFlags: 0
  m_Script: {fileID: 11500000, guid: cbcf641a2162c2645ba8c82d2fc15a54, type: 3}
  m_Name: 
  m_EditorClassIdentifier: 
  tilemaps:
  - {fileID: 0}
  tileDatas:
  - {fileID: 11400000, guid: cc40473a65735cf43bf6c42ef2f55268, type: 2}
  - {fileID: 11400000, guid: bf7b7a69bb6360547957e286dfef0bdd, type: 2}
  la:
    serializedVersion: 2
    m_Bits: 64
  MaterialClips:
  - {fileID: 8300000, guid: 5aa389015bd01bd46a2f82fb28687478, type: 3}
  - {fileID: 8300000, guid: 4d96d4bea76656d499a8139c262cc6cc, type: 3}
  - {fileID: 8300000, guid: 629eda6d687f7e04f8c39564f8ed39e2, type: 3}
  - {fileID: 8300000, guid: a3c3ab35d69edd44eae44ca3821a32d3, type: 3}
  - {fileID: 8300000, guid: fbf0efa430329f24391bb0710b7129bd, type: 3}
  - {fileID: 8300000, guid: eb6575a3cbee10c418ca910e30ef45f2, type: 3}
