%YAML 1.1
%TAG !u! tag:unity3d.com,2011:
--- !u!74 &7400000
AnimationClip:
  m_ObjectHideFlags: 0
  m_CorrespondingSourceObject: {fileID: 0}
  m_PrefabInstance: {fileID: 0}
  m_PrefabAsset: {fileID: 0}
  m_Name: PlayerAttackB
  serializedVersion: 6
  m_Legacy: 0
  m_Compressed: 0
  m_UseHighQualityCurve: 1
  m_RotationCurves: []
  m_CompressedRotationCurves: []
  m_EulerCurves: []
  m_PositionCurves: []
  m_ScaleCurves: []
  m_FloatCurves: []
  m_PPtrCurves:
  - curve:
    - time: 0
      value: {fileID: 21300000, guid: fb2fd1c317fa8034d8c4a8aaced80e47, type: 3}
    - time: 0.083333336
      value: {fileID: 21300000, guid: bc7f171919b310445be2c5758bf7b6a0, type: 3}
    - time: 0.16666667
      value: {fileID: 21300000, guid: 74a2a49fa9824a24baa6f204e46b9f51, type: 3}
    - time: 0.25
      value: {fileID: 21300000, guid: bd1be92d1fda4d844af1b2b7988d4e40, type: 3}
    - time: 0.33333334
      value: {fileID: 21300000, guid: ef7da89d2904e9b4db1d8f13541eac77, type: 3}
    - time: 0.41666666
      value: {fileID: 21300000, guid: 32ff9f1d238e790478b0a19a9f3b66b1, type: 3}
    - time: 0.5
      value: {fileID: 21300000, guid: 40a4d316eb5678b45a4ba5a5cc2b344e, type: 3}
    - time: 0.5833333
      value: {fileID: 21300000, guid: 3faab11c59cf44a4eb638f4162c230b7, type: 3}
    - time: 0.6666667
      value: {fileID: 21300000, guid: 2f13a06088364054391b82900897e29d, type: 3}
    - time: 0.75
      value: {fileID: 21300000, guid: 8ef13bd4ecf701c45b76fbebee27ba26, type: 3}
    - time: 0.8333333
      value: {fileID: 21300000, guid: 184bca7b1147a244ab0ad6f79e0993f3, type: 3}
    attribute: m_Sprite
    path: 
    classID: 212
    script: {fileID: 0}
  m_SampleRate: 12
  m_WrapMode: 0
  m_Bounds:
    m_Center: {x: 0, y: 0, z: 0}
    m_Extent: {x: 0, y: 0, z: 0}
  m_ClipBindingConstant:
    genericBindings:
    - serializedVersion: 2
      path: 0
      attribute: 0
      script: {fileID: 0}
      typeID: 212
      customType: 23
      isPPtrCurve: 1
    pptrCurveMapping:
    - {fileID: 21300000, guid: fb2fd1c317fa8034d8c4a8aaced80e47, type: 3}
    - {fileID: 21300000, guid: bc7f171919b310445be2c5758bf7b6a0, type: 3}
    - {fileID: 21300000, guid: 74a2a49fa9824a24baa6f204e46b9f51, type: 3}
    - {fileID: 21300000, guid: bd1be92d1fda4d844af1b2b7988d4e40, type: 3}
    - {fileID: 21300000, guid: ef7da89d2904e9b4db1d8f13541eac77, type: 3}
    - {fileID: 21300000, guid: 32ff9f1d238e790478b0a19a9f3b66b1, type: 3}
    - {fileID: 21300000, guid: 40a4d316eb5678b45a4ba5a5cc2b344e, type: 3}
    - {fileID: 21300000, guid: 3faab11c59cf44a4eb638f4162c230b7, type: 3}
    - {fileID: 21300000, guid: 2f13a06088364054391b82900897e29d, type: 3}
    - {fileID: 21300000, guid: 8ef13bd4ecf701c45b76fbebee27ba26, type: 3}
    - {fileID: 21300000, guid: 184bca7b1147a244ab0ad6f79e0993f3, type: 3}
  m_AnimationClipSettings:
    serializedVersion: 2
    m_AdditiveReferencePoseClip: {fileID: 0}
    m_AdditiveReferencePoseTime: 0
    m_StartTime: 0
    m_StopTime: 0.9166666
    m_OrientationOffsetY: 0
    m_Level: 0
    m_CycleOffset: 0
    m_HasAdditiveReferencePose: 0
    m_LoopTime: 0
    m_LoopBlend: 0
    m_LoopBlendOrientation: 0
    m_LoopBlendPositionY: 0
    m_LoopBlendPositionXZ: 0
    m_KeepOriginalOrientation: 0
    m_KeepOriginalPositionY: 1
    m_KeepOriginalPositionXZ: 0
    m_HeightFromFeet: 0
    m_Mirror: 0
  m_EditorCurves: []
  m_EulerEditorCurves: []
  m_HasGenericRootTransform: 0
  m_HasMotionFloatCurves: 0
  m_Events:
  - time: 0.083333336
    functionName: PlaySlashSFX
    data: 
    objectReferenceParameter: {fileID: 0}
    floatParameter: 0
    intParameter: 1
    messageOptions: 0
  - time: 0.083333336
    functionName: ComboPossible_
    data: 
    objectReferenceParameter: {fileID: 0}
    floatParameter: 0
    intParameter: 0
    messageOptions: 0
  - time: 0.083333336
    functionName: WeaponColVisible
    data: 
    objectReferenceParameter: {fileID: 0}
    floatParameter: 0
    intParameter: 0
    messageOptions: 0
  - time: 0.75
    functionName: Combo
    data: 
    objectReferenceParameter: {fileID: 0}
    floatParameter: 0
    intParameter: 0
    messageOptions: 0
  - time: 0.75
    functionName: WeaponColHide
    data: 
    objectReferenceParameter: {fileID: 0}
    floatParameter: 0
    intParameter: 0
    messageOptions: 0
  - time: 0.8333333
    functionName: ComboReset
    data: 
    objectReferenceParameter: {fileID: 0}
    floatParameter: 0
    intParameter: 0
    messageOptions: 0
