%YAML 1.1
%TAG !u! tag:unity3d.com,2011:
--- !u!74 &7400000
AnimationClip:
  m_ObjectHideFlags: 0
  m_CorrespondingSourceObject: {fileID: 0}
  m_PrefabInstance: {fileID: 0}
  m_PrefabAsset: {fileID: 0}
  m_Name: PlayerRoll
  serializedVersion: 6
  m_Legacy: 0
  m_Compressed: 0
  m_UseHighQualityCurve: 1
  m_RotationCurves: []
  m_CompressedRotationCurves: []
  m_EulerCurves: []
  m_PositionCurves: []
  m_ScaleCurves: []
  m_FloatCurves: []
  m_PPtrCurves:
  - curve:
    - time: 0
      value: {fileID: 21300000, guid: 2828a982a23512e41b5e4ee036958194, type: 3}
    - time: 0.083333336
      value: {fileID: 21300000, guid: 09f58af7bb1d3954ba1c922703a141a5, type: 3}
    - time: 0.16666667
      value: {fileID: 21300000, guid: 7f0751bb353c55b4d9c2913d5e611374, type: 3}
    - time: 0.25
      value: {fileID: 21300000, guid: 4f8e60b9e04320d4e8a1289481c8563a, type: 3}
    - time: 0.33333334
      value: {fileID: 21300000, guid: e80906708638abd46b48bc5f39cc4b05, type: 3}
    - time: 0.41666666
      value: {fileID: 21300000, guid: d82601494aae18d418875c0e6232f289, type: 3}
    - time: 0.5
      value: {fileID: 21300000, guid: c1f1c05ef5b599c46a491427801fa013, type: 3}
    - time: 0.5833333
      value: {fileID: 21300000, guid: 5ffdb7d81e2c5df4ca63e9baf65295e9, type: 3}
    attribute: m_Sprite
    path: 
    classID: 212
    script: {fileID: 0}
  m_SampleRate: 12
  m_WrapMode: 0
  m_Bounds:
    m_Center: {x: 0, y: 0, z: 0}
    m_Extent: {x: 0, y: 0, z: 0}
  m_ClipBindingConstant:
    genericBindings:
    - serializedVersion: 2
      path: 0
      attribute: 0
      script: {fileID: 0}
      typeID: 212
      customType: 23
      isPPtrCurve: 1
    pptrCurveMapping:
    - {fileID: 21300000, guid: 2828a982a23512e41b5e4ee036958194, type: 3}
    - {fileID: 21300000, guid: 09f58af7bb1d3954ba1c922703a141a5, type: 3}
    - {fileID: 21300000, guid: 7f0751bb353c55b4d9c2913d5e611374, type: 3}
    - {fileID: 21300000, guid: 4f8e60b9e04320d4e8a1289481c8563a, type: 3}
    - {fileID: 21300000, guid: e80906708638abd46b48bc5f39cc4b05, type: 3}
    - {fileID: 21300000, guid: d82601494aae18d418875c0e6232f289, type: 3}
    - {fileID: 21300000, guid: c1f1c05ef5b599c46a491427801fa013, type: 3}
    - {fileID: 21300000, guid: 5ffdb7d81e2c5df4ca63e9baf65295e9, type: 3}
  m_AnimationClipSettings:
    serializedVersion: 2
    m_AdditiveReferencePoseClip: {fileID: 0}
    m_AdditiveReferencePoseTime: 0
    m_StartTime: 0
    m_StopTime: 0.6666666
    m_OrientationOffsetY: 0
    m_Level: 0
    m_CycleOffset: 0
    m_HasAdditiveReferencePose: 0
    m_LoopTime: 0
    m_LoopBlend: 0
    m_LoopBlendOrientation: 0
    m_LoopBlendPositionY: 0
    m_LoopBlendPositionXZ: 0
    m_KeepOriginalOrientation: 0
    m_KeepOriginalPositionY: 1
    m_KeepOriginalPositionXZ: 0
    m_HeightFromFeet: 0
    m_Mirror: 0
  m_EditorCurves: []
  m_EulerEditorCurves: []
  m_HasGenericRootTransform: 0
  m_HasMotionFloatCurves: 0
  m_Events:
  - time: 0.16666667
    functionName: PlayRunSFX
    data: 
    objectReferenceParameter: {fileID: 0}
    floatParameter: 0
    intParameter: 0
    messageOptions: 0
  - time: 0.41666666
    functionName: PlayRunSFX
    data: 
    objectReferenceParameter: {fileID: 0}
    floatParameter: 0
    intParameter: 0
    messageOptions: 0
  - time: 0.5
    functionName: RollingFalse
    data: 
    objectReferenceParameter: {fileID: 0}
    floatParameter: 0
    intParameter: 0
    messageOptions: 0
